WaveWidthPhase2constrain/.Xil/Vivado-12376-DESKTOP-G3B5TCR/hw_ila_data_2/zip_work/waveform.vcd
$date
        2019-Dec-12 22:21:34
$end
$version
        Vivado v2017.4 (64-bit)
$end
$timescale
        1ps
$end
$scope module dut $end
$var reg 8 " example_top/MonopulseEx_Arithmetic1/Arithmetic1/Monopulse_data_vi [7:0] $end
$var reg 33 * example_top/MonopulseEx_Arithmetic1/Arithmetic1/Cube_data [32:0] $end
$var reg 41 K example_top/MonopulseEx_Arithmetic1/Arithmetic1/Biquadrate_data [40:0] $end
$var reg 21 t u_ila_0_Square_data [20:0] $end
$var reg 9 +" example_top/MonopulseEx_Arithmetic1/Arithmetic1/SubtractionMean_data_n [8:0] $end
$var reg 10 4" example_top/MonopulseEx_Arithmetic1/Arithmetic1/SubtractionMean_data2 [9:0] $end
$var reg 16 >" example_top/MonopulseEx_Arithmetic1/Monopulse_extraction_1/send_count [15:0] $end
$var reg 41 N" example_top/Fourth_moment [40:0] $end
$var reg 16 w" example_top/Count [15:0] $end
$var reg 16 )# example_top/Monopulse_data1 [15:0] $end
$var reg 3 9# u_ila_0_Arithmetic_State [2:0] $end
$var reg 8 <# u_ila_0_Monopulse_data_1 [7:0] $end
$var reg 16 D# example_top/Monopulse_num [15:0] $end
$var reg 6 T# example_top/Period_count [5:0] $end
$var reg 6 Z# example_top/Behind_area [5:0] $end
$var reg 10 `# Behind_area [15:6] $end
$var reg 8 j# example_top/Write_Fifo_datain [7:0] $end
$var reg 24 r# example_top/Second_moment [23:0] $end
$var reg 25 ,$ example_top/ddr3read_en2 [24:0] $end
$var reg 32 E$ example_top/feature_num [31:0] $end
$var reg 25 e$ example_top/ddr3read_en1 [24:0] $end
$var reg 11 ~$ example_top/Read_Fifo_rusdw_o [10:0] $end
$var reg 16 +% example_top/Read_Fifo_Out [15:0] $end
$var reg 16 ;% example_top/time_cnt [15:0] $end
$var reg 33 K% example_top/Third_moment [32:0] $end
$var reg 16 l% example_top/ii [15:0] $end
$var reg 16 |% example_top/Pulse_point_num [15:0] $end
$var reg 2 .& u_ila_0_WaveState [1:0] $end
$var reg 1 0& u_ila_0_FeatureExtraction_flag $end
$var reg 1 1& SendIRQ_OBUF $end
$var reg 1 2& example_top/Read_Fifo_empty $end
$var reg 1 3& u_ila_0_Read_Fifo_rden $end
$var reg 1 4& example_top/S_FeatureExtraction_flag_reg1 $end
$var reg 1 5& _TRIGGER $end
$var reg 1 6& _WINDOW $end
$var reg 1 7& _GAP $end
$upscope $end
$enddefinitions $end
#0
$dumpvars
b0 "
b111111111111111111011101101011000 *
b1101111100100010000 K
b1010100100 t
b111100110 +"
b11010 4"
b111 >"
b100101110100011011110100101110 N"
b0 w"
b1101001 )#
b11 9#
b1101001 <#
b101000 D#
b101 T#
b111011 Z#
b1101 `#
b1101001 j#
b10011110000110110 r#
b0 ,$
b1001111011000 E$
b0 e$
b10010100000 ~$
b1101001 +%
b0 ;%
b10100110010100011110110 K%
b110001 l%
b100 |%
b0 .&
00&
01&
02&
13&
04&
05&
16&
07&
$end
#1
b10010011111 ~$
#2
b10010011110 ~$
#3
b10010011101 ~$
#4
b10010011100 ~$
#5
b10010011011 ~$
#6
b10010011010 ~$
#7
b10010011001 ~$
#8
b10010011000 ~$
#9
b10010010111 ~$
#10
b10010010110 ~$
#11
b10010010101 ~$
#12
b10010010100 ~$
#13
b10010010011 ~$
#14
b10010010010 ~$
#15
b1101000 j#
b10010010001 ~$
#16
b1101001 j#
b10010010000 ~$
#17
b10010001111 ~$
#18
b10010001110 ~$
#19
b10010001101 ~$
#20
b1101000 j#
b10010001100 ~$
#21
b1101001 j#
b10010001011 ~$
#22
b10010001010 ~$
#23
b10010001001 ~$
#24
b10010001000 ~$
#25
b10010000111 ~$
#26
b10010000110 ~$
#27
b10010000101 ~$
#28
b1101000 j#
b10010000100 ~$
#29
b1101001 j#
b10010000011 ~$
#30
b10010000010 ~$
#31
b1101000 j#
b10010000001 ~$
#32
b1101001 j#
b10010000000 ~$
#33
b10001111111 ~$
#34
b10001111110 ~$
#35
b10001111101 ~$
#36
b10001111100 ~$
#37
b10001111011 ~$
#38
b10001111010 ~$
#39
b10001111001 ~$
#40
b10001111000 ~$
#41
b10001110111 ~$
#42
b10001110110 ~$
#43
b10001110101 ~$
#44
b10001110100 ~$
#45
b10001110011 ~$
#46
b10001110010 ~$
#47
b10001110001 ~$
#48
b10001110000 ~$
#49
b10001101111 ~$
#50
b10001101110 ~$
#51
b10001101101 ~$
#52
b10001101100 ~$
#53
b10001101011 ~$
#54
b10001101010 ~$
#55
b10001101001 ~$
#56
b10001101000 ~$
#57
b10001100111 ~$
b1101000 +%
#58
b1101000 <#
b10001100110 ~$
#59
b10001100101 ~$
#60
b10001100100 ~$
b1101001 +%
#61
b1101001 <#
b10001100011 ~$
#62
b10001100010 ~$
#63
b10001100001 ~$
#64
b1101010 j#
b10001100000 ~$
#65
b10001011111 ~$
b1101000 +%
#66
b1101000 <#
b1101001 j#
b10001011110 ~$
#67
b10001011101 ~$
#68
b10001011100 ~$
b1101001 +%
#69
b1101001 <#
b10001011011 ~$
#70
b10001011010 ~$
#71
b10001011001 ~$
#72
b10001011000 ~$
#73
b10001010111 ~$
#74
b10001010110 ~$
#75
b10001010101 ~$
#76
b10001010100 ~$
#77
b10001010011 ~$
#78
b10001010010 ~$
#79
b10001010001 ~$
#80
b10001010000 ~$
#81
b10001001111 ~$
#82
b10001001110 ~$
#83
b10001001101 ~$
#84
b10001001100 ~$
#85
b10001001011 ~$
#86
b10001001010 ~$
#87
b10001001001 ~$
#88
b1101000 j#
b10001001000 ~$
#89
b10001000111 ~$
#90
b10001000110 ~$
b1101000 +%
#91
b1101000 <#
b10001000101 ~$
#92
b1101001 j#
b10001000100 ~$
b1101001 +%
#93
b1101001 <#
b10001000011 ~$
#94
b10001000010 ~$
#95
b10001000001 ~$
#96
b10001000000 ~$
b1101000 +%
#97
b1101000 <#
b10000111111 ~$
b1101001 +%
#98
b1101001 <#
b10000111110 ~$
b1101000 +%
#99
b1101000 <#
b10000111101 ~$
#100
b10000111100 ~$
b1101001 +%
#101
b1101001 <#
b10000111011 ~$
#102
b10000111010 ~$
#103
b10000111001 ~$
#104
b1101000 j#
b10000111000 ~$
b1101000 +%
#105
b1101000 <#
b10000110111 ~$
#106
b1101001 j#
b10000110110 ~$
b1101001 +%
#107
b1101001 <#
b10000110101 ~$
#108
b10000110100 ~$
#109
b10000110011 ~$
#110
b10000110010 ~$
#111
b1101000 j#
b10000110001 ~$
#112
b1101001 j#
b10000110000 ~$
#113
b10000101111 ~$
#114
b10000101110 ~$
#115
b10000101101 ~$
#116
b10000101100 ~$
#117
b10000101011 ~$
#118
b10000101010 ~$
#119
b10000101001 ~$
#120
b10000101000 ~$
#121
b10000100111 ~$
#122
b10000100110 ~$
#123
b10000100101 ~$
#124
b10000100100 ~$
#125
b10000100011 ~$
#126
b10000100010 ~$
#127
b10000100001 ~$
#128
b10000100000 ~$
#129
b10000011111 ~$
#130
b10000011110 ~$
#131
b10000011101 ~$
#132
b10000011100 ~$
#133
b10000011011 ~$
#134
b10000011010 ~$
#135
b10000011001 ~$
#136
b10000011000 ~$
#137
b10000010111 ~$
#138
b10000010110 ~$
#139
b10000010101 ~$
#140
b10000010100 ~$
#141
b10000010011 ~$
#142
b10000010010 ~$
#143
b10000010001 ~$
#144
b10000010000 ~$
#145
b10000001111 ~$
#146
b10000001110 ~$
#147
b10000001101 ~$
#148
b1101000 j#
b10000001100 ~$
#149
b1101001 j#
b10000001011 ~$
#150
b10000001010 ~$
#151
b10000001001 ~$
#152
b10000001000 ~$
#153
b10000000111 ~$
#154
b10000000110 ~$
#155
b10000000101 ~$
#156
b10000000100 ~$
#157
b10000000011 ~$
#158
b10000000010 ~$
#159
b10000000001 ~$
#160
b10000000000 ~$
#161
b1111111111 ~$
#162
b1111111110 ~$
#163
b1111111101 ~$
#164
b1111111100 ~$
#165
b1101000 j#
b1111111011 ~$
#166
b1111111010 ~$
#167
b1101001 j#
b1111111001 ~$
#168
b1111111000 ~$
#169
b1111110111 ~$
#170
b1111110110 ~$
#171
b1111110101 ~$
#172
b1111110100 ~$
#173
b1111110011 ~$
#174
b1111110010 ~$
#175
b1111110001 ~$
#176
b1111110000 ~$
#177
b1111101111 ~$
#178
b1111101110 ~$
#179
b1111101101 ~$
#180
b1111101100 ~$
#181
b1111101011 ~$
#182
b1111101010 ~$
#183
b1111101001 ~$
#184
b1111101000 ~$
#185
b1111100111 ~$
#186
b1111100110 ~$
#187
b1111100101 ~$
#188
b1111100100 ~$
#189
b1111100011 ~$
#190
b1111100010 ~$
#191
b1111100001 ~$
#192
b1111100000 ~$
#193
b1111011111 ~$
#194
b1111011110 ~$
#195
b1111011101 ~$
#196
b1111011100 ~$
#197
b1111011011 ~$
#198
b1111011010 ~$
#199
b1111011001 ~$
#200
b1111011000 ~$
#201
b1111010111 ~$
#202
b1111010110 ~$
#203
b1111010101 ~$
#204
b1111010100 ~$
#205
b1111010011 ~$
#206
b1111010010 ~$
#207
b1111010001 ~$
#208
b1111010000 ~$
#209
b1111001111 ~$
#210
b1111001110 ~$
#211
b1111001101 ~$
#212
b1111001100 ~$
#213
b1111001011 ~$
#214
b1111001010 ~$
#215
b1111001001 ~$
#216
b1101010 j#
b1111001000 ~$
#217
b1111000111 ~$
#218
b1101001 j#
b1111000110 ~$
#219
b1111000101 ~$
#220
b1111000100 ~$
#221
b1111000011 ~$
#222
b1111000010 ~$
#223
b1111000001 ~$
#224
b1111000000 ~$
#225
b1110111111 ~$
#226
b1110111110 ~$
#227
b1110111101 ~$
#228
b1110111100 ~$
#229
b1101000 j#
b1110111011 ~$
#230
b1110111010 ~$
#231
b1101001 j#
b1110111001 ~$
#232
b1101000 j#
b1110111000 ~$
#233
b1110110111 ~$
#234
b1110110110 ~$
#235
b1110110101 ~$
#236
b1101001 j#
b1110110100 ~$
#237
b1110110011 ~$
#238
b1110110010 ~$
#239
b1110110001 ~$
#240
b1110110000 ~$
#241
b1110101111 ~$
#242
b1110101110 ~$
#243
b1110101101 ~$
#244
b1101000 j#
b1110101100 ~$
#245
b1101001 j#
b1110101011 ~$
#246
b1110101010 ~$
#247
b1110101001 ~$
#248
b1110101000 ~$
#249
b1110100111 ~$
#250
b1110100110 ~$
b1101000 +%
#251
b1101000 <#
b1110100101 ~$
#252
b1110100100 ~$
b1101001 +%
#253
b1101001 <#
b1101000 j#
b1110100011 ~$
#254
b1110100010 ~$
#255
b1101001 j#
b1110100001 ~$
#256
b1110100000 ~$
#257
b1110011111 ~$
#258
b1110011110 ~$
#259
b1110011101 ~$
#260
b1101000 j#
b1110011100 ~$
#261
b1101001 j#
b1110011011 ~$
#262
b1110011010 ~$
#263
b1110011001 ~$
#264
b1110011000 ~$
#265
b1110010111 ~$
#266
b1110010110 ~$
#267
b1110010101 ~$
#268
b1110010100 ~$
b1101000 +%
#269
b1101000 <#
b1110010011 ~$
#270
b1110010010 ~$
#271
b1110010001 ~$
#272
b1110010000 ~$
b1101001 +%
#273
b1101001 <#
b1110001111 ~$
#274
b1110001110 ~$
#275
b1110001101 ~$
#276
b1110001100 ~$
b1101000 +%
#277
b1101000 <#
b1110001011 ~$
#278
b1110001010 ~$
#279
b1110001001 ~$
#280
b1110001000 ~$
b1101001 +%
#281
b1101001 <#
b1110000111 ~$
#282
b1110000110 ~$
#283
b1110000101 ~$
#284
b1110000100 ~$
#285
b1110000011 ~$
#286
b1110000010 ~$
b1101000 +%
#287
b1101000 <#
b1110000001 ~$
#288
b1110000000 ~$
b1101001 +%
#289
b1101001 <#
b1101111111 ~$
#290
b1101010 j#
b1101111110 ~$
#291
b1101111101 ~$
#292
b1101001 j#
b1101111100 ~$
#293
b1101111011 ~$
#294
b1101111010 ~$
b1101000 +%
#295
b1101000 <#
b1101111001 ~$
#296
b1101111000 ~$
b1101001 +%
#297
b1101001 <#
b1101110111 ~$
#298
b1101110110 ~$
#299
b1101110101 ~$
#300
b1101110100 ~$
b1101000 +%
#301
b1101000 <#
b1101110011 ~$
#302
b1101110010 ~$
b1101001 +%
#303
b1101001 <#
b1101110001 ~$
#304
b1101110000 ~$
#305
b1101101111 ~$
#306
b1101101110 ~$
#307
b1101101101 ~$
#308
b1101101100 ~$
b1101000 +%
#309
b1101000 <#
b1101101011 ~$
#310
b1101101010 ~$
b1101001 +%
#311
b1101001 <#
b1101101001 ~$
#312
b1101101000 ~$
#313
b1101100111 ~$
#314
b1101100110 ~$
#315
b1101100101 ~$
#316
b1101100100 ~$
#317
b1101100011 ~$
#318
b1101100010 ~$
#319
b1101100001 ~$
#320
b1101100000 ~$
#321
b1101011111 ~$
#322
b1101011110 ~$
#323
b1101011101 ~$
#324
b1101011100 ~$
#325
b1101011011 ~$
#326
b1101011010 ~$
#327
b1101011001 ~$
#328
b1101011000 ~$
#329
b1101010111 ~$
#330
b1101010110 ~$
b1101000 +%
#331
b1101000 <#
b1101010101 ~$
#332
b1101010100 ~$
#333
b1101010011 ~$
#334
b1101010010 ~$
b1101001 +%
#335
b1101001 <#
b1101010001 ~$
#336
b1101010000 ~$
b1101000 +%
#337
b1101000 <#
b1101001111 ~$
b1101001 +%
#338
b1101001 <#
b1101001110 ~$
b1101000 +%
#339
b1101000 <#
b1101001101 ~$
#340
b1101001100 ~$
#341
b1101001011 ~$
#342
b1101001010 ~$
b1101001 +%
#343
b1101001 <#
b1101001001 ~$
#344
b1101001000 ~$
b1101000 +%
#345
b1101000 <#
b1101000111 ~$
b1101001 +%
#346
b1101001 <#
b1101000110 ~$
#347
b1101000101 ~$
#348
b1101000100 ~$
#349
b1101000011 ~$
#350
b1101000010 ~$
#351
b1101000001 ~$
#352
b1101000000 ~$
#353
b1100111111 ~$
#354
b1100111110 ~$
#355
b1100111101 ~$
#356
b1100111100 ~$
#357
b1100111011 ~$
#358
b1100111010 ~$
#359
b1100111001 ~$
#360
b1100111000 ~$
#361
b1100110111 ~$
#362
b1100110110 ~$
#363
b1100110101 ~$
#364
b1100110100 ~$
#365
b1100110011 ~$
#366
b1100110010 ~$
#367
b1100110001 ~$
#368
b1100110000 ~$
#369
b1100101111 ~$
#370
b1100101110 ~$
#371
b1100101101 ~$
#372
b1100101100 ~$
#373
b1100101011 ~$
#374
b1100101010 ~$
#375
b1100101001 ~$
#376
b1100101000 ~$
#377
b1100100111 ~$
#378
b1100100110 ~$
b1101011 +%
#379
b1101011 <#
b1100100101 ~$
#380
b1100100100 ~$
b11001010 +%
#381
b11001010 <#
b1100100011 ~$
b11111100 +%
b1 .&
#382
b1001 >"
b1100100010 ~$
b11011001 +%
b110 |%
#383
b1010 >"
b1100100001 ~$
b10110111 +%
b111 |%
#384
b1011 >"
b1100100000 ~$
b11010011 +%
b1000 |%
#385
b1100 >"
b1100011111 ~$
b1101001 +%
b1001 |%
#386
b1101 >"
b1100011110 ~$
b1101011 +%
b1010 |%
b10 .&
#387
b1110 >"
b1100011101 ~$
b1011 |%
#388
b1111 >"
b1100011100 ~$
b11001010 +%
b1100 |%
#389
b10000 >"
b1100011011 ~$
b11111100 +%
b1101 |%
b1 .&
#390
b10001 >"
b1100011010 ~$
b11011001 +%
b1110 |%
#391
b10010 >"
b1100011001 ~$
b10110111 +%
b1111 |%
#392
b10011 >"
b1100011000 ~$
b11010011 +%
b10000 |%
#393
b10100 >"
b1100010111 ~$
b1101001 +%
b10001 |%
#394
b10101 >"
b1101000 j#
b1100010110 ~$
b10010 |%
b10 .&
#395
b10110 >"
b1100010101 ~$
b10011 |%
#396
b10111 >"
b1101001 j#
b1100010100 ~$
b10100 |%
#397
b11000 >"
b1100010011 ~$
b10101 |%
#398
b11001 >"
b1100010010 ~$
b10110 |%
#399
b11010 >"
b1100010001 ~$
b10111 |%
#400
b11011 >"
b1100010000 ~$
b11000 |%
#401
b11100 >"
b1100001111 ~$
b11001 |%
#402
b11101 >"
b1100001110 ~$
b11010 |%
#403
b11110 >"
b1100001101 ~$
b11011 |%
#404
b11111 >"
b1100001100 ~$
b11100 |%
#405
b100000 >"
b1100001011 ~$
b11101 |%
#406
b100001 >"
b1100001010 ~$
b11110 |%
#407
b100010 >"
b1100001001 ~$
b11111 |%
#408
b100011 >"
b1101010 j#
b1100001000 ~$
b100000 |%
#409
b100100 >"
b1100000111 ~$
b100001 |%
#410
b100101 >"
b1100000110 ~$
b100010 |%
#411
b100110 >"
b1100000101 ~$
b100011 |%
#412
b100111 >"
b1100000100 ~$
b100100 |%
#413
b101000 >"
b1101001 j#
b1100000011 ~$
b100101 |%
#414
b101001 >"
b1100000010 ~$
b100110 |%
#415
b101010 >"
b1101010 j#
b1100000001 ~$
b100111 |%
b0 .&
10&
03&
#416
b1 w"
b100111 )#
b10 9#
b1101001 j#
b1100000000 ~$
#417
b10 w"
b100111 D#
b0 Z#
b0 `#
b1 ;%
#418
b11 w"
b10 ;%
#419
b100 w"
b1101001 )#
b11 ;%
#420
b1 "
b101 w"
b100 ;%
#421
b110 w"
b1101011 )#
b1 Z#
b101 ;%
#422
b11 "
b111 w"
b0 Z#
b110 ;%
#423
b1000 w"
b11001010 )#
b11 Z#
b111 ;%
#424
b1100010 "
b1001 w"
b11111100 )#
b0 Z#
b1000 ;%
#425
b10010100 "
b1010 w"
b11011001 )#
b1001 ;%
#426
b1110001 "
b1011 w"
b10110111 )#
b110001 Z#
b1 `#
b1010 ;%
#427
b1001111 "
b1100 w"
b11010011 )#
b0 Z#
b11 `#
b1011 ;%
#428
b1101011 "
b1101 w"
b1101001 )#
b101011 Z#
b100 `#
b1100 ;%
#429
b1 "
b1110 w"
b1101011 )#
b101100 Z#
b1101000 j#
b1101 ;%
#430
b11 "
b1111 w"
b101111 Z#
b1110 ;%
#431
b10000 w"
b11001010 )#
b110010 Z#
b1101001 j#
b1111 ;%
#432
b1100010 "
b10001 w"
b11111100 )#
b10100 Z#
b110 `#
b1101000 j#
b10000 ;%
#433
b10010100 "
b10010 w"
b11011001 )#
b101000 Z#
b1000 `#
b10001 ;%
#434
b1110001 "
b10011 w"
b10110111 )#
b11001 Z#
b1010 `#
b1101001 j#
b10010 ;%
#435
b1001111 "
b10100 w"
b11010011 )#
b101000 Z#
b1011 `#
b10011 ;%
#436
b1101011 "
b10101 w"
b1101001 )#
b10011 Z#
b1101 `#
b10100 ;%
#437
b1 "
b10110 w"
b10100 Z#
b10101 ;%
#438
b10111 w"
b10101 Z#
b10110 ;%
#439
b11000 w"
b10110 Z#
b10111 ;%
#440
b11001 w"
b10111 Z#
b11000 ;%
#441
b11010 w"
b11000 Z#
b11001 ;%
#442
b11011 w"
b11001 Z#
b1101000 j#
b11010 ;%
#443
b11100 w"
b11010 Z#
b11011 ;%
#444
b11101 w"
b11011 Z#
b1101001 j#
b11100 ;%
#445
b11110 w"
b11100 Z#
b11101 ;%
#446
b11111 w"
b11101 Z#
b11110 ;%
#447
b100000 w"
b11110 Z#
b1101000 j#
b11111 ;%
#448
b100001 w"
b11111 Z#
b1101001 j#
b100000 ;%
#449
b100010 w"
b100000 Z#
b100001 ;%
#450
b100011 w"
b100001 Z#
b100010 ;%
#451
b100100 w"
b100010 Z#
b100011 ;%
#452
b100101 w"
b100011 Z#
b100100 ;%
#453
b100110 w"
b100100 Z#
b1101000 j#
b100101 ;%
#454
b100111 w"
b100101 Z#
b100110 ;%
#455
b101000 w"
b100110 Z#
b1101001 j#
b100111 ;%
#456
b101001 w"
b100111 Z#
b1101000 j#
b101000 ;%
#457
b101010 w"
b101000 Z#
b101001 ;%
#458
b101011 w"
b1101000 )#
b110 9#
b101001 Z#
b1101001 j#
b101010 ;%
#459
b0 ;%
#460
b0 "
b111 9#
#461
b1 ;%
#462
b101 9#
#463
b0 *
b0 K
b0 t
b0 +"
b0 4"
b0 N"
b0 r#
b0 ;%
b0 K%
b0 l%
#464
b100 9#
b1 ;%
#465
b111100100 +"
b10 ;%
b1 l%
#466
b11 ;%
b10 l%
#467
b1 "
b1100010000 t
b111100110 +"
b11100 4"
b100 ;%
b11 l%
#468
b10010110000100000000 K
b1100010000 r#
b101 ;%
b100 l%
#469
b11 "
b111111111111111111010101001000000 *
b1010100100 t
b1000101 +"
b11010 4"
b10010110000100000000 N"
b11000100000 r#
b110 ;%
b101 l%
#470
b1101111100100010000 K
b1110111 +"
b100101100001000000000 N"
b100011000100 r#
b111 ;%
b111111111111111111010101001000000 K%
b110 l%
#471
b1100010 "
b111111111111111111011101101011000 *
b1001010011001 t
b1010100 +"
b1000101 4"
b110011011101100010000 N"
b1101000 j#
b101101101000 r#
b1000 ;%
b111111111111111110101010010000000 K%
b111 l%
#472
b10010100 "
b1010110011101111101110001 K
b11011101010001 t
b110010 +"
b1110111 4"
b1000001011010000100000 N"
b1101001 j#
b1111000000001 r#
b1001 ;%
b111111111111111110000111111011000 K%
b1000 l%
#473
b1110001 "
b1010000001100111101 *
b1011111100111110011110100001 K
b1101110010000 t
b1001110 +"
b1010100 4"
b1011110101001001110010001 N"
b101010101010010 r#
b1010 ;%
b111111111111111101100101100110000 K%
b1001 l%
#474
b1001111 "
b110011011011010100111 *
b10111101111011000100000000 K
b100111000100 t
b111100100 +"
b110010 4"
b1101011011100111101100110010 N"
b111000011100010 r#
b1011 ;%
b111100111001101101 K%
b1010 l%
#475
b1101011 "
b10010000101101000000 *
b10111110101111000010000 K
b1011111000100 t
b111100110 +"
b1001110 4"
b10000011001100010110000110010 N"
b111101010100110 r#
b1100 ;%
b111011000010100010100 K%
b1011 l%
#476
b1 "
b11110100001001000 *
b10001101001100111000010000 K
b1100010000 t
b11100 4"
b10000110001011000101001000010 N"
b1001001001101010 r#
b1101 ;%
b1001101001000001010100 K%
b1100 l%
#477
b11 "
b1110011110110111000 *
b10010110000100000000 K
b1010100100 t
b1000101 +"
b11010 4"
b10010111110100101100001010010 N"
b1001010101111010 r#
b1110 ;%
b1010000111100010011100 K%
b1101 l%
#478
b111111111111111111010101001000000 *
b1101111100100010000 K
b1110111 +"
b10011000000111011100101010010 N"
b1001100000011110 r#
b1111 ;%
b1011111011011001010100 K%
b1110 l%
#479
b1100010 "
b111111111111111111011101101011000 *
b1001010011001 t
b1010100 +"
b1000101 4"
b10011000010101011001001100010 N"
b1001101011000010 r#
b10000 ;%
b1011110110000010010100 K%
b1111 l%
#480
b10010100 "
b1010110011101111101110001 K
b11011101010001 t
b110010 +"
b1110111 4"
b10011000100011010101101110010 N"
b1010110101011011 r#
b10001 ;%
b1011110001101111101100 K%
b10000 l%
#481
b1110001 "
b1010000001100111101 *
b1011111100111110011110100001 K
b1101110010000 t
b1001110 +"
b1010100 4"
b10100011010111000101011100011 N"
b1110010010101100 r#
b10010 ;%
b1011101101011101000100 K%
b10001 l%
#482
b1001111 "
b110011011011010100111 *
b10111101111011000100000000 K
b100111000100 t
b111100100 +"
b110010 4"
b100000010111110111001010000100 N"
b10000000000111100 r#
b10011 ;%
b1100111101101010000001 K%
b10010 l%
#483
b1101011 "
b10010000101101000000 *
b10111110101111000010000 K
b1011111000100 t
b1001110 4"
b100011010101110010001110000100 N"
b10000101000000000 r#
b10100 ;%
b10011011001000100101000 K%
b10011 l%
#484
b1 "
b11110100001001000 *
b10001101001100111000010000 K
b1100010000 t
b11100 4"
b100011101101101000000110010100 N"
b10010000111000100 r#
b10101 ;%
b10101101001110001101000 K%
b10100 l%
#485
b1110011110110111000 *
b10010110000100000000 K
b100101111010110100111110100100 N"
b10010010011010100 r#
b10110 ;%
b10110001000010010110000 K%
b10101 l%
#486
b111111111111111111010101001000000 *
b100101111101001011000010100100 N"
b10010011111100100 r#
b10111 ;%
b10111111100001001101000 K%
b10110 l%
#487
b100101111111100001000110100100 N"
b10010101011110100 r#
b11000 ;%
b10111110110110010101000 K%
b10111 l%
#488
b100110000001110111001010100100 N"
b10010111000000100 r#
b11001 ;%
b10111110001011011101000 K%
b11000 l%
#489
b100110000100001101001110100100 N"
b10011000100010100 r#
b11010 ;%
b10111101100000100101000 K%
b11001 l%
#490
b100110000110100011010010100100 N"
b10011010000100100 r#
b11011 ;%
b10111100110101101101000 K%
b11010 l%
#491
b100110001000111001010110100100 N"
b10011011100110100 r#
b11100 ;%
b10111100001010110101000 K%
b11011 l%
#492
b100110001011001111011010100100 N"
b10011101001000100 r#
b11101 ;%
b10111011011111111101000 K%
b11100 l%
#493
b100110001101100101011110100100 N"
b10011110101010100 r#
b11110 ;%
b10111010110101000101000 K%
b11101 l%
#494
b100110001111111011100010100100 N"
b10100000001100100 r#
b11111 ;%
b10111010001010001101000 K%
b11110 l%
#495
b100110010010010001100110100100 N"
b10100001101110100 r#
b100000 ;%
b10111001011111010101000 K%
b11111 l%
#496
b100110010100100111101010100100 N"
b10100011010000100 r#
b100001 ;%
b10111000110100011101000 K%
b100000 l%
#497
b100110010110111101101110100100 N"
b10100100110010100 r#
b100010 ;%
b10111000001001100101000 K%
b100001 l%
#498
b100110011001010011110010100100 N"
b10100110010100100 r#
b100011 ;%
b10110111011110101101000 K%
b100010 l%
#499
b100110011011101001110110100100 N"
b10100111110110100 r#
b100100 ;%
b10110110110011110101000 K%
b100011 l%
#500
b100110011101111111111010100100 N"
b10101001011000100 r#
b100101 ;%
b10110110001000111101000 K%
b100100 l%
#501
b100110100000010101111110100100 N"
b10101010111010100 r#
b100110 ;%
b10110101011110000101000 K%
b100101 l%
#502
b100110100010101100000010100100 N"
b10101100011100100 r#
b100111 ;%
b10110100110011001101000 K%
b100110 l%
#503
b100110100101000010000110100100 N"
b10101101111110100 r#
b101000 ;%
b10110100001000010101000 K%
b100111 l%
#504
b100110100111011000001010100100 N"
b10101111100000100 r#
b101001 ;%
b10110011011101011101000 K%
b101000 l%
#505
b100110101001101110001110100100 N"
b10110001000010100 r#
b101010 ;%
b10110010110010100101000 K%
b101001 l%
#506
b100110101100000100010010100100 N"
b10110010100100100 r#
b101011 ;%
b10110010000111101101000 K%
b101010 l%
#507
b0 "
b100110101110011010010110100100 N"
b101100 ;%
b10110001011100110101000 K%
b101011 l%
#508
b101101 ;%
b10110000110001111101000 K%
b101100 l%
#509
b1 "
b101110 ;%
b101101 l%
#510
b101111 ;%
b101110 l%
#511
b0 9#
b110000 ;%
b101111 l%
11&
#512
b1 9#
b1001111011001 E$
b0 ;%
b110000 l%
00&
13&
14&
15&
#513
b0 "
b0 w"
b11 9#
b1001111011010 E$
01&
03&
#514
b1011111111 ~$
04&
#525
b1101000 j#
#527
b1101001 j#
#540
b1101000 j#
#541
b1101001 j#
#559
b1101000 j#
#560
b1101001 j#
#581
b1101000 j#
#583
b1101001 j#
#586
b1101000 j#
#588
b1101001 j#
#591
b1101000 j#
#592
b1101001 j#
#597
b1101000 j#
#599
b1101001 j#
#604
b1101000 j#
#605
b1101001 j#
#612
b1101000 j#
#613
b1101001 j#
#616
b1101000 j#
#618
b1101001 j#
#648
b1101000 j#
#650
b1101001 j#
#658
b1101000 j#
#660
b1101001 j#
#663
b1101000 j#
#664
b1101001 j#
#668
b1101000 j#
#669
b1101001 j#
#682
b1101000 j#
#684
b1101001 j#
#696
b1101000 j#
#698
b1101001 j#
#724
b1101000 j#
#725
b1101001 j#
#728
b1101010 j#
#730
b1101001 j#
#736
b1101000 j#
#738
b1101001 j#
#743
b1101000 j#
#744
b1101001 j#
#756
b1101010 j#
#757
b1101001 j#
#768
b1101000 j#
#770
b1101001 j#
#784
b1101010 j#
#786
b1101001 j#
#832
b1101010 j#
#834
b1101001 j#
#858
b1101000 j#
#860
b1101001 j#
#871
b1101000 j#
#872
b1101001 j#
#880
b1101010 j#
#882
b1101001 j#
#906
b1101000 j#
#908
b1101001 j#
#922
b1101000 j#
#924
b1101001 j#
#927
b1101000 j#
#928
b1101001 j#
#964
b1101000 j#
#965
b1101001 j#
#978
b1101000 j#
#980
b1101001 j#
#981
b1101000 j#
#983
b1101001 j#
#1018
b1101000 j#
#1020
b1101001 j#
