WaveWidth1-Comments/.Xil/Vivado-150696-DESKTOP-G3B5TCR/hw_ila_data_2/zip_work/waveform.vcd
$date
        2019-Nov-09 20:25:09
$end
$version
        Vivado v2017.4 (64-bit)
$end
$timescale
        1ps
$end
$scope module dut $end
$var reg 16 " example_top/MonopulseEx_Arithmetic1/Arithmetic1/test_num [15:0] $end
$var reg 32 2 example_top/CountWrite_tem [31:0] $end
$var reg 16 R example_top/Count [15:0] $end
$var reg 32 b example_top/CountRead_tem [31:0] $end
$var reg 3 $" example_top/AD_Count [2:0] $end
$var reg 2 '" example_top/Arithmetic_State [1:0] $end
$var reg 1 )" Period_condition_1 $end
$var reg 6 *" example_top/Behind_area [5:0] $end
$var reg 10 0" Behind_area [15:6] $end
$var reg 8 :" example_top/Peak_value [7:0] $end
$var reg 128 B" example_top/Write_Fifo_Out [127:0] $end
$var reg 16 d# example_top/app_rd_data8 [15:0] $end
$var reg 8 t# example_top/bit_count [7:0] $end
$var reg 32 |# example_top/SendToArm_Data [31:0] $end
$var reg 21 >$ example_top/Square_data [20:0] $end
$var reg 41 S$ example_top/Fourth_moment [40:0] $end
$var reg 2 |$ example_top/WaveState [1:0] $end
$var reg 8 ~$ example_top/Write_Fifo_datain [7:0] $end
$var reg 32 (% example_top/PeriodPoint_num [31:0] $end
$var reg 16 H% example_top/Monopulse_num [15:0] $end
$var reg 8 X% example_top/Monopulse_data_01 [7:0] $end
$var reg 32 `% example_top/ReadPosition [31:0] $end
$var reg 16 "& example_top/Pulse_point_num [15:0] $end
$var reg 16 2& example_top/Read_Fifo_Out [15:0] $end
$var reg 16 B& example_top/Monopulse_data1 [15:0] $end
$var reg 6 R& example_top/MonopulsePosition_1 [5:0] $end
$var reg 10 X& MonopulsePosition [15:6] $end
$var reg 16 b& example_top/MonopulsePosition [31:16] $end
$var reg 128 r& example_top/app_rd_data [127:0] $end
$var reg 16 6( example_top/app_rd_data1 [15:0] $end
$var reg 16 F( example_top/app_rd_data2 [15:0] $end
$var reg 16 V( example_top/app_rd_data3 [15:0] $end
$var reg 16 f( example_top/app_rd_data4 [15:0] $end
$var reg 8 v( example_top/Write_Fifo_rusdw_o [7:0] $end
$var reg 8 ~( example_top/Mean_value_remainders [7:0] $end
$var reg 16 () example_top/Read_Fifo_Out_r [15:0] $end
$var reg 1 8) Period_condition_2 $end
$var reg 1 9) Period_condition_3 $end
$var reg 1 :) Period_condition_4 $end
$var reg 1 ;) Period_condition_5 $end
$var reg 1 <) Period_condition_6 $end
$var reg 1 =) Period_condition_7 $end
$var reg 1 >) Period_condition_8 $end
$var reg 1 ?) Period_condition_9 $end
$var reg 1 @) Period_condition_10 $end
$var reg 1 A) Period_condition_11 $end
$var reg 1 B) Period_condition_12 $end
$var reg 1 C) Period_condition_13 $end
$var reg 1 D) Period_condition_14 $end
$var reg 1 E) Period_condition_15 $end
$var reg 1 F) Period_condition_16 $end
$var reg 1 G) Period_condition_17 $end
$var reg 8 H) example_top/Monopulse_data_1 [7:0] $end
$var reg 16 P) example_top/Total_area [15:0] $end
$var reg 24 `) example_top/Second_moment [23:0] $end
$var reg 8 x) example_top/Monopulse_data_00 [7:0] $end
$var reg 6 "* example_top/Front_area [5:0] $end
$var reg 10 (* Front_area [15:6] $end
$var reg 8 2* example_top/Mean_value [7:0] $end
$var reg 33 :* example_top/Third_moment [32:0] $end
$var reg 16 [* example_top/Total_area_reg [15:0] $end
$var reg 29 k* example_top/app_addr [28:0] $end
$var reg 16 *+ example_top/app_rd_data5 [15:0] $end
$var reg 16 :+ example_top/app_rd_data7 [15:0] $end
$var reg 128 J+ example_top/app_wdf_data [127:0] $end
$var reg 8 l, example_top/Read_Fifo_wusdw_o [7:0] $end
$var reg 16 t, example_top/app_rd_data6 [15:0] $end
$var reg 6 &- example_top/Period_condition [5:0] $end
$var reg 10 ,- Period_condition [15:6] $end
$var reg 11 6- example_top/Read_Fifo_rusdw_o [10:0] $end
$var reg 29 A- example_top/app_addr_begin [28:0] $end
$var reg 16 ^- example_top/Monopulse_num_reg [15:0] $end
$var reg 6 n- example_top/Period_count [5:0] $end
$var reg 8 t- example_top/SendToArm_Count [7:0] $end
$var reg 4 |- example_top/state1 [3:0] $end
$var reg 128 ". example_top/ddr3_wr_data [127:0] $end
$var reg 16 D/ example_top/time_cnt [15:0] $end
$var reg 16 T/ example_top/ii [15:0] $end
$var reg 16 d/ example_top/time_cnt_n [15:0] $end
$var reg 128 t/ example_top/ddr3_wr_data_r [127:0] $end
$var reg 4 81 example_top/state [3:0] $end
$var reg 1 <1 example_top/app_rd_data_valid $end
$var reg 1 =1 u_ila_0_app_rdy $end
$var reg 1 >1 u_ila_0_clk $end
$var reg 1 ?1 example_top/ddr3_allwr_flag $end
$var reg 1 @1 example_top/ddr3_flag $end
$var reg 1 A1 example_top/ddr3_oneperiod_flag $end
$var reg 1 B1 example_top/ddr3_onewr_flag $end
$var reg 1 C1 example_top/ddr3read_en $end
$var reg 1 D1 example_top/ddr3write_en $end
$var reg 1 E1 example_top/Extract_en $end
$var reg 1 F1 example_top/FeatureExtraction_flag $end
$var reg 1 G1 SendIRQ_OBUF_1 $end
$var reg 1 H1 init_calib_complete_OBUF $end
$var reg 1 I1 example_top/OnePeriod_flag $end
$var reg 1 J1 SendIRQ_OBUF $end
$var reg 1 K1 example_top/Period_flag $end
$var reg 1 L1 example_top/ProsessIn $end
$var reg 1 M1 example_top/ProsessIn1 $end
$var reg 1 N1 example_top/Read_Fifo_empty $end
$var reg 1 O1 example_top/Read_Fifo_full $end
$var reg 1 P1 example_top/Read_Fifo_in_en1 $end
$var reg 1 Q1 example_top/Read_Fifo_rden $end
$var reg 1 R1 example_top/Read_Fifo_rst $end
$var reg 1 S1 example_top/Read_Fifo_wren $end
$var reg 1 T1 example_top/Read_Over_flag $end
$var reg 1 U1 example_top/S_FeatureExtraction_flag_neg $end
$var reg 1 V1 example_top/S_FeatureExtraction_flag_reg1 $end
$var reg 1 W1 example_top/S_FeatureExtraction_flag_reg2 $end
$var reg 1 X1 example_top/SendToArm_begin $end
$var reg 1 Y1 example_top/SendToArm_Over $end
$var reg 1 Z1 example_top/Write_Fifo_empty $end
$var reg 1 [1 example_top/Write_Fifo_full $end
$var reg 1 \1 example_top/WriteSign $end
$var reg 1 ]1 _TRIGGER $end
$var reg 1 ^1 _WINDOW $end
$var reg 1 _1 _GAP $end
$upscope $end
$enddefinitions $end
#0
$dumpvars
b10000001010100 "
b100100010010110000011101 2
b0 R
b1100010111100001111001 b
b110 $"
b0 '"
0)"
b0 *"
b0 0"
b11001110 :"
b110000110000000011000100000000001100010100000000110001100000000011000111000000001100100000000000110010010000000011001010 B"
b11001011 d#
b11110 t#
b0 |#
b0 >$
b10011100000101000101000110110011 S$
b0 |$
b11111 ~$
b0 (%
b1000101 H%
b1001101 X%
b1100010111011111000100101 `%
b10 "&
b1001111 2&
b11111111 B&
b10111 R&
b1011111000 X&
b110001011 b&
b110010110000000011001100000000001100110100000000110011100000000011001111000000001101000000000000110100010000000011010010 r&
b11010010 6(
b11010001 F(
b11010000 V(
b11001111 f(
b1 v(
b101000 ~(
b1001111 ()
08)
09)
0:)
0;)
0<)
0=)
0>)
0?)
0@)
0A)
0B)
0C)
0D)
0E)
0F)
0G)
b1001110 H)
b1101000001000 P)
b1001011100001011111 `)
b1001100 x)
b1000 "*
b1101000 (*
b1100001 2*
b110101100010111110111101 :*
b1101000001000 [*
b1100010111100001111000000 k*
b11001110 *+
b11001100 :+
b0 J+
b10111000 l,
b11001101 t,
b11 &-
b0 ,-
b10110100011 6-
b1100010111100001111000000 A-
b1000101 ^-
b110 n-
b0 t-
b0 |-
b0 ".
b0 D/
b0 T/
b0 d/
b0 t/
b100 81
1<1
1=1
0>1
1?1
0@1
0A1
0B1
1C1
0D1
1E1
0F1
0G1
1H1
0I1
0J1
0K1
1L1
0M1
0N1
0O1
0P1
1Q1
0R1
1S1
0T1
0U1
0V1
0W1
0X1
1Y1
0Z1
0[1
0\1
0]1
1^1
0_1
$end
#1
b10000001001101 "
b1100010111100001111010 b
b111 $"
b11010011 d#
b11111 t#
b1001110 X%
b1100010111011111000100110 `%
b1010000 2&
b110100110000000011010100000000001101010100000000110101100000000011010111000000001101100000000000110110010000000011011010 r&
b11011010 6(
b11011001 F(
b11011000 V(
b11010111 f(
b1010000 ()
b1001111 H)
b1001101 x)
b1100010111100001111001000 k*
b11010110 *+
b11010100 :+
b11010101 t,
b10110101010 6-
b1100010111100001111001000 A-
1>1
#2
b10000001011110 "
b0 $"
b100000 t#
b1 |$
b100000 ~$
b1001111 X%
b1100010111011111000100111 `%
b1010001 2&
b1010001 ()
b1010000 H)
b1001110 x)
b10110101001 6-
0>1
#3
b1100010111100001111011 b
b1 $"
b11011011 d#
b100001 t#
b100001 ~$
b1100010111011111000101000 `%
b100 "&
b1010010 2&
b100111 R&
b110110110000000011011100000000001101110100000000110111100000000011011111000000001110000000000000111000010000000011100010 r&
b11100010 6(
b11100001 F(
b11100000 V(
b11011111 f(
b1010010 ()
b1100010111100001111010000 k*
b11011110 *+
b11011100 :+
b10111001 l,
b11011101 t,
b10110110000 6-
b1100010111100001111010000 A-
1>1
#4
b10000001100111 "
b11 $"
b100011 t#
b100010 ~$
b1100010111011111000101001 `%
b101 "&
b1010011 2&
b101000 R&
b1010011 ()
b10110101111 6-
0>1
#5
b10000001110100 "
b1100010111100001111100 b
b100 $"
b11100011 d#
b100100 t#
b100100 ~$
b1100010111011111000101010 `%
b110 "&
b1010100 2&
b101001 R&
b111000110000000011100100000000001110010100000000111001100000000011100111000000001110100000000000111010010000000011101010 r&
b11101010 6(
b11101001 F(
b11101000 V(
b11100111 f(
b1010100 ()
b1100010111100001111011000 k*
b11100110 *+
b11100100 :+
b10111010 l,
b11100101 t,
b10110110110 6-
b1100010111100001111011000 A-
1>1
#6
b10000001111001 "
b101 $"
b100101 t#
b100101 ~$
b1100010111011111000101011 `%
b111 "&
b1010101 2&
b101010 R&
b1010101 ()
b10110110101 6-
0>1
#7
b10000010000000 "
b1100010111100001111101 b
b110 $"
b11101011 d#
b100110 t#
b100110 ~$
b1100010111011111000101100 `%
b1000 "&
b1010110 2&
b101011 R&
b111010110000000011101100000000001110110100000000111011100000000011101111000000001111000000000000111100010000000011110010 r&
b11110010 6(
b11110001 F(
b11110000 V(
b11101111 f(
b1010110 ()
b1100010111100001111100000 k*
b11101110 *+
b11101100 :+
b10111011 l,
b11101101 t,
b10110111100 6-
b1100010111100001111100000 A-
1>1
#8
b10000010001110 "
b0 $"
b101000 t#
b101101 ~$
b1100010111011111000101101 `%
b1001 "&
b1010111 2&
b101100 R&
b1010111 ()
b10110111011 6-
0>1
#9
b10000010010111 "
b1100010111100001111110 b
b1 $"
b11110011 d#
b101001 t#
b101001 ~$
b1100010111011111000101110 `%
b1010 "&
b1011000 2&
b101101 R&
b111100110000000011110100000000001111010100000000111101100000000011110111000000001111100000000000111110010000000011111010 r&
b11111010 6(
b11111001 F(
b11111000 V(
b11110111 f(
b1011000 ()
b1100010111100001111101000 k*
b11110110 *+
b11110100 :+
b11110101 t,
b10111000010 6-
b1100010111100001111101000 A-
1>1
#10
b10000010011010 "
b10 $"
b101010 t#
b101010 ~$
b1100010111011111000101111 `%
b1011 "&
b1011001 2&
b101110 R&
b1011001 ()
b10111000001 6-
0>1
#11
b10000010100011 "
b1100010111100001111111 b
b11 $"
b11111011 d#
b101011 t#
b101011 ~$
b1100010111011111000110000 `%
b1100 "&
b1011010 2&
b101111 R&
b111110110000000011111100000000001111110100000000111111100000000011111111000000000000000000000000000000010000000000000010 r&
b10 6(
b1 F(
b0 V(
b11111111 f(
b1011010 ()
b1100010111100001111110000 k*
b11111110 *+
b11111100 :+
b10111100 l,
b11111101 t,
b10111001000 6-
b1100010111100001111110000 A-
1>1
#12
b10000010111010 "
b101 $"
b101101 t#
b101100 ~$
b1100010111011111000110001 `%
b1101 "&
b1011011 2&
b110000 R&
b1011011 ()
b10111000111 6-
0>1
#13
b10000010100101 "
b1100010111100010000000 b
b110 $"
b11 d#
b101110 t#
b101110 ~$
b1100010111011111000110010 `%
b1110 "&
b1011100 2&
b110001 R&
b110000000000000100000000000000010100000000000001100000000000000111000000000000100000000000000010010000000000001010 r&
b1010 6(
b1001 F(
b1000 V(
b111 f(
b1011100 ()
b1100010111100001111111000 k*
b110 *+
b100 :+
b10111101 l,
b101 t,
b10111001110 6-
b1100010111100001111111000 A-
1>1
#14
b10000010111101 "
b111 $"
b101111 t#
b101111 ~$
b1100010111011111000110011 `%
b1111 "&
b1011101 2&
b110010 R&
b1011101 ()
b10111001101 6-
0>1
#15
b10000011011110 "
b1100010111100010000001 b
b0 $"
b1011 d#
b110000 t#
b110000 ~$
b1100010111011111000110100 `%
b10000 "&
b1011110 2&
b110011 R&
b10110000000000001100000000000000110100000000000011100000000000001111000000000001000000000000000100010000000000010010 r&
b10010 6(
b10001 F(
b10000 V(
b1111 f(
b1011110 ()
b1100010111100010000000000 k*
b1110 *+
b1100 :+
b10111110 l,
b1101 t,
b10111010100 6-
b1100010111100010000000000 A-
1>1
#16
b10000011001101 "
b10 $"
b110010 t#
b110011 ~$
b1100010111011111000110101 `%
b10001 "&
b1011111 2&
b110100 R&
b1011111 ()
b10111010011 6-
0>1
#17
b10000011010110 "
b1100010111100010000010 b
b11 $"
b10011 d#
b110011 t#
b1100010111011111000110110 `%
b10010 "&
b1100000 2&
b110101 R&
b100110000000000010100000000000001010100000000000101100000000000010111000000000001100000000000000110010000000000011010 r&
b11010 6(
b11001 F(
b11000 V(
b10111 f(
b1100000 ()
b1100010111100010000001000 k*
b10110 *+
b10100 :+
b10101 t,
b10111011010 6-
b1100010111100010000001000 A-
1>1
#18
b10000011011110 "
b100 $"
b110100 t#
b110100 ~$
b1100010111011111000110111 `%
b10011 "&
b1100001 2&
b110110 R&
b1100001 ()
b10111011001 6-
0>1
#19
b10000011100111 "
b1100010111100010000011 b
b101 $"
b11011 d#
b110101 t#
b110101 ~$
b1100010111011111000111000 `%
b10100 "&
b1100010 2&
b110111 R&
b110110000000000011100000000000001110100000000000111100000000000011111000000000010000000000000001000010000000000100010 r&
b100010 6(
b100001 F(
b100000 V(
b11111 f(
b1100010 ()
b1100010111100010000010000 k*
b11110 *+
b11100 :+
b10111111 l,
b11101 t,
b10111100000 6-
b1100010111100010000010000 A-
1>1
#20
b10000011101100 "
b111 $"
b110111 t#
b110110 ~$
b1100010111011111000111001 `%
b10101 "&
b1100011 2&
b111000 R&
b1100011 ()
b10111011111 6-
0>1
#21
b10000011111011 "
b1100010111100010000100 b
b0 $"
b100011 d#
b111000 t#
b111000 ~$
b1100010111011111000111010 `%
b10110 "&
b1100100 2&
b111001 R&
b1000110000000000100100000000000010010100000000001001100000000000100111000000000010100000000000001010010000000000101010 r&
b101010 6(
b101001 F(
b101000 V(
b100111 f(
b1100100 ()
b1100010111100010000011000 k*
b100110 *+
b100100 :+
b11000000 l,
b100101 t,
b10111100110 6-
b1100010111100010000011000 A-
1>1
#22
b10000000010001 "
b1 $"
b111001 t#
b111001 ~$
b1100010111011111000111011 `%
b10111 "&
b1100101 2&
b111010 R&
b1100101 ()
b10111100101 6-
0>1
#23
b10000100001010 "
b1100010111100010000101 b
b10 $"
b101011 d#
b111010 t#
b111010 ~$
b1100010111011111000111100 `%
b11000 "&
b1100110 2&
b111011 R&
b1010110000000000101100000000000010110100000000001011100000000000101111000000000011000000000000001100010000000000110010 r&
b110010 6(
b110001 F(
b110000 V(
b101111 f(
b1100110 ()
b1100010111100010000100000 k*
b101110 *+
b101100 :+
b11000001 l,
b101101 t,
b10111101100 6-
b1100010111100010000100000 A-
1>1
#24
b10000100010001 "
b100 $"
b111100 t#
b111001 ~$
b1100010111011111000111101 `%
b11001 "&
b1100111 2&
b111100 R&
b1100111 ()
b10111101011 6-
0>1
#25
b10000000011010 "
b1100010111100010000110 b
b101 $"
b110011 d#
b111101 t#
b111101 ~$
b1100010111011111000111110 `%
b11010 "&
b1101000 2&
b111101 R&
b1100110000000000110100000000000011010100000000001101100000000000110111000000000011100000000000001110010000000000111010 r&
b111010 6(
b111001 F(
b111000 V(
b110111 f(
b1101000 ()
b1100010111100010000101000 k*
b110110 *+
b110100 :+
b110101 t,
b10111110010 6-
b1100010111100010000101000 A-
0=1
1>1
0C1
#26
b10000000100010 "
b110 $"
b111110 t#
b111110 ~$
b1100010111011111000111111 `%
b11011 "&
b1101001 2&
b111110 R&
b1101001 ()
b10111110001 6-
0>1
0S1
#27
b10000000101011 "
b111 $"
b111011 d#
b111111 t#
b111111 ~$
b1100010111011111000111000 `%
b11100 "&
b1101010 2&
b111111 R&
b1110110000000000111100000000000011110100000000001111100000000000111111000000000100000000000000010000010000000001000010 r&
b1000010 6(
b1000001 F(
b1000000 V(
b111111 f(
b1101010 ()
b111110 *+
b111100 :+
b11000010 l,
b111101 t,
b10111111000 6-
1>1
#28
b10000000110000 "
b1 $"
b1000001 t#
b1000000 ~$
b1100010111011111000111001 `%
b11101 "&
b1101011 2&
b111000 R&
b1101011 ()
b10111110111 6-
0>1
#29
b10000000111111 "
b10 $"
b1000011 d#
b1000010 t#
b1000010 ~$
b1100010111011111000110010 `%
b11110 "&
b1101100 2&
b111001 R&
b10000110000000001000100000000000100010100000000010001100000000001000111000000000100100000000000010010010000000001001010 r&
b1001010 6(
b1001001 F(
b1001000 V(
b1000111 f(
b1101100 ()
b1000110 *+
b1000100 :+
b1000101 t,
b10111111110 6-
1>1
#30
b10000001000101 "
b11 $"
b1000011 t#
b1000011 ~$
b1100010111011111000110011 `%
b11111 "&
b1101101 2&
b110010 R&
b1101101 ()
b10111111101 6-
0>1
#31
b10000001001110 "
b100 $"
b1001011 d#
b1000100 t#
b1000100 ~$
b1100010111011111000101100 `%
b100000 "&
b1101110 2&
b110011 R&
b10010110000000001001100000000000100110100000000010011100000000001001111000000000101000000000000010100010000000001010010 r&
b1010010 6(
b1010001 F(
b1010000 V(
b1001111 f(
b1101110 ()
b1001110 *+
b1001100 :+
b1001101 t,
b11000000100 6-
1>1
#32
b10000001010101 "
b110 $"
b1000110 t#
b1000111 ~$
b1100010111011111000101101 `%
b100001 "&
b1101111 2&
b101100 R&
b1101111 ()
b11000000011 6-
0>1
#33
b10000001011110 "
b111 $"
b1010011 d#
b1000111 t#
b1100010111011111000101110 `%
b100010 "&
b1110000 2&
b101101 R&
b10100110000000001010100000000000101010100000000010101100000000001010111000000000101100000000000010110010000000001011010 r&
b1011010 6(
b1011001 F(
b1011000 V(
b1010111 f(
b1110000 ()
b1010110 *+
b1010100 :+
b11000001 l,
b1010101 t,
b11000000010 6-
1=1
1>1
1C1
1S1
#34
b10000001100110 "
b0 $"
b1001000 t#
b1001000 ~$
b1100010111011111000101111 `%
b100011 "&
b1110001 2&
b101110 R&
b1110001 ()
b11000000001 6-
0>1
#35
b10000001101111 "
b1100010111100010000111 b
b1 $"
b1011011 d#
b1001001 t#
b1001001 ~$
b1100010111011111000111000 `%
b100100 "&
b1110010 2&
b101111 R&
b10110110000000001011100000000000101110100000000010111100000000001011111000000000110000000000000011000010000000001100010 r&
b1100010 6(
b1100001 F(
b1100000 V(
b1011111 f(
b1110010 ()
b1100010111100010000110000 k*
b1011110 *+
b1011100 :+
b1011101 t,
b11000000000 6-
b1100010111100010000110000 A-
0=1
1>1
0C1
#36
b10000001111100 "
b11 $"
b1001011 t#
b1001010 ~$
b1100010111011111000111001 `%
b100101 "&
b1110011 2&
b111000 R&
b1110011 ()
b10111111111 6-
0>1
0S1
#37
b10000010000011 "
b100 $"
b1100011 d#
b1001100 t#
b1001100 ~$
b1100010111011111000111010 `%
b100110 "&
b1110100 2&
b111001 R&
b11000110000000001100100000000000110010100000000011001100000000001100111000000000110100000000000011010010000000001101010 r&
b1101010 6(
b1101001 F(
b1101000 V(
b1100111 f(
b1110100 ()
b1100110 *+
b1100100 :+
b11000010 l,
b1100101 t,
b10111111110 6-
1>1
#38
b10000010001001 "
b101 $"
b1001101 t#
b1001101 ~$
b1100010111011111000111011 `%
b100111 "&
b1110101 2&
b111010 R&
b1110101 ()
b10111111101 6-
0>1
#39
b10000010010010 "
b110 $"
b1101011 d#
b1001110 t#
b1001110 ~$
b1100010111011111000111100 `%
b101000 "&
b1110110 2&
b111011 R&
b11010110000000001101100000000000110110100000000011011100000000001101111000000000111000000000000011100010000000001110010 r&
b1110010 6(
b1110001 F(
b1110000 V(
b1101111 f(
b1110110 ()
b1101110 *+
b1101100 :+
b1101101 t,
b10111111100 6-
1>1
#40
b10000010011001 "
b0 $"
b1010000 t#
b1010101 ~$
b1100010111011111000111101 `%
b101001 "&
b1110111 2&
b111100 R&
b1110111 ()
b10111111011 6-
0>1
#41
b10000010110010 "
b1 $"
b1110011 d#
b1010001 t#
b1010001 ~$
b1100010111011111000110110 `%
b101010 "&
b1111000 2&
b111101 R&
b11100110000000001110100000000000111010100000000011101100000000001110111000000000111100000000000011110010000000001111010 r&
b1111010 6(
b1111001 F(
b1111000 V(
b1110111 f(
b1111000 ()
b1110110 *+
b1110100 :+
b11000001 l,
b1110101 t,
b11000000010 6-
1=1
1>1
1C1
1S1
#42
b10000010101010 "
b10 $"
b1010010 t#
b1010010 ~$
b1100010111011111000110111 `%
b101011 "&
b1111001 2&
b110110 R&
b1111001 ()
b11000000001 6-
0>1
#43
b10000010100011 "
b1100010111100010001000 b
b11 $"
b1111011 d#
b1010011 t#
b1010011 ~$
b1100010111011111001000000 `%
b101100 "&
b1111010 2&
b110111 R&
b11110110000000001111100000000000111110100000000011111100000000001111111000000001000000000000000100000010000000010000010 r&
b10000010 6(
b10000001 F(
b10000000 V(
b1111111 f(
b1111010 ()
b1100010111100010000111000 k*
b1111110 *+
b1111100 :+
b1111101 t,
b11000000000 6-
b1100010111100010000111000 A-
1>1
#44
b10000010111000 "
b101 $"
b1010101 t#
b1010100 ~$
b1100010111011111001000001 `%
b101101 "&
b1111011 2&
b0 R&
b1011111001 X&
b1111011 ()
b10111111111 6-
0>1
#45
b10000011000101 "
b1100010111100010001001 b
b110 $"
b10000011 d#
b1010110 t#
b1010110 ~$
b1100010111011111001001010 `%
b101110 "&
b1111100 2&
b1 R&
b100000110000000010000100000000001000010100000000100001100000000010000111000000001000100000000000100010010000000010001010 r&
b10001010 6(
b10001001 F(
b10001000 V(
b10000111 f(
b1111100 ()
b1100010111100010001000000 k*
b10000110 *+
b10000100 :+
b11000010 l,
b10000101 t,
b10111111110 6-
b1100010111100010001000000 A-
1>1
#46
b10000011001100 "
b111 $"
b1010111 t#
b1010111 ~$
b1100010111011111001001011 `%
b101111 "&
b1111101 2&
b1010 R&
b1111101 ()
b10111111101 6-
0>1
#47
b10000011010110 "
b1100010111100010001010 b
b0 $"
b10001011 d#
b1011000 t#
b1011000 ~$
b1100010111011111001010100 `%
b110000 "&
b1111110 2&
b1011 R&
b100010110000000010001100000000001000110100000000100011100000000010001111000000001001000000000000100100010000000010010010 r&
b10010010 6(
b10010001 F(
b10010000 V(
b10001111 f(
b1111110 ()
b1100010111100010001001000 k*
b10001110 *+
b10001100 :+
b11000011 l,
b10001101 t,
b10111111100 6-
b1100010111100010001001000 A-
1>1
#48
b10000011011101 "
b10 $"
b1011010 t#
b1011011 ~$
b1100010111011111001010101 `%
b110001 "&
b1111111 2&
b10100 R&
b1111111 ()
b10111111011 6-
0>1
#49
b10000011100110 "
b1100010111100010001011 b
b11 $"
b10010011 d#
b1011011 t#
b1100010111011111001010110 `%
b110010 "&
b10000000 2&
b10101 R&
b100100110000000010010100000000001001010100000000100101100000000010010111000000001001100000000000100110010000000010011010 r&
b10011010 6(
b10011001 F(
b10011000 V(
b10010111 f(
b10000000 ()
b1100010111100010001010000 k*
b10010110 *+
b10010100 :+
b10010101 t,
b11000000010 6-
b1100010111100010001010000 A-
1>1
#50
b10000011101111 "
b100 $"
b1011100 t#
b1011100 ~$
b1100010111011111001010111 `%
b110011 "&
b10000001 2&
b10110 R&
b10000001 ()
b11000000001 6-
0>1
#51
b10000011110111 "
b1100010111100010001100 b
b101 $"
b10011011 d#
b1011101 t#
b1011101 ~$
b1100010111011111001011000 `%
b110100 "&
b10000010 2&
b10111 R&
b100110110000000010011100000000001001110100000000100111100000000010011111000000001010000000000000101000010000000010100010 r&
b10100010 6(
b10100001 F(
b10100000 V(
b10011111 f(
b10000010 ()
b1100010111100010001011000 k*
b10011110 *+
b10011100 :+
b11000100 l,
b10011101 t,
b11000001000 6-
b1100010111100010001011000 A-
1>1
#52
b10000100100100 "
b111 $"
b1011111 t#
b1011110 ~$
b1100010111011111001011001 `%
b110101 "&
b10000011 2&
b11000 R&
b10000011 ()
b11000000111 6-
0>1
#53
b10000100001001 "
b1100010111100010001101 b
b0 $"
b10100011 d#
b1100000 t#
b1100000 ~$
b1100010111011111001011010 `%
b110110 "&
b10000100 2&
b11001 R&
b101000110000000010100100000000001010010100000000101001100000000010100111000000001010100000000000101010010000000010101010 r&
b10101010 6(
b10101001 F(
b10101000 V(
b10100111 f(
b10000100 ()
b1100010111100010001100000 k*
b10100110 *+
b10100100 :+
b11000101 l,
b10100101 t,
b11000001110 6-
b1100010111100010001100000 A-
1>1
#54
b10000000010000 "
b1 $"
b1100001 t#
b1100001 ~$
b1100010111011111001011011 `%
b110111 "&
b10000101 2&
b11010 R&
b10000101 ()
b11000001101 6-
0>1
#55
b10000000011111 "
b1100010111100010001110 b
b10 $"
b10101011 d#
b1100010 t#
b1100010 ~$
b1100010111011111001011100 `%
b111000 "&
b10000110 2&
b11011 R&
b101010110000000010101100000000001010110100000000101011100000000010101111000000001011000000000000101100010000000010110010 r&
b10110010 6(
b10110001 F(
b10110000 V(
b10101111 f(
b10000110 ()
b1100010111100010001101000 k*
b10101110 *+
b10101100 :+
b11000110 l,
b10101101 t,
b11000010100 6-
b1100010111100010001101000 A-
1>1
#56
b10000000100011 "
b100 $"
b1100100 t#
b1100001 ~$
b1100010111011111001011101 `%
b111001 "&
b10000111 2&
b11100 R&
b10000111 ()
b11000010011 6-
0>1
#57
b10000000111010 "
b1100010111100010001111 b
b101 $"
b10110011 d#
b1100101 t#
b1100101 ~$
b1100010111011111001011110 `%
b111010 "&
b10001000 2&
b11101 R&
b101100110000000010110100000000001011010100000000101101100000000010110111000000001011100000000000101110010000000010111010 r&
b10111010 6(
b10111001 F(
b10111000 V(
b10110111 f(
b10001000 ()
b1100010111100010001110000 k*
b10110110 *+
b10110100 :+
b10110101 t,
b11000011010 6-
b1100010111100010001110000 A-
0<1
1>1
0S1
#58
b10000000110011 "
b110 $"
b1100110 t#
b1100110 ~$
b1100010111011111001011111 `%
b111011 "&
b10001001 2&
b11110 R&
b10001001 ()
b11000011001 6-
0>1
#59
b10000000111010 "
b1100010111100010010000 b
b111 $"
b1100111 t#
b1100111 ~$
b1100010111011111001100000 `%
b111100 "&
b10001010 2&
b11111 R&
b10001010 ()
b1100010111100010001111000 k*
b11000111 l,
b11000100000 6-
b1100010111100010001111000 A-
1<1
1>1
1S1
#60
b10000001010100 "
b1 $"
b1101001 t#
b1101000 ~$
b1100010111011111001100001 `%
b111101 "&
b10001011 2&
b100000 R&
b10001011 ()
b11000011111 6-
0>1
#61
b10000001001101 "
b1100010111100010010001 b
b10 $"
b10111011 d#
b1101010 t#
b1101010 ~$
b1100010111011111001100010 `%
b111110 "&
b10001100 2&
b100001 R&
b101110110000000010111100000000001011110100000000101111100000000010111111000000001100000000000000110000010000000011000010 r&
b11000010 6(
b11000001 F(
b11000000 V(
b10111111 f(
b10001100 ()
b1100010111100010010000000 k*
b10111110 *+
b10111100 :+
b10111101 t,
b11000100110 6-
b1100010111100010010000000 A-
1>1
#62
b10000001001110 "
b11 $"
b1101011 t#
b1101011 ~$
b1100010111011111001100011 `%
b111111 "&
b10001101 2&
b100010 R&
b10001101 ()
b11000100101 6-
0>1
#63
b10000001011101 "
b1100010111100010010010 b
b100 $"
b11000011 d#
b1101100 t#
b1101100 ~$
b1100010111011111001100100 `%
b1000000 "&
b10001110 2&
b100011 R&
b110000110000000011000100000000001100010100000000110001100000000011000111000000001100100000000000110010010000000011001010 r&
b11001010 6(
b11001001 F(
b11001000 V(
b11000111 f(
b10001110 ()
b1100010111100010010001000 k*
b11000110 *+
b11000100 :+
b11001000 l,
b11000101 t,
b11000101100 6-
b1100010111100010010001000 A-
0<1
1>1
0S1
#64
b10000001100110 "
b110 $"
b1101110 t#
b1101111 ~$
b1100010111011111001100101 `%
b1000001 "&
b10001111 2&
b100100 R&
b10001111 ()
b11000101011 6-
0>1
#65
b10000001101111 "
b1100010111100010010011 b
b111 $"
b1101111 t#
b1100010111011111001101110 `%
b1000010 "&
b10010000 2&
b100101 R&
b10010000 ()
b1100010111100010010010000 k*
b11000101010 6-
b1100010111100010010010000 A-
1>1
0C1
1P1
#66
b10000001110111 "
b0 $"
b1110000 t#
b1110000 ~$
b1100010111011111001101111 `%
b1000011 "&
b10010001 2&
b101110 R&
b10010001 ()
b11000101001 6-
0>1
#67
b10000010000100 "
b1 $"
b1110001 t#
b1110001 ~$
b1100010111011111001101000 `%
b1000100 "&
b10010010 2&
b101111 R&
b10010010 ()
b11000110000 6-
1>1
#68
b10000010001001 "
b11 $"
b1110011 t#
b1110010 ~$
b1100010111011111001101001 `%
b1000101 "&
b10010011 2&
b101000 R&
b10010011 ()
b11000101111 6-
0>1
#69
b10000010010000 "
b100 $"
b1110100 t#
b1110100 ~$
b1100010111011111001100010 `%
b1000110 "&
b10010100 2&
b101001 R&
b10010100 ()
b11000110110 6-
1>1
