WaveWidth1-Comments/.Xil/Vivado-7124-DESKTOP-G3B5TCR/hw_ila_data_2/zip_work/waveform.vcd
$date
        2019-Nov-25 17:30:53
$end
$version
        Vivado v2017.4 (64-bit)
$end
$timescale
        1ps
$end
$scope module dut $end
$var reg 8 " example_top/Read_Fifo_wusdw_o [7:0] $end
$var reg 32 * example_top/CountRead_tem [31:0] $end
$var reg 32 J example_top/CountWrite_tem [31:0] $end
$var reg 11 j example_top/Read_Fifo_rusdw_o [10:0] $end
$var reg 128 u example_top/app_wdf_data [127:0] $end
$var reg 29 9# example_top/app_addr [28:0] $end
$var reg 128 V# example_top/Write_Fifo_Out [127:0] $end
$var reg 4 x$ example_top/state1 [3:0] $end
$var reg 8 |$ example_top/Write_Fifo_rusdw_o [7:0] $end
$var reg 4 &% example_top/state [3:0] $end
$var reg 128 *% example_top/app_rd_data [127:0] $end
$var reg 29 L& example_top/app_addr_begin [28:0] $end
$var reg 8 i& example_top/Write_Fifo_datain [7:0] $end
$var reg 128 q& example_top/ddr3_wr_data [127:0] $end
$var reg 1 5( example_top/app_rd_data_valid $end
$var reg 1 6( u_ila_0_app_rdy $end
$var reg 1 7( example_top/ddr3_allwr_flag $end
$var reg 1 8( example_top/ddr3_oneperiod_flag $end
$var reg 1 9( example_top/ddr3_onewr_flag $end
$var reg 1 :( example_top/ddr3read_en $end
$var reg 1 ;( example_top/ddr3write_en $end
$var reg 1 <( example_top/OnePeriod_flag $end
$var reg 1 =( example_top/Period_flag $end
$var reg 1 >( example_top/ProsessIn $end
$var reg 1 ?( example_top/ProsessIn1 $end
$var reg 1 @( example_top/Read_Fifo_empty $end
$var reg 1 A( example_top/Read_Fifo_full $end
$var reg 1 B( example_top/Read_Fifo_in_en1 $end
$var reg 1 C( example_top/Read_Fifo_rden $end
$var reg 1 D( example_top/Read_Fifo_rst $end
$var reg 1 E( example_top/Read_Fifo_wren $end
$var reg 1 F( example_top/Read_Over_flag $end
$var reg 1 G( example_top/StartSample1 $end
$var reg 1 H( example_top/Write_Fifo_empty $end
$var reg 1 I( example_top/Write_Fifo_full $end
$var reg 1 J( example_top/WriteSign $end
$var reg 1 K( _TRIGGER $end
$var reg 1 L( _WINDOW $end
$var reg 1 M( _GAP $end
$upscope $end
$enddefinitions $end
#0
$dumpvars
b0 "
b11111000000000000000000000000000 *
b11110100000000100100011010010010 J
b10 j
b100100000000110010100000000011001011000000001100110000000000110011010000000011001110000000001100111110010001101001001011111000 u
b110010000000000011 9#
b1100010100000000110001100000000011000111000000000000000000000000000000000000000000000000000000000000000000100000000000000000 V#
b0 x$
b11000100 |$
b0 &%
b1001000110100100101111100000000000000110000000000000011000001000000001100001000000000110000110000 *%
b1100011000000000110001110 L&
b1010000 i&
b100000000110000000000000011000001000000001100001000000000110000110000000011000100000000001100 q&
05(
06(
07(
08(
09(
0:(
0;(
0<(
0=(
0>(
0?(
0@(
0A(
0B(
0C(
0D(
0E(
0F(
0G(
0H(
0I(
0J(
0K(
1L(
0M(
$end
#1
b11111001000000000000000000000000 *
b11110111000000100100011010010010 J
b1000100000000110100100000000011010011000000001101010000000000110101010000000011010110000000001101011110010001101001001011111001 u
b110100000000000011 9#
b1100110100000000110011100000000011001111000000000000000000000000000000000000000000000000000000000000000000100000000000000000 V#
b11001100 |$
b1001000110100100101111100100000000000110010000000000011001001000000001100101000000000110010110000 *%
b1100111000000000110011110 L&
b11010000 i&
b100000000110010000000000011001001000000001100101000000000110010110000000011001100000000001100 q&
#2
b11111010000000000000000000000000 *
b11111001000000100100011010010010 J
b1 j
b1100100000000110110100000000011011011000000001101110000000000110111010000000011011110000000001101111110010001101001001011111010 u
b110110000000000011 9#
b1101010100000000110101100000000011010111000000000000000000000000000000000000000000000000000000000000000000100000000000000000 V#
b11010100 |$
b1001000110100100101111101000000000000110100000000000011010001000000001101001000000000110100110000 *%
b1101011000000000110101110 L&
b1010000 i&
b100000000110100000000000011010001000000001101001000000000110100110000000011010100000000001101 q&
#3
b11111100000000100100011010010010 J
#4
b11111110000000100100011010010010 J
#5
b1000000100100011010010010 J
#6
b11000000100100011010010010 J
b10 j
#7
b11111011000000000000000000000000 *
b110000000100100011010010010 J
b10000100000000111000100000000011100011000000001110010000000000111001010000000011100110000000001110011110010001101001001011111011 u
b111000000000000011 9#
b1101110100000000110111100000000011011111000000000000000000000000000000000000000000000000000000000000000000100000000000000000 V#
b11011100 |$
b1001000110100100101111101100000000000110110000000000011011001000000001101101000000000110110110000 *%
b1101111000000000110111110 L&
b11010000 i&
b100000000110110000000000011011001000000001101101000000000110110110000000011011100000000001101 q&
#8
b11111100000000000000000000000000 *
b1000000000100100011010010010 J
b1 j
b10100100000000111010100000000011101011000000001110110000000000111011010000000011101110000000001110111110010001101001001011111100 u
b111010000000000011 9#
b1110010100000000111001100000000011100111000000000000000000000000000000000000000000000000000000000000000000100000000000000000 V#
b11100100 |$
b1001000110100100101111110000000000000111000000000000011100001000000001110001000000000111000110000 *%
b1110011000000000111001110 L&
b1010000 i&
b100000000111000000000000011100001000000001110001000000000111000110000000011100100000000001110 q&
#9
b1011000000100100011010010010 J
#10
b1101000000100100011010010010 J
#11
b10000000000100100011010010010 J
#12
b10010000000100100011010010010 J
#13
b10101000000100100011010010010 J
b10 j
#14
b11111101000000000000000000000000 *
b10111000000100100011010010010 J
b11000100000000111100100000000011110011000000001111010000000000111101010000000011110110000000001111011110010001101001001011111101 u
b111100000000000011 9#
b1110110100000000111011100000000011101111000000000000000000000000000000000000000000000000000000000000000000100000000000000000 V#
b11101100 |$
b1001000110100100101111110100000000000111010000000000011101001000000001110101000000000111010110000 *%
b1110111000000000111011110 L&
b11010000 i&
b100000000111010000000000011101001000000001110101000000000111010110000000011101100000000001110 q&
#15
b11111110000000000000000000000000 *
b11010000000100100011010010010 J
b1 j
b11100100000000111110100000000011111011000000001111110000000000111111010000000011111110000000001111111110010001101001001011111110 u
b111110000000000011 9#
b1111010100000000111101100000000011110111000000000000000000000000000000000000000000000000000000000000000000100000000000000000 V#
b11110100 |$
b1001000110100100101111111000000000000111100000000000011110001000000001111001000000000111100110000 *%
b1111011000000000111101110 L&
b1010000 i&
b100000000111100000000000011110001000000001111001000000000111100110000000011110100000000001111 q&
#16
b11100000000100100011010010010 J
#17
b11111000000100100011010010010 J
#18
b100001000000100100011010010010 J
#19
b100100000000100100011010010010 J
b10 j
#20
b11111111000000000000000000000000 *
b100110000000100100011010010010 J
b100000000000000100000000000000011000000000000010000000000000001010000000000000110000000000000011110010001101001001011111111 u
b0 9#
b1111110100000000111111100000000011111111000000000000000000000000000000000000000000000000000000000000000000100000000000000000 V#
b11111100 |$
b1001000110100100101111111100000000000111110000000000011111001000000001111101000000000111110110000 *%
b1111111000000000111111110 L&
b11010000 i&
b100000000111110000000000011111001000000001111101000000000111110110000000011111100000000001111 q&
#21
b0 *
b101001000000100100011010010011 J
b1 j
b100100000000000010100000000000001011000000000000110000000000000011010000000000001110000000000000111110010001101001001100000000 u
b10000000000000 9#
b10100000000000001100000000000000111000000000000000000000000000000000000000000000000000000000000000000100000000000000000 V#
b100 |$
b1001000110100100110000000000000000000000000000000000000000001000000000000001000000000000000110000 *%
b11000000000000001110 L&
b1010000 i&
b100000000000000000000000000000001000000000000001000000000000000110000000000000100000000000000 q&
#22
b101011000000100100011010010011 J
#23
b101110000000100100011010010011 J
#24
b110000000000100100011010010011 J
#25
b110011000000100100011010010011 J
b10 j
#26
b1000000000000000000000000 *
b110101000000100100011010010011 J
b1000100000000000100100000000000010011000000000001010000000000000101010000000000010110000000000001011110010001101001001100000001 u
b100000000000000 9#
b110100000000000011100000000000001111000000000000000000000000000000000000000000000000000000000000000000100000000000000000 V#
b1100 |$
b1001000110100100110000000100000000000000010000000000000001001000000000000101000000000000010110000 *%
b111000000000000011110 L&
b11010000 i&
b100000000000010000000000000001001000000000000101000000000000010110000000000001100000000000000 q&
#27
b111000000000100100011010010011 J
b1 j
#28
b111010000000100100011010010011 J
#29
b111101000000100100011010010011 J
b10 j
#30
b111111000000100100011010010011 J
#31
b1000010000000100100011010010011 J
#32
b1000100000000100100011010010011 J
b11 j
#33
b1000111000000100100011010010011 J
#34
b1001001000000100100011010010011 J
#35
b1001100000000100100011010010011 J
b100 j
#36
b1001110000000100100011010010011 J
#37
b10000000000000000000000000 *
b1010001000000100100011010010011 J
b1100100000000000110100000000000011011000000000001110000000000000111010000000000011110000000000001111110010001101001001100000010 u
b110000000000000 9#
b1010100000000000101100000000000010111000000000000000000000000000000000000000000000000000000000000000000100000000000000000 V#
b10100 |$
b1001000110100100110000001000000000000000100000000000000010001000000000001001000000000000100110000 *%
b1011000000000000101110 L&
b1010000 i&
b100000000000100000000000000010001000000000001001000000000000100110000000000010100000000000001 q&
#38
b11000000000000000000000000 *
b1010011000000100100011010010011 J
b10000100000000001000100000000000100011000000000010010000000000001001010000000000100110000000000010011110010001101001001100000011 u
b1000000000000000 9#
b1110100000000000111100000000000011111000000000000000000000000000000000000000000000000000000000000000000100000000000000000 V#
b11100 |$
b1001000110100100110000001100000000000000110000000000000011001000000000001101000000000000110110000 *%
b1111000000000000111110 L&
b11010000 i&
b100000000000110000000000000011001000000000001101000000000000110110000000000011100000000000001 q&
#39
b1010110000000100100011010010011 J
b11 j
#40
b1011000000000100100011010010011 J
#41
b1011011000000100100011010010011 J
b100 j
#42
b100000000000000000000000000 *
b1011101000000100100011010010011 J
b10100100000000001010100000000000101011000000000010110000000000001011010000000000101110000000000010111110010001101001001100000100 u
b1010000000000000 9#
b10010100000000001001100000000000100111000000000000000000000000000000000000000000000000000000000000000000100000000000000000 V#
b100100 |$
b1001000110100100110000010000000000000001000000000000000100001000000000010001000000000001000110000 *%
b10011000000000001001110 L&
b1010000 i&
b100000000001000000000000000100001000000000010001000000000001000110000000000100100000000000010 q&
#43
b101000000000000000000000000 *
b1100000000000100100011010010011 J
b11 j
b11000100000000001100100000000000110011000000000011010000000000001101010000000000110110000000000011011110010001101001001100000101 u
b1100000000000000 9#
b10110100000000001011100000000000101111000000000000000000000000000000000000000000000000000000000000000000100000000000000000 V#
b101100 |$
b1001000110100100110000010100000000000001010000000000000101001000000000010101000000000001010110000 *%
b10111000000000001011110 L&
b11010000 i&
b100000000001010000000000000101001000000000010101000000000001010110000000000101100000000000010 q&
#44
b1100010000000100100011010010011 J
b10 j
#45
b1100101000000100100011010010011 J
b11 j
#46
b110000000000000000000000000 *
b1100111000000100100011010010011 J
b11100100000000001110100000000000111011000000000011110000000000001111010000000000111110000000000011111110010001101001001100000110 u
b1110000000000000 9#
b11010100000000001101100000000000110111000000000000000000000000000000000000000000000000000000000000000000100000000000000000 V#
b110100 |$
b1001000110100100110000011000000000000001100000000000000110001000000000011001000000000001100110000 *%
b11011000000000001101110 L&
b1010000 i&
b100000000001100000000000000110001000000000011001000000000001100110000000000110100000000000011 q&
#47
b111000000000000000000000000 *
b1101010000000100100011010010011 J
b10 j
b100000000010000100000000001000011000000000100010000000000010001010000000001000110000000000100011110010001101001001100000111 u
b10000000000000001 9#
b11110100000000001111100000000000111111000000000000000000000000000000000000000000000000000000000000000000100000000000000000 V#
b111100 |$
b1001000110100100110000011100000000000001110000000000000111001000000000011101000000000001110110000 *%
b11111000000000001111110 L&
b11010000 i&
b100000000001110000000000000111001000000000011101000000000001110110000000000111100000000000011 q&
#48
b1000000000000000000000000000 *
b1101100000000100100011010010011 J
b100100000000010010100000000001001011000000000100110000000000010011010000000001001110000000000100111110010001101001001100001000 u
b10010000000000001 9#
b100010100000000010001100000000001000111000000000000000000000000000000000000000000000000000000000000000000100000000000000000 V#
b1000100 |$
b1001000110100100110000100000000000000010000000000000001000001000000000100001000000000010000110000 *%
b100011000000000010001110 L&
b1010000 i&
b100000000010000000000000001000001000000000100001000000000010000110000000001000100000000000100 q&
#49
b1001000000000000000000000000 *
b1101111000000100100011010010011 J
b1 j
b1000100000000010100100000000001010011000000000101010000000000010101010000000001010110000000000101011110010001101001001100001001 u
b10100000000000001 9#
b100110100000000010011100000000001001111000000000000000000000000000000000000000000000000000000000000000000100000000000000000 V#
b1001100 |$
b1001000110100100110000100100000000000010010000000000001001001000000000100101000000000010010110000 *%
b100111000000000010011110 L&
b11010000 i&
b100000000010010000000000001001001000000000100101000000000010010110000000001001100000000000100 q&
#50
b1110001000000100100011010010011 J
b0 j
#51
b1110100000000100100011010010011 J
b1 j
#52
b1110110000000100100011010010011 J
#53
b1111001000000100100011010010011 J
#54
b1111011000000100100011010010011 J
b10 j
#55
b1010000000000000000000000000 *
b1111110000000100100011010010011 J
b1100100000000010110100000000001011011000000000101110000000000010111010000000001011110000000000101111110010001101001001100001010 u
b10110000000000001 9#
b101010100000000010101100000000001010111000000000000000000000000000000000000000000000000000000000000000000100000000000000000 V#
b1010100 |$
b1001000110100100110000101000000000000010100000000000001010001000000000101001000000000010100110000 *%
b101011000000000010101110 L&
b1010000 i&
b100000000010100000000000001010001000000000101001000000000010100110000000001010100000000000101 q&
#56
b1011000000000000000000000000 *
b10000000000000100100011010010011 J
b1 j
b10000100000000011000100000000001100011000000000110010000000000011001010000000001100110000000000110011110010001101001001100001011 u
b11000000000000001 9#
b101110100000000010111100000000001011111000000000000000000000000000000000000000000000000000000000000000000100000000000000000 V#
b1011100 |$
b1001000110100100110000101100000000000010110000000000001011001000000000101101000000000010110110000 *%
b101111000000000010111110 L&
b11010000 i&
b100000000010110000000000001011001000000000101101000000000010110110000000001011100000000000101 q&
#57
b10000011000000100100011010010011 J
#58
b10000101000000100100011010010011 J
#59
b10001000000000100100011010010011 J
#60
b10001010000000100100011010010011 J
#61
b10001101000000100100011010010011 J
b10 j
#62
b1100000000000000000000000000 *
b10001111000000100100011010010011 J
b10100100000000011010100000000001101011000000000110110000000000011011010000000001101110000000000110111110010001101001001100001100 u
b11010000000000001 9#
b110010100000000011001100000000001100111000000000000000000000000000000000000000000000000000000000000000000100000000000000000 V#
b1100100 |$
b1001000110100100110000110000000000000011000000000000001100001000000000110001000000000011000110000 *%
b110011000000000011001110 L&
b1010000 i&
b100000000011000000000000001100001000000000110001000000000011000110000000001100100000000000110 q&
#63
b1101000000000000000000000000 *
b10010010000000100100011010010011 J
b1 j
b11000100000000011100100000000001110011000000000111010000000000011101010000000001110110000000000111011110010001101001001100001101 u
b11100000000000001 9#
b110110100000000011011100000000001101111000000000000000000000000000000000000000000000000000000000000000000100000000000000000 V#
b1101100 |$
b1001000110100100110000110100000000000011010000000000001101001000000000110101000000000011010110000 *%
b110111000000000011011110 L&
b11010000 i&
b100000000011010000000000001101001000000000110101000000000011010110000000001101100000000000110 q&
#64
b10010100000000100100011010010011 J
#65
b10010111000000100100011010010011 J
#66
b10011001000000100100011010010011 J
#67
b10011100000000100100011010010011 J
b10 j
#68
b1110000000000000000000000000 *
b10011110000000100100011010010011 J
b11100100000000011110100000000001111011000000000111110000000000011111010000000001111110000000000111111110010001101001001100001110 u
b11110000000000001 9#
b111010100000000011101100000000001110111000000000000000000000000000000000000000000000000000000000000000000100000000000000000 V#
b1110100 |$
b1001000110100100110000111000000000000011100000000000001110001000000000111001000000000011100110000 *%
b111011000000000011101110 L&
b1010000 i&
b100000000011100000000000001110001000000000111001000000000011100110000000001110100000000000111 q&
#69
b1111000000000000000000000000 *
b10100001000000100100011010010011 J
b1 j
b100000000100000100000000010000011000000001000010000000000100001010000000010000110000000001000011110010001101001001100001111 u
b100000000000000010 9#
b111110100000000011111100000000001111111000000000000000000000000000000000000000000000000000000000000000000100000000000000000 V#
b1111100 |$
b1001000110100100110000111100000000000011110000000000001111001000000000111101000000000011110110000 *%
b111111000000000011111110 L&
b11010000 i&
b100000000011110000000000001111001000000000111101000000000011110110000000001111100000000000111 q&
#70
b10100011000000100100011010010011 J
#71
b10100110000000100100011010010011 J
#72
b10101000000000100100011010010011 J
#73
b10101011000000100100011010010011 J
b10 j
#74
b10000000000000000000000000000 *
b10101101000000100100011010010011 J
b100100000000100010100000000010001011000000001000110000000000100011010000000010001110000000001000111110010001101001001100010000 u
b100010000000000010 9#
b1000010100000000100001100000000010000111000000000000000000000000000000000000000000000000000000000000000000100000000000000000 V#
b10000100 |$
b1001000110100100110001000000000000000100000000000000010000001000000001000001000000000100000110000 *%
b1000011000000000100001110 L&
b1010000 i&
b100000000100000000000000010000001000000001000001000000000100000110000000010000100000000001000 q&
#75
b10001000000000000000000000000 *
b10110000000000100100011010010011 J
b1 j
b1000100000000100100100000000010010011000000001001010000000000100101010000000010010110000000001001011110010001101001001100010001 u
b100100000000000010 9#
b1000110100000000100011100000000010001111000000000000000000000000000000000000000000000000000000000000000000100000000000000000 V#
b10001100 |$
b1001000110100100110001000100000000000100010000000000010001001000000001000101000000000100010110000 *%
b1000111000000000100011110 L&
b11010000 i&
b100000000100010000000000010001001000000001000101000000000100010110000000010001100000000001000 q&
#76
b10110010000000100100011010010011 J
b0 j
#77
b10110101000000100100011010010011 J
b1 j
#78
b10110111000000100100011010010011 J
#79
b10111010000000100100011010010011 J
#80
b10111100000000100100011010010011 J
b10 j
#81
b10010000000000000000000000000 *
b10111111000000100100011010010011 J
b1100100000000100110100000000010011011000000001001110000000000100111010000000010011110000000001001111110010001101001001100010010 u
b100110000000000010 9#
b1001010100000000100101100000000010010111000000000000000000000000000000000000000000000000000000000000000000100000000000000000 V#
b10010100 |$
b1001000110100100110001001000000000000100100000000000010010001000000001001001000000000100100110000 *%
b1001011000000000100101110 L&
b1010000 i&
b100000000100100000000000010010001000000001001001000000000100100110000000010010100000000001001 q&
#82
b10011000000000000000000000000 *
b11000001000000100100011010010011 J
b1 j
b10000100000000101000100000000010100011000000001010010000000000101001010000000010100110000000001010011110010001101001001100010011 u
b101000000000000010 9#
b1001110100000000100111100000000010011111000000000000000000000000000000000000000000000000000000000000000000100000000000000000 V#
b10011100 |$
b1001000110100100110001001100000000000100110000000000010011001000000001001101000000000100110110000 *%
b1001111000000000100111110 L&
b11010000 i&
b100000000100110000000000010011001000000001001101000000000100110110000000010011100000000001001 q&
#83
b11000100000000100100011010010011 J
#84
b11000110000000100100011010010011 J
#85
b11001001000000100100011010010011 J
#86
b11001011000000100100011010010011 J
b10 j
#87
b10100000000000000000000000000 *
b11001110000000100100011010010011 J
b10100100000000101010100000000010101011000000001010110000000000101011010000000010101110000000001010111110010001101001001100010100 u
b101010000000000010 9#
b1010010100000000101001100000000010100111000000000000000000000000000000000000000000000000000000000000000000100000000000000000 V#
b10100100 |$
b1001000110100100110001010000000000000101000000000000010100001000000001010001000000000101000110000 *%
b1010011000000000101001110 L&
b1010000 i&
b100000000101000000000000010100001000000001010001000000000101000110000000010100100000000001010 q&
#88
b10101000000000000000000000000 *
b11010000000000100100011010010011 J
b1 j
b11000100000000101100100000000010110011000000001011010000000000101101010000000010110110000000001011011110010001101001001100010101 u
b101100000000000010 9#
b1010110100000000101011100000000010101111000000000000000000000000000000000000000000000000000000000000000000100000000000000000 V#
b10101100 |$
b1001000110100100110001010100000000000101010000000000010101001000000001010101000000000101010110000 *%
b1010111000000000101011110 L&
b11010000 i&
b100000000101010000000000010101001000000001010101000000000101010110000000010101100000000001010 q&
#89
b11010011000000100100011010010011 J
#90
b11010101000000100100011010010011 J
#91
b11011000000000100100011010010011 J
#92
b11011010000000100100011010010011 J
#93
b11011101000000100100011010010011 J
b10 j
#94
b10110000000000000000000000000 *
b11011111000000100100011010010011 J
b11100100000000101110100000000010111011000000001011110000000000101111010000000010111110000000001011111110010001101001001100010110 u
b101110000000000010 9#
b1011010100000000101101100000000010110111000000000000000000000000000000000000000000000000000000000000000000100000000000000000 V#
b10110100 |$
b1001000110100100110001011000000000000101100000000000010110001000000001011001000000000101100110000 *%
b1011011000000000101101110 L&
b1010000 i&
b100000000101100000000000010110001000000001011001000000000101100110000000010110100000000001011 q&
#95
b10111000000000000000000000000 *
b11100010000000100100011010010011 J
b1 j
b100000000110000100000000011000011000000001100010000000000110001010000000011000110000000001100011110010001101001001100010111 u
b110000000000000011 9#
b1011110100000000101111100000000010111111000000000000000000000000000000000000000000000000000000000000000000100000000000000000 V#
b10111100 |$
b1001000110100100110001011100000000000101110000000000010111001000000001011101000000000101110110000 *%
b1011111000000000101111110 L&
b11010000 i&
b100000000101110000000000010111001000000001011101000000000101110110000000010111100000000001011 q&
#96
b11100100000000100100011010010011 J
#97
b11100111000000100100011010010011 J
#98
b11101001000000100100011010010011 J
#99
b11101100000000100100011010010011 J
b10 j
#100
b11000000000000000000000000000 *
b11101110000000100100011010010011 J
b100100000000110010100000000011001011000000001100110000000000110011010000000011001110000000001100111110010001101001001100011000 u
b110010000000000011 9#
b1100010100000000110001100000000011000111000000000000000000000000000000000000000000000000000000000000000000100000000000000000 V#
b11000100 |$
b1001000110100100110001100000000000000110000000000000011000001000000001100001000000000110000110000 *%
b1100011000000000110001110 L&
b1010000 i&
b100000000110000000000000011000001000000001100001000000000110000110000000011000100000000001100 q&
#101
b11001000000000000000000000000 *
b11110001000000100100011010010011 J
b1 j
b1000100000000110100100000000011010011000000001101010000000000110101010000000011010110000000001101011110010001101001001100011001 u
b110100000000000011 9#
b1100110100000000110011100000000011001111000000000000000000000000000000000000000000000000000000000000000000100000000000000000 V#
b11001100 |$
b1001000110100100110001100100000000000110010000000000011001001000000001100101000000000110010110000 *%
b1100111000000000110011110 L&
b11010000 i&
b100000000110010000000000011001001000000001100101000000000110010110000000011001100000000001100 q&
#102
b11110011000000100100011010010011 J
#103
b11110110000000100100011010010011 J
#104
b11111000000000100100011010010011 J
#105
b11111011000000100100011010010011 J
b10 j
#106
b11010000000000000000000000000 *
b11111101000000100100011010010011 J
b1100100000000110110100000000011011011000000001101110000000000110111010000000011011110000000001101111110010001101001001100011010 u
b110110000000000011 9#
b1101010100000000110101100000000011010111000000000000000000000000000000000000000000000000000000000000000000100000000000000000 V#
b11010100 |$
b1001000110100100110001101000000000000110100000000000011010001000000001101001000000000110100110000 *%
b1101011000000000110101110 L&
b1010000 i&
b100000000110100000000000011010001000000001101001000000000110100110000000011010100000000001101 q&
#107
b11011000000000000000000000000 *
b100100011010010011 J
b1 j
b10000100000000111000100000000011100011000000001110010000000000111001010000000011100110000000001110011110010001101001001100011011 u
b111000000000000011 9#
b1101110100000000110111100000000011011111000000000000000000000000000000000000000000000000000000000000000000100000000000000000 V#
b11011100 |$
b1001000110100100110001101100000000000110110000000000011011001000000001101101000000000110110110000 *%
b1101111000000000110111110 L&
b11010000 i&
b100000000110110000000000011011001000000001101101000000000110110110000000011011100000000001101 q&
#108
b10000000100100011010010011 J
b0 j
#109
b101000000100100011010010011 J
b1 j
#110
b111000000100100011010010011 J
#111
b1010000000100100011010010011 J
#112
b1100000000100100011010010011 J
b10 j
#113
b11100000000000000000000000000 *
b1111000000100100011010010011 J
b10100100000000111010100000000011101011000000001110110000000000111011010000000011101110000000001110111110010001101001001100011100 u
b111010000000000011 9#
b1110010100000000111001100000000011100111000000000000000000000000000000000000000000000000000000000000000000100000000000000000 V#
b11100100 |$
b1001000110100100110001110000000000000111000000000000011100001000000001110001000000000111000110000 *%
b1110011000000000111001110 L&
b1010000 i&
b100000000111000000000000011100001000000001110001000000000111000110000000011100100000000001110 q&
#114
b11101000000000000000000000000 *
b10001000000100100011010010011 J
b1 j
b11000100000000111100100000000011110011000000001111010000000000111101010000000011110110000000001111011110010001101001001100011101 u
b111100000000000011 9#
b1110110100000000111011100000000011101111000000000000000000000000000000000000000000000000000000000000000000100000000000000000 V#
b11101100 |$
b1001000110100100110001110100000000000111010000000000011101001000000001110101000000000111010110000 *%
b1110111000000000111011110 L&
b11010000 i&
b100000000111010000000000011101001000000001110101000000000111010110000000011101100000000001110 q&
#115
b10100000000100100011010010011 J
#116
b10110000000100100011010010011 J
#117
b11001000000100100011010010011 J
#118
b11011000000100100011010010011 J
b10 j
#119
b11110000000000000000000000000 *
b11110000000100100011010010011 J
b11100100000000111110100000000011111011000000001111110000000000111111010000000011111110000000001111111110010001101001001100011110 u
b111110000000000011 9#
b1111010100000000111101100000000011110111000000000000000000000000000000000000000000000000000000000000000000100000000000000000 V#
b11110100 |$
b1001000110100100110001111000000000000111100000000000011110001000000001111001000000000111100110000 *%
b1111011000000000111101110 L&
b1010000 i&
b100000000111100000000000011110001000000001111001000000000111100110000000011110100000000001111 q&
#120
b11111000000000000000000000000 *
b100000000000100100011010010011 J
b1 j
b100000000000000100000000000000011000000000000010000000000000001010000000000000110000000000000011110010001101001001100011111 u
b0 9#
b1111110100000000111111100000000011111111000000000000000000000000000000000000000000000000000000000000000000100000000000000000 V#
b11111100 |$
b1001000110100100110001111100000000000111110000000000011111001000000001111101000000000111110110000 *%
b1111111000000000111111110 L&
b11010000 i&
b100000000111110000000000011111001000000001111101000000000111110110000000011111100000000001111 q&
#121
b100011000000100100011010010011 J
#122
b100101000000100100011010010011 J
#123
b101000000000100100011010010011 J
#124
b101010000000100100011010010011 J
#125
b101101000000100100011010010011 J
b10 j
#126
b100000000000000000000000000000 *
b101111000000100100011010010011 J
b100100000000000010100000000000001011000000000000110000000000000011010000000000001110000000000000111110010001101001001100100000 u
b10000000000000 9#
b10100000000000001100000000000000111000000000000000000000000000000000000000000000000000000000000000000100000000000000000 V#
b100 |$
b1001000110100100110010000000000000000000000000000000000000001000000000000001000000000000000110000 *%
b11000000000000001110 L&
b1010000 i&
b100000000000000000000000000000001000000000000001000000000000000110000000000000100000000000000 q&
#127
b100001000000000000000000000000 *
b110010000000100100011010010011 J
b1 j
b1000100000000000100100000000000010011000000000001010000000000000101010000000000010110000000000001011110010001101001001100100001 u
b100000000000000 9#
b110100000000000011100000000000001111000000000000000000000000000000000000000000000000000000000000000000100000000000000000 V#
b1100 |$
b1001000110100100110010000100000000000000010000000000000001001000000000000101000000000000010110000 *%
b111000000000000011110 L&
b11010000 i&
b100000000000010000000000000001001000000000000101000000000000010110000000000001100000000000000 q&
#128
b110100000000100100011010010011 J
#129
b110111000000100100011010010011 J
#130
b111001000000100100011010010011 J
#131
b111100000000100100011010010011 J
b10 j
#132
b111110000000100100011010010011 J
#133
b100010000000000000000000000000 *
b1000001000000100100011010010011 J
b1100100000000000110100000000000011011000000000001110000000000000111010000000000011110000000000001111110010001101001001100100010 u
b110000000000000 9#
b1010100000000000101100000000000010111000000000000000000000000000000000000000000000000000000000000000000100000000000000000 V#
b10100 |$
b1001000110100100110010001000000000000000100000000000000010001000000000001001000000000000100110000 *%
b1011000000000000101110 L&
b1010000 i&
b100000000000100000000000000010001000000000001001000000000000100110000000000010100000000000001 q&
#134
b100011000000000000000000000000 *
b1000011000000100100011010010011 J
b10000100000000001000100000000000100011000000000010010000000000001001010000000000100110000000000010011110010001101001001100100011 u
b1000000000000000 9#
b1110100000000000111100000000000011111000000000000000000000000000000000000000000000000000000000000000000100000000000000000 V#
b11100 |$
b1001000110100100110010001100000000000000110000000000000011001000000000001101000000000000110110000 *%
b1111000000000000111110 L&
b11010000 i&
b100000000000110000000000000011001000000000001101000000000000110110000000000011100000000000001 q&
#135
b1000110000000100100011010010011 J
b1 j
#136
b1001000000000100100011010010011 J
#137
b1001011000000100100011010010011 J
b10 j
#138
b100100000000000000000000000000 *
b1001101000000100100011010010011 J
b10100100000000001010100000000000101011000000000010110000000000001011010000000000101110000000000010111110010001101001001100100100 u
b1010000000000000 9#
b10010100000000001001100000000000100111000000000000000000000000000000000000000000000000000000000000000000100000000000000000 V#
b100100 |$
b1001000110100100110010010000000000000001000000000000000100001000000000010001000000000001000110000 *%
b10011000000000001001110 L&
b1010000 i&
b100000000001000000000000000100001000000000010001000000000001000110000000000100100000000000010 q&
#139
b100101000000000000000000000000 *
b1010000000000100100011010010011 J
b1 j
b11000100000000001100100000000000110011000000000011010000000000001101010000000000110110000000000011011110010001101001001100100101 u
b1100000000000000 9#
b10110100000000001011100000000000101111000000000000000000000000000000000000000000000000000000000000000000100000000000000000 V#
b101100 |$
b1001000110100100110010010100000000000001010000000000000101001000000000010101000000000001010110000 *%
b10111000000000001011110 L&
b11010000 i&
b100000000001010000000000000101001000000000010101000000000001010110000000000101100000000000010 q&
#140
b1010010000000100100011010010011 J
b0 j
#141
b1010101000000100100011010010011 J
b1 j
#142
b1010111000000100100011010010011 J
#143
b1011010000000100100011010010011 J
#144
b1011100000000100100011010010011 J
b10 j
#145
b100110000000000000000000000000 *
b1011111000000100100011010010011 J
b11100100000000001110100000000000111011000000000011110000000000001111010000000000111110000000000011111110010001101001001100100110 u
b1110000000000000 9#
b11010100000000001101100000000000110111000000000000000000000000000000000000000000000000000000000000000000100000000000000000 V#
b110100 |$
b1001000110100100110010011000000000000001100000000000000110001000000000011001000000000001100110000 *%
b11011000000000001101110 L&
b1010000 i&
b100000000001100000000000000110001000000000011001000000000001100110000000000110100000000000011 q&
#146
b100111000000000000000000000000 *
b1100001000000100100011010010011 J
b1 j
b100000000010000100000000001000011000000000100010000000000010001010000000001000110000000000100011110010001101001001100100111 u
b10000000000000001 9#
b11110100000000001111100000000000111111000000000000000000000000000000000000000000000000000000000000000000100000000000000000 V#
b111100 |$
b1001000110100100110010011100000000000001110000000000000111001000000000011101000000000001110110000 *%
b11111000000000001111110 L&
b11010000 i&
b100000000001110000000000000111001000000000011101000000000001110110000000000111100000000000011 q&
#147
b1100100000000100100011010010011 J
#148
b1100110000000100100011010010011 J
#149
b1101001000000100100011010010011 J
#150
b1101011000000100100011010010011 J
b10 j
