WaveWidthPhase2constrain/.Xil/Vivado-20316-DESKTOP-G3B5TCR/hw_ila_data_3/zip_work/waveform.vcd
$date
        2019-Nov-26 16:46:30
$end
$version
        Vivado v2017.4 (64-bit)
$end
$timescale
        1ps
$end
$scope module dut $end
$var reg 41 " example_top/Fourth_moment [40:0] $end
$var reg 6 K example_top/Front_area [5:0] $end
$var reg 10 Q Front_area [15:6] $end
$var reg 8 [ example_top/Mean_value_remainders [7:0] $end
$var reg 6 c example_top/MonopulsePosition_1 [5:0] $end
$var reg 10 i MonopulsePosition [15:6] $end
$var reg 16 s example_top/MonopulsePosition [31:16] $end
$var reg 16 %" example_top/Monopulse_num [15:0] $end
$var reg 8 5" example_top/Mean_value [7:0] $end
$var reg 16 =" example_top/Monopulse_data1 [15:0] $end
$var reg 6 M" example_top/Behind_area [5:0] $end
$var reg 10 S" Behind_area [15:6] $end
$var reg 16 ]" example_top/Count [15:0] $end
$var reg 8 m" u_ila_1_Monopulse_data_1 [7:0] $end
$var reg 3 u" example_top/Arithmetic_State [2:0] $end
$var reg 24 x" example_top/Second_moment [23:0] $end
$var reg 2 2# u_ila_1_WaveState [1:0] $end
$var reg 16 4# example_top/Pulse_point_num [15:0] $end
$var reg 16 D# example_top/time_cnt [15:0] $end
$var reg 32 T# example_top/PeriodPoint_num [31:0] $end
$var reg 32 t# u_ila_1_SendToArm_Data [31:0] $end
$var reg 16 6$ example_top/Total_area [15:0] $end
$var reg 16 F$ example_top/Read_Fifo_Out [15:0] $end
$var reg 8 V$ example_top/Peak_value [7:0] $end
$var reg 1 ^$ Period_condition_1 $end
$var reg 1 _$ Period_condition_2 $end
$var reg 1 `$ Period_condition_3 $end
$var reg 1 a$ Period_condition_4 $end
$var reg 1 b$ Period_condition_5 $end
$var reg 1 c$ Period_condition_6 $end
$var reg 1 d$ Period_condition_7 $end
$var reg 1 e$ Period_condition_8 $end
$var reg 1 f$ Period_condition_9 $end
$var reg 1 g$ Period_condition_10 $end
$var reg 1 h$ Period_condition_11 $end
$var reg 1 i$ Period_condition_12 $end
$var reg 1 j$ Period_condition_13 $end
$var reg 1 k$ Period_condition_14 $end
$var reg 1 l$ Period_condition_15 $end
$var reg 1 m$ Period_condition $end
$var reg 33 n$ example_top/Third_moment [32:0] $end
$var reg 16 1% example_top/ii [15:0] $end
$var reg 21 A% example_top/Square_data [20:0] $end
$var reg 6 V% example_top/Period_count [5:0] $end
$var reg 32 \% example_top/ReadPosition [31:0] $end
$var reg 1 |% u_ila_1_Extract_en $end
$var reg 1 }% u_ila_1_FeatureExtraction_flag $end
$var reg 1 ~% SendIRQ_OBUF_1 $end
$var reg 1 !& SendIRQ_OBUF $end
$var reg 1 "& example_top/S_FeatureExtraction_flag_reg1 $end
$var reg 1 #& SendBegin_reg $end
$var reg 1 $& SendOver $end
$var reg 1 %& example_top/SendToArm_begin $end
$var reg 1 && example_top/SendToArm_Over $end
$var reg 1 '& _TRIGGER $end
$var reg 1 (& _WINDOW $end
$var reg 1 )& _GAP $end
$upscope $end
$enddefinitions $end
#0
$dumpvars
b0 "
b0 K
b0 Q
b0 [
b11100 c
b100010010 i
b0 s
b0 %"
b0 5"
b0 ="
b0 M"
b0 S"
b0 ]"
b1101001 m"
b10 u"
b0 x"
b0 2#
b10 4#
b0 D#
b0 T#
b0 t#
b0 6$
b1101001 F$
b0 V$
0^$
0_$
0`$
0a$
0b$
0c$
0d$
0e$
0f$
0g$
0h$
0i$
0j$
0k$
0l$
0m$
b0 n$
b0 1%
b0 A%
b0 V%
b100010110010110 \%
1|%
0}%
0~%
0!&
0"&
0#&
1$&
0%&
0&&
0'&
1(&
0)&
$end
#1
b100010110010111 \%
#2
b100010110011000 \%
#3
b100010110011001 \%
#4
b100010110011010 \%
#5
b100010110011011 \%
#6
b100010110011100 \%
#7
b100010110011101 \%
#8
b100010110011110 \%
#9
b100010110011111 \%
#10
b100010110100000 \%
#11
b100010110100001 \%
#12
b100010110100010 \%
#13
b100010110100011 \%
#14
b100010110100100 \%
#15
b100010110100101 \%
#16
b100010110100110 \%
#17
b100010110100111 \%
#18
b100010110101000 \%
#19
b100010110101001 \%
#20
b100010110101010 \%
#21
b100010110101011 \%
#22
b100010110101100 \%
#23
b100010110101101 \%
#24
b100010110101110 \%
#25
b100010110101111 \%
#26
b100010110110000 \%
#27
b100010110110001 \%
#28
b100010110110010 \%
#29
b100010110110011 \%
#30
b100010110110100 \%
#31
b100010110110101 \%
#32
b100010110110110 \%
#33
b100010110110111 \%
#34
b100010110111000 \%
#35
b100010110111001 \%
#36
b100010110111010 \%
#37
b100010110111011 \%
#38
b100010110111100 \%
#39
b100010110111101 \%
#40
b100010110111110 \%
#41
b100010110111111 \%
#42
b100010111000000 \%
#43
b100010111000001 \%
#44
b100010111000010 \%
#45
b100010111000011 \%
#46
b100010111000100 \%
#47
b100010111000101 \%
#48
b100010111000110 \%
#49
b100010111000111 \%
#50
b100010111001000 \%
#51
b1101010 F$
b100010111001001 \%
#52
b1101011 m"
b1101001 F$
b100010111001010 \%
#53
b1101001 m"
b1101010 F$
b100010111001011 \%
#54
b1101011 m"
b1101001 F$
b100010111001100 \%
#55
b1101001 m"
b1101010 F$
b100010111001101 \%
#56
b1101011 m"
b1101001 F$
b100010111001110 \%
#57
b1101001 m"
b100010111001111 \%
#58
b100010111010000 \%
#59
b100010111010001 \%
#60
b100010111010010 \%
#61
b100010111010011 \%
#62
b100010111010100 \%
#63
b100010111010101 \%
#64
b1101000 F$
b100010111010110 \%
#65
b1101001 F$
b100010111010111 \%
#66
b100010111011000 \%
#67
b1101000 F$
b100010111011001 \%
#68
b1101001 F$
b100010111011010 \%
#69
b1101000 F$
b100010111011011 \%
#70
b1101001 F$
b100010111011100 \%
#71
b1101000 F$
b100010111011101 \%
#72
b1101001 F$
b100010111011110 \%
#73
b100010111011111 \%
#74
b100010111100000 \%
#75
b1101000 F$
b100010111100001 \%
#76
b100010111100010 \%
#77
b1101000 m"
b1101001 F$
b100010111100011 \%
#78
b1101001 m"
b100010111100100 \%
#79
b1101000 F$
b100010111100101 \%
#80
b1101001 F$
b100010111100110 \%
#81
b100010111100111 \%
#82
b100010111101000 \%
#83
b100010111101001 \%
#84
b100010111101010 \%
#85
b100010111101011 \%
#86
b100010111101100 \%
#87
b100010111101101 \%
#88
b100010111101110 \%
#89
b100010111101111 \%
#90
b100010111110000 \%
#91
b100010111110001 \%
#92
b100010111110010 \%
#93
b100010111110011 \%
#94
b100010111110100 \%
#95
b100010111110101 \%
#96
b100010111110110 \%
#97
b1101000 F$
b100010111110111 \%
#98
b1101001 F$
b100010111111000 \%
#99
b100010111111001 \%
#100
b100010111111010 \%
#101
b100010111111011 \%
#102
b100010111111100 \%
#103
b100010111111101 \%
#104
b1101000 F$
b100010111111110 \%
#105
b1101001 F$
b100010111110111 \%
#106
b100010111111000 \%
#107
b1101000 F$
b100010111110001 \%
#108
b1101001 F$
b100010111110010 \%
#109
b1101000 F$
b100010111101011 \%
#110
b100010111101100 \%
#111
b1101000 m"
b1101001 F$
b100010111101101 \%
#112
b1101001 m"
b100010111101110 \%
#113
b100010111101111 \%
#114
b1101000 F$
b100010111110000 \%
#115
b1101001 F$
b100010111110001 \%
#116
b100010111110010 \%
#117
b1101000 F$
b100010111110011 \%
#118
b100010111110100 \%
#119
b1101000 m"
b100010111110101 \%
#120
b100010111110110 \%
#121
b100010111110111 \%
#122
b1101001 F$
b100010111111000 \%
#123
b1101001 m"
b1101000 F$
b100010111111001 \%
#124
b100010111111010 \%
#125
b1101000 m"
b100010111111011 \%
#126
b1101001 F$
b100010111111100 \%
#127
b1101001 m"
b1101000 F$
b100010111111101 \%
#128
b100010111111110 \%
#129
b1101000 m"
b100010111111111 \%
#130
b1101001 F$
b100011000000000 \%
#131
b1101001 m"
b100011000000001 \%
#132
b100011000000010 \%
#133
b100011000000011 \%
#134
b100011000000100 \%
#135
b100011000000101 \%
#136
b100011000000110 \%
#137
b100011000000111 \%
#138
b1101000 F$
b100011000001000 \%
#139
b100011000001001 \%
#140
b1101000 m"
b100011000001010 \%
#141
b100011000001011 \%
#142
b1101001 F$
b100011000001100 \%
#143
b1101001 m"
b100011000001101 \%
#144
b1101000 F$
b100011000001110 \%
#145
b100011000001111 \%
#146
b1101000 m"
b100011000010000 \%
#147
b1101001 F$
b100011000010001 \%
#148
b1101001 m"
b100011000010010 \%
#149
b1101000 F$
b100011000010011 \%
#150
b100011000010100 \%
#151
b1101000 m"
b100011000010101 \%
#152
b100011000010110 \%
#153
b100011000010111 \%
#154
b1101001 F$
b100011000011000 \%
#155
b1101001 m"
b1101000 F$
b100011000011001 \%
#156
b100011000011010 \%
#157
b1101000 m"
b100011000011011 \%
#158
b100011000011100 \%
#159
b100011000011101 \%
#160
b100011000011110 \%
#161
b1101001 F$
b100011000011111 \%
#162
b1101001 m"
b1101000 F$
b100011000100000 \%
#163
b100011000100001 \%
#164
b1101000 m"
b100011000100010 \%
#165
b100011000100011 \%
#166
b1101001 F$
b100011000100100 \%
#167
b1101001 m"
b100011000100101 \%
#168
b100011000100110 \%
#169
b100011000100111 \%
#170
b1101000 F$
b100011000101000 \%
#171
b1101001 F$
b100011000101001 \%
#172
b1101000 F$
b100011000101010 \%
#173
b100011000101011 \%
#174
b1101000 m"
b100011000101100 \%
#175
b100011000101101 \%
#176
b1101001 F$
b100011000101110 \%
#177
b1101001 m"
b100011000101111 \%
#178
b100011000110000 \%
#179
b100011000110001 \%
#180
b1101000 F$
b100011000110010 \%
#181
b1101001 F$
b100011000110011 \%
#182
b100011000110100 \%
#183
b1101000 F$
b100011000110101 \%
#184
b1101001 F$
b100011000110110 \%
#185
b100011000110111 \%
#186
b100011000111000 \%
#187
b100011000111001 \%
#188
b100011000111010 \%
#189
b100011000111011 \%
#190
b100011000111100 \%
#191
b100011000111101 \%
#192
b100011000111110 \%
#193
b100011000111111 \%
#194
b100011001000000 \%
#195
b100011001000001 \%
#196
b100011001000010 \%
#197
b1101000 F$
b100011001000011 \%
#198
b1101001 F$
b100011001000100 \%
#199
b100011001000101 \%
#200
b1101000 F$
b100011001000110 \%
#201
b100011001000111 \%
#202
b1101000 m"
b1101001 F$
b100011001001000 \%
#203
b1101001 m"
b100011001001001 \%
#204
b100011001001010 \%
#205
b100011001001011 \%
#206
b100011001001100 \%
#207
b100011001001101 \%
#208
b100011001001110 \%
#209
b100011001001111 \%
#210
b1101000 F$
b100011001010000 \%
#211
b100011001010001 \%
#212
b1101000 m"
b1101001 F$
b100011001010010 \%
#213
b1101001 m"
b100011001010011 \%
#214
b100011001010100 \%
#215
b100011001010101 \%
#216
b100011001010110 \%
#217
b100011001010111 \%
#218
b1101000 F$
b100011001011000 \%
#219
b1101001 F$
b100011001011001 \%
#220
b1101000 F$
b100011001011010 \%
#221
b1101001 F$
b100011001011011 \%
#222
b1101000 F$
b100011001011100 \%
#223
b1101001 F$
b100011001011101 \%
#224
b1101000 F$
b100011001011110 \%
#225
b1101001 F$
b100011001011111 \%
#226
b100011001100000 \%
#227
b100011001100001 \%
#228
b100011001100010 \%
#229
b1101000 F$
b100011001100011 \%
#230
b1101001 F$
b100011001100100 \%
#231
b1101000 F$
b100011001100101 \%
#232
b1101001 F$
b100011001100110 \%
#233
b100011001100111 \%
#234
b100011001101000 \%
#235
b1101000 F$
b100011001101001 \%
#236
b1101001 F$
b100011001101010 \%
#237
b1101000 F$
b100011001101011 \%
#238
b1101001 F$
b100011001101100 \%
#239
b100011001101101 \%
#240
b1101000 F$
b100011001101110 \%
#241
b100011001101111 \%
#242
b1101000 m"
b100011001110000 \%
#243
b1101001 F$
b100011001110001 \%
#244
b1101001 m"
b100011001110010 \%
#245
b1101000 F$
b100011001110011 \%
#246
b1101001 F$
b100011001110100 \%
#247
b100011001110101 \%
#248
b100011001110110 \%
#249
b100011001110111 \%
#250
b1101000 F$
b100011001111000 \%
#251
b1101001 F$
b100011001111001 \%
#252
b1101000 F$
b100011001111010 \%
#253
b100011001111011 \%
#254
b1101000 m"
b100011001111100 \%
#255
b100011001111101 \%
#256
b100011001111110 \%
#257
b1101001 F$
b100011001111111 \%
#258
b1101001 m"
b1101000 F$
b100011010000000 \%
#259
b1101001 F$
b100011010000001 \%
#260
b1101000 F$
b100011010000010 \%
#261
b100011010000011 \%
#262
b1101000 m"
b100011010000100 \%
#263
b1101001 F$
b100011010000101 \%
#264
b1101001 m"
b1101000 F$
b100011010000110 \%
#265
b1101001 F$
b100011010000111 \%
#266
b100011010001000 \%
#267
b100011010001001 \%
#268
b100011010001010 \%
#269
b100011010001011 \%
#270
b100011010001100 \%
#271
b100011010001101 \%
#272
b1101000 F$
b100011010001110 \%
#273
b1101001 F$
b100011010001111 \%
#274
b1101000 F$
b100011010010000 \%
#275
b1101001 F$
b100011010010001 \%
#276
b100011010010010 \%
#277
b1101000 F$
b100011010010011 \%
#278
b1101001 F$
b100011010010100 \%
#279
b1101000 F$
b100011010010101 \%
#280
b1101001 F$
b100011010010110 \%
#281
b100011010010111 \%
#282
b1101000 F$
b100011010011000 \%
#283
b1101001 F$
b100011010011001 \%
#284
b1101000 F$
b100011010011010 \%
#285
b100011010011011 \%
#286
b1101000 m"
b1101001 F$
b100011010011100 \%
#287
b1101001 m"
b1101000 F$
b100011010011101 \%
#288
b100011010011110 \%
#289
b1101000 m"
b100011010011111 \%
#290
b1101001 F$
b100011010100000 \%
#291
b1101001 m"
b100011010100001 \%
#292
b100011010100010 \%
#293
b100011010100011 \%
#294
b100011010100100 \%
#295
b100011010100101 \%
#296
b100011010100110 \%
#297
b100011010100111 \%
#298
b100011010101000 \%
#299
b100011010101001 \%
#300
b100011010101010 \%
#301
b100011010101011 \%
#302
b100011010101100 \%
#303
b1101000 F$
b100011010101101 \%
#304
b100011010101110 \%
#305
b1101000 m"
b100011010101111 \%
#306
b1101001 F$
b100011010110000 \%
#307
b1101001 m"
b100011010110001 \%
#308
b1101000 F$
b100011010110010 \%
#309
b1101001 F$
b100011010110011 \%
#310
b100011010110100 \%
#311
b100011010110101 \%
#312
b100011010110110 \%
#313
b100011010110111 \%
#314
b100011010111000 \%
#315
b1101000 F$
b100011010111001 \%
#316
b100011010111010 \%
#317
b1101000 m"
b1101001 F$
b100011010111011 \%
#318
b1101001 m"
b1101000 F$
b100011010111100 \%
#319
b1101001 F$
b100011010111101 \%
#320
b1101000 F$
b100011010111110 \%
#321
b100011010111111 \%
#322
b1101000 m"
b100011011000000 \%
#323
b100011011000001 \%
#324
b1101001 F$
b100011011000010 \%
#325
b1101001 m"
b100011011000011 \%
#326
b100011011000100 \%
#327
b1101000 F$
b100011011000101 \%
#328
b1101001 F$
b100011011000110 \%
#329
b1101000 F$
b100011011000111 \%
#330
b100011011001000 \%
#331
b1101000 m"
b1101001 F$
b100011011001001 \%
#332
b1101001 m"
b100011011001010 \%
#333
b1101000 F$
b100011011001011 \%
#334
b1101001 F$
b100011011001100 \%
#335
b1101000 F$
b100011011001101 \%
#336
b1101001 F$
b100011011001110 \%
#337
b100011011001111 \%
#338
b100011011010000 \%
#339
b100011011010001 \%
#340
b100011011010010 \%
#341
b100011011010011 \%
#342
b1101000 F$
b100011011010100 \%
#343
b1101001 F$
b100011011010101 \%
#344
b100011011010110 \%
#345
b100011011010111 \%
#346
b100011011011000 \%
#347
b100011011011001 \%
#348
b100011011011010 \%
#349
b100011011011011 \%
#350
b100011011011100 \%
#351
b100011011011101 \%
#352
b1101000 F$
b100011011011110 \%
#353
b100011011011111 \%
#354
b1101000 m"
b1101001 F$
b100011011100000 \%
#355
b1101001 m"
b100011011100001 \%
#356
b100011011100010 \%
#357
b100011011100011 \%
#358
b1101000 F$
b100011011100100 \%
#359
b1101001 F$
b100011011100101 \%
#360
b1101000 F$
b100011011100110 \%
#361
b1101001 F$
b100011011100111 \%
#362
b1101000 F$
b100011011101000 \%
#363
b1101001 F$
b100011011101001 \%
#364
b100011011101010 \%
#365
b100011011101011 \%
#366
b1101000 F$
b100011011101100 \%
#367
b100011011101101 \%
#368
b1101000 m"
b100011011101110 \%
#369
b100011011101111 \%
#370
b1101001 F$
b100011011110000 \%
#371
b1101001 m"
b100011011110001 \%
#372
b100011011110010 \%
#373
b100011011110011 \%
#374
b100011011110100 \%
#375
b1101000 F$
b100011011110101 \%
#376
b100011011110110 \%
#377
b1101000 m"
b1101001 F$
b100011011110111 \%
#378
b1101001 m"
b100011011111000 \%
#379
b1101000 F$
b100011011111001 \%
#380
b100011011111010 \%
#381
b1101000 m"
b1101001 F$
b100011011111011 \%
#382
b1101001 m"
b100011011111100 \%
#383
b100011011111101 \%
#384
b100011011111110 \%
#385
b1101000 F$
b100011011111111 \%
#386
b100011100000000 \%
#387
b1101000 m"
b100011100000001 \%
#388
b1101001 F$
b100011100000010 \%
#389
b1101001 m"
b100011100000011 \%
#390
b100011100000100 \%
#391
b1101000 F$
b100011100000101 \%
#392
b100011100000110 \%
#393
b1101000 m"
b100011100000111 \%
#394
b1101001 F$
b100011100001000 \%
#395
b1101001 m"
b100011100001001 \%
#396
b1101000 F$
b100011100001010 \%
#397
b100011100001011 \%
#398
b1101000 m"
b100011100001100 \%
#399
b100011100001101 \%
#400
b100011100001110 \%
#401
b100011100001111 \%
#402
b100011100010000 \%
#403
b100011100010001 \%
#404
b100011100010010 \%
#405
b1101001 F$
b100011100010011 \%
#406
b1101001 m"
b1101000 F$
b100011100010100 \%
#407
b1101001 F$
b100011100010101 \%
#408
b100011100010110 \%
#409
b1101000 F$
b100011100010111 \%
#410
b100011100011000 \%
#411
b1101000 m"
b1101001 F$
b100011100011001 \%
#412
b1101001 m"
b1101000 F$
b100011100011010 \%
#413
b1101001 F$
b100011100011011 \%
#414
b1101000 F$
b100011100011100 \%
#415
b1101001 F$
b100011100011101 \%
#416
b1101000 F$
b100011100011110 \%
#417
b100011100011111 \%
#418
b1101000 m"
b1101001 F$
b100011100100000 \%
#419
b1101001 m"
b100011100100001 \%
#420
b100011100100010 \%
#421
b100011100100011 \%
#422
b100011100100100 \%
#423
b100011100100101 \%
#424
b100011100100110 \%
#425
b100011100100111 \%
#426
b100011100101000 \%
#427
b100011100101001 \%
#428
b100011100101010 \%
#429
b100011100101011 \%
#430
b100011100101100 \%
#431
b100011100101101 \%
#432
b100011100101110 \%
#433
b100011100101111 \%
#434
b100011100110000 \%
#435
b100011100110001 \%
#436
b100011100110010 \%
#437
b1101000 F$
b100011100110011 \%
#438
b100011100110100 \%
#439
b1101000 m"
b1101001 F$
b100011100110101 \%
#440
b1101001 m"
b1101000 F$
b100011100110110 \%
#441
b100011100110111 \%
#442
b1101000 m"
b100011100111000 \%
#443
b1101001 F$
b100011100111001 \%
#444
b1101001 m"
b1101000 F$
b100011100111010 \%
#445
b100011100111011 \%
#446
b1101000 m"
b1101001 F$
b100011100111100 \%
#447
b1101001 m"
b1101000 F$
b100011100111101 \%
#448
b1101001 F$
b100011100111110 \%
#449
b100011100111111 \%
#450
b100011101000000 \%
#451
b100011101000001 \%
#452
b100011101000010 \%
#453
b100011101000011 \%
#454
b100011101000100 \%
#455
b1101010 F$
b100011101000101 \%
#456
b1101011 m"
b100011101000110 \%
#457
b1101010 m"
b1101011 F$
b100011101000111 \%
#458
b1101011 m"
b1101100 F$
b100011101001000 \%
#459
b100010110 i
b1101101 m"
b1 2#
b1101101 F$
b100011101001001 \%
#460
b1000 c
b100011101 i
b0 2#
b100 4#
b100011101001010 \%
#461
b10 4#
b1101110 F$
b100011101001011 \%
#462
b1101111 m"
b1 2#
b1101111 F$
b100011101001100 \%
#463
b1100 c
b100 4#
b1101110 F$
b100011101001101 \%
#464
b1101 c
b101 4#
b100011101001110 \%
#465
b1110 c
b110 4#
b1101101 F$
b100011101001111 \%
#466
b1111 c
b111 4#
b1101100 F$
b100011101010000 \%
#467
b10 2#
b1000 4#
b100011101010001 \%
#468
b1001 4#
b1101010 F$
b100011101010010 \%
#469
b1010 4#
b100011101010011 \%
#470
b1011 4#
b100011101010100 \%
#471
b1100 4#
b1101001 F$
b100011101010101 \%
#472
b1101 4#
b100011101010110 \%
#473
b0 2#
b1110 4#
b100011101010111 \%
0|%
1}%
#474
b1110 ="
b1 ]"
b11 u"
b100011101011000 \%
#475
b1110 %"
b10 ]"
b1 D#
#476
b11 ]"
b10 D#
b110 V$
#477
b1110 K
b1101101 ="
b100 ]"
b11 D#
b1110 V$
#478
b111011 K
b1 Q
b101 ]"
b0 D#
b1101101 V$
#479
b1101111 ="
b101101 M"
b1 S"
b110 ]"
b101 D#
#480
b111 ]"
b10 D#
b1101111 V$
#481
b1101110 ="
b11100 M"
b11 S"
b1000 ]"
b111 D#
#482
b1010 M"
b101 S"
b1001 ]"
b1000 D#
#483
b1101101 ="
b111000 M"
b110 S"
b1010 ]"
b1001 D#
#484
b100101 M"
b1000 S"
b1011 ]"
b1010 D#
#485
b1101100 ="
b10010 M"
b1010 S"
b1100 ]"
b1011 D#
#486
b1101010 ="
b111110 M"
b1011 S"
b1101 ]"
b1000 D#
#487
b101000 M"
b1101 S"
b1110 ]"
b1101 D#
#488
b10010 M"
b1111 S"
b1111 ]"
b1010 D#
#489
b1101001 ="
b111100 M"
b10000 S"
b10000 ]"
b1111 D#
#490
b100101 M"
b10010 S"
b10001 ]"
b10000 D#
#491
b0 ="
b1110 M"
b10100 S"
b10010 ]"
b100 u"
b10001 D#
#492
b0 D#
b10110001001 6$
#493
b11001 [
b1111111 5"
b101 u"
#494
b1100100 5"
b1 1%
#495
b1 D#
b10 1%
#496
b10 D#
b11 1%
b101000100 A%
#497
b101000100 x"
b11 D#
b100 1%
b1100100 A%
#498
b11001101000010000 "
b110101000 x"
b0 D#
b101 1%
b111000010000 A%
#499
b11100000100100000 "
b111110111000 x"
b101 D#
b111111111111111111110100100111000 n$
b110 1%
b110111001 A%
#500
b110001111000001000100000 "
b1000101110001 x"
b10 D#
b111111111111111111110110100100000 n$
b111 1%
b1111001 A%
#501
b110010100111100111010001 "
b1000111101010 x"
b111 D#
b111111111111111001010000101100000 n$
b1000 1%
#502
b110010101011001100000010 "
b1001001100011 x"
b1000 D#
b111111111111111000111110100110011 n$
b1001 1%
b1010001 A%
#503
b110010101110110000110011 "
b1001010110100 x"
b1001 D#
b111111111111111001000001001100110 n$
b1010 1%
b11001 A%
#504
b110010110000010111010100 "
b1001011001101 x"
b1010 D#
b111111111111111001000011110011001 n$
b1011 1%
b1100100 A%
#505
b110010110000100001000101 "
b1001100110001 x"
b1011 D#
b111111111111111001000101001110010 n$
b1100 1%
b11001 A%
#506
b110010110010111101010101 "
b1001101001010 x"
b1000 D#
b111111111111111001000101011101111 n$
b1101 1%
b100100 A%
#507
b110010110011000111000110 "
b1001101101110 x"
b1101 D#
b111111111111111001000111011010111 n$
b1110 1%
#508
b110010110011011011010110 "
b1001110010010 x"
b1010 D#
b111111111111111001000111101010100 n$
b1111 1%
#509
b110010110011101111100110 "
b1001110110110 x"
b1111 D#
b111111111111111001001000000101100 n$
b10000 1%
b11001 A%
#510
b110010110100000011110110 "
b1001111001111 x"
b10000 D#
b111111111111111001001000100000100 n$
b10001 1%
#511
b110010110100001101100111 "
b10001 D#
b111111111111111001001000111011100 n$
b10010 1%
1~%
1!&
#512
b11 [
b10010 D#
b111111111111111001001001001011001 n$
b0 1%
b0 A%
1|%
0}%
0~%
0!&
1"&
0$&
1'&
#513
b0 ]"
b1101001 m"
b10 4#
b0 D#
b1 1%
0"&
#514
b1 D#
b10 1%
b100011101011001 \%
1$&
#515
b10 D#
b11 1%
b1010001 A%
b100011101011010 \%
#516
b1010000100000 x"
b11 D#
b1101000 F$
b100 1%
b1100100 A%
b100011101011011 \%
#517
b110010110101110100001000 "
b1010010000100 x"
b0 D#
b101 1%
b111000010000 A%
b100011101011100 \%
#518
b110010111000010000011000 "
b1101000 m"
b10001010010100 x"
b101 D#
b111111111111111001001010100110010 n$
b110 1%
b110111001 A%
b100011101011101 \%
#519
b1100100010100010100011000 "
b10010001001101 x"
b10 D#
b111111111111111001001100100011010 n$
b111 1%
b1111001 A%
b100011101011110 \%
#520
b1100101000011110011001001 "
b10010011000110 x"
b111 D#
b1101001 F$
b111111111111110010100110101011010 n$
b1000 1%
b100011101011111 \%
#521
b1100101000111010111111010 "
b1101001 m"
b10010100111111 x"
b1000 D#
b1101000 F$
b111111111111110010010100100101101 n$
b1001 1%
b1010001 A%
b100011101100000 \%
#522
b1100101001010111100101011 "
b10010110010000 x"
b1001 D#
b111111111111110010010111001100000 n$
b1010 1%
b11001 A%
b100011101100001 \%
#523
b1100101001100100011001100 "
b1101000 m"
b10010110101001 x"
b1010 D#
b1101001 F$
b111111111111110010011001110010011 n$
b1011 1%
b1100100 A%
b100011101100010 \%
#524
b1100101001100101100111101 "
b1101001 m"
b10011000001101 x"
b1011 D#
b111111111111110010011011001101100 n$
b1100 1%
b11001 A%
b100011101100011 \%
#525
b1100101001111001001001101 "
b10011000100110 x"
b1000 D#
b1101000 F$
b111111111111110010011011011101001 n$
b1101 1%
b100100 A%
b100011101100100 \%
#526
b1100101001111010010111110 "
b10011001001010 x"
b1101 D#
b1101001 F$
b111111111111110010011101011010001 n$
b1110 1%
b100011101100101 \%
#527
b1100101001111100111001110 "
b10011001101110 x"
b1010 D#
b111111111111110010011101101001110 n$
b1111 1%
b100011101100110 \%
#528
b1100101001111111011011110 "
b10011010010010 x"
b1111 D#
b111111111111110010011110000100110 n$
b10000 1%
b11001 A%
b100011101100111 \%
#529
b1100101010000001111101110 "
b10011010101011 x"
b10000 D#
b111111111111110010011110011111110 n$
b10001 1%
b100011101101000 \%
#530
b1100101010000011001011111 "
b10001 D#
b111111111111110010011110111010110 n$
b10010 1%
b100011101101001 \%
1~%
1!&
1%&
#531
b10010 D#
b111111111111110010011111001010011 n$
b10011 1%
b100011101101010 \%
0~%
0!&
1"&
#532
b10011 D#
b11001 t#
b10100 1%
b100011101101011 \%
0"&
#533
b10000 D#
b1101010 F$
b10101 1%
b100011101101100 \%
#534
b1101011 m"
b10101 D#
b100011101001111 t#
b10110 1%
b100011101101101 \%
#535
b1101010 m"
b10010 D#
b1101011 F$
b10111 1%
b100011101101110 \%
#536
b1101011 m"
b0 u"
b10111 D#
b1111011 t#
b11000 1%
b100011101101111 \%
1~%
1!&
#537
b1 u"
b0 D#
b0 1%
b0 A%
b100011101110000 \%
1"&
#538
b10 u"
b10100001110 t#
b100011101110001 \%
0~%
0!&
0$&
#539
b100011101110010 \%
0"&
#540
b10110001001 t#
b100011101110011 \%
1$&
#541
b1101010 F$
b100011101110100 \%
#542
b1101111 t#
b100011101110101 \%
#543
b1101010 m"
b100011101110110 \%
#544
b10011010101011 t#
b1101001 F$
b100011101110111 \%
#545
b1101001 m"
b100011101111000 \%
#546
b11111111111110010011111001010011 t#
b100011101111001 \%
#547
b1101000 F$
b100011101111010 \%
#548
b1 t#
b1101001 F$
b100011101111011 \%
#549
b1101000 F$
b100011101111100 \%
#550
b1100101010000011001011111 t#
b1101001 F$
b100011101111101 \%
#551
b1101000 F$
b100011101111110 \%
#552
b0 t#
b100011101111111 \%
#553
b1101000 m"
b100011110000000 \%
#554
b1110 t#
b100011110000001 \%
0%&
1&&
#555
b100011110000010 \%
#556
b0 t#
b1101001 F$
b100011110000011 \%
#557
b1101001 m"
b1101000 F$
b100011110000100 \%
#558
b100011110000101 \%
#559
b1101000 m"
b1101001 F$
b100011110000110 \%
#560
b1101001 m"
b100011110000111 \%
#561
b100011110001000 \%
#562
b100011110001001 \%
#563
b1101000 F$
b100011110001010 \%
#564
b100011110001011 \%
#565
b1101000 m"
b1101001 F$
b100011110001100 \%
#566
b1101001 m"
b1101000 F$
b100011110001101 \%
#567
b100011110001110 \%
#568
b1101000 m"
b1101001 F$
b100011110001111 \%
#569
b1101001 m"
b100011110010000 \%
#570
b100011110010001 \%
#571
b100011110010010 \%
#572
b1101000 F$
b100011110010011 \%
#573
b1101001 F$
b100011110010100 \%
#574
b100011110010101 \%
#575
b100011110010110 \%
#576
b100011110010111 \%
#577
b100011110011000 \%
#578
b100011110011001 \%
#579
b100011110011010 \%
#580
b100011110011011 \%
#581
b100011110011100 \%
#582
b100011110011101 \%
#583
b100011110011110 \%
#584
b100011110011111 \%
#585
b100011110100000 \%
#586
b100011110100001 \%
#587
b100011110100010 \%
#588
b1101000 F$
b100011110100011 \%
#589
b1101001 F$
b100011110100100 \%
#590
b100011110100101 \%
#591
b100011110100110 \%
#592
b1101000 F$
b100011110100111 \%
#593
b100011110101000 \%
#594
b1101000 m"
b100011110101001 \%
#595
b100011110101010 \%
#596
b100011110101011 \%
#597
b100011110101100 \%
#598
b1101001 F$
b100011110101101 \%
#599
b1101001 m"
b1101000 F$
b100011110101110 \%
#600
b100011110101111 \%
#601
b1101000 m"
b100011110110000 \%
#602
b100011110110001 \%
#603
b100011110110010 \%
#604
b100011110110011 \%
#605
b100011110110100 \%
#606
b1101001 F$
b100011110110101 \%
#607
b1101001 m"
b1101000 F$
b100011110110110 \%
#608
b100011110110111 \%
#609
b1101000 m"
b100011110111000 \%
#610
b100011110111001 \%
#611
b1101001 F$
b100011110111010 \%
#612
b1101001 m"
b100011110111011 \%
#613
b100011110111100 \%
#614
b100011110111101 \%
#615
b1101000 F$
b100011110111110 \%
#616
b1101001 F$
b100011110111111 \%
#617
b100011111000000 \%
#618
b100011111000001 \%
#619
b100011111000010 \%
#620
b100011111000011 \%
#621
b1101000 F$
b100011111000100 \%
#622
b1101001 F$
b100011111000101 \%
#623
b100011111000110 \%
#624
b1101000 F$
b100011111000111 \%
#625
b100011111001000 \%
#626
b1101000 m"
b1101001 F$
b100011111001001 \%
#627
b1101001 m"
b1101000 F$
b100011111001010 \%
#628
b1101001 F$
b100011111001011 \%
