WaveWidthPhase2constrain/.Xil/Vivado-19404-DESKTOP-G3B5TCR/hw_ila_data_2/zip_work/waveform.vcd
$date
        2019-Dec-30 11:22:20
$end
$version
        Vivado v2017.4 (64-bit)
$end
$timescale
        1ps
$end
$scope module dut $end
$var reg 16 " example_top/MonopulseEx_Arithmetic1/Monopulse_extraction_1/send_count [15:0] $end
$var reg 8 2 example_top/MonopulseExHold [7:0] $end
$var reg 8 : u_ila_1_Monopulse_data_1 [7:0] $end
$var reg 6 B u_ila_1_Period_count [5:0] $end
$var reg 3 H example_top/Arithmetic_State [2:0] $end
$var reg 6 K example_top/Front_area [5:0] $end
$var reg 10 Q Front_area [15:6] $end
$var reg 16 [ example_top/Monopulse_data1 [15:0] $end
$var reg 16 k example_top/Monopulse_num [15:0] $end
$var reg 6 { example_top/Behind_area [5:0] $end
$var reg 10 #" Behind_area [15:6] $end
$var reg 41 -" example_top/Fourth_moment [40:0] $end
$var reg 16 V" example_top/Count [15:0] $end
$var reg 32 f" example_top/feature_num [31:0] $end
$var reg 16 (# example_top/Pulse_point_num [15:0] $end
$var reg 24 8# example_top/Second_moment [23:0] $end
$var reg 33 P# example_top/Third_moment [32:0] $end
$var reg 4 q# example_top/state [3:0] $end
$var reg 16 u# example_top/ii [15:0] $end
$var reg 2 '$ u_ila_1_WaveState [1:0] $end
$var reg 8 )$ example_top/Write_Fifo_datain [7:0] $end
$var reg 16 1$ example_top/Read_Fifo_Out_r [15:0] $end
$var reg 16 A$ example_top/time_cnt [15:0] $end
$var reg 33 Q$ example_top/MonopulseEx_Arithmetic1/Arithmetic1/Cube_data [32:0] $end
$var reg 8 r$ example_top/MonopulseEx_Arithmetic1/Arithmetic1/Monopulse_data_vi [7:0] $end
$var reg 41 z$ example_top/MonopulseEx_Arithmetic1/Arithmetic1/Biquadrate_data [40:0] $end
$var reg 21 E% u_ila_1_Square_data [20:0] $end
$var reg 9 Z% example_top/MonopulseEx_Arithmetic1/Arithmetic1/SubtractionMean_data_n [8:0] $end
$var reg 10 c% example_top/MonopulseEx_Arithmetic1/Arithmetic1/SubtractionMean_data2 [9:0] $end
$var reg 1 m% u_ila_1_FeatureExtraction_flag $end
$var reg 1 n% SendIRQ_OBUF $end
$var reg 1 o% example_top/S_FeatureExtraction_flag_reg1 $end
$var reg 1 p% SendOver $end
$var reg 1 q% SendOver1 $end
$var reg 1 r% SendOver_reg1 $end
$var reg 1 s% SendOver_reg2 $end
$var reg 1 t% example_top/SendToArm_begin $end
$var reg 1 u% example_top/SendToArm_Over $end
$var reg 1 v% StartSample $end
$var reg 1 w% StartSample1 $end
$var reg 1 x% StartSample_reg1 $end
$var reg 1 y% StartSample_reg2 $end
$var reg 1 z% example_top/MonopulseEx_Arithmetic1/Monopulse_extraction_1/Threshould_flag $end
$var reg 1 {% _TRIGGER $end
$var reg 1 |% _WINDOW $end
$var reg 1 }% _GAP $end
$upscope $end
$enddefinitions $end
#0
$dumpvars
b1101 "
b110 2
b10000111 :
b101 B
b11 H
b101100 K
b11 Q
b10000111 [
b100011 k
b1000 {
b11 #"
b1100101100100010011010101000 -"
b0 V"
b110110 f"
b1010 (#
b110111101101100 8#
b1000101110011011100010 P#
b100 q#
b101100 u#
b0 '$
b10001000 )$
b10000111 1$
b0 A$
b111111111111111111111110000011000 Q$
b0 r$
b10011100010000 z$
b1100100 E%
b111110110 Z%
b1010 c%
0m%
0n%
0o%
1p%
0q%
1r%
1s%
0t%
1u%
0v%
0w%
0x%
0y%
0z%
0{%
1|%
0}%
$end
#3
b10001010 1$
#4
b10001010 :
b10000111 1$
#5
b10000111 :
b10000000 )$
#6
b10000111 )$
#7
b10001001 )$
#8
b10000010 )$
#9
b10000111 )$
#10
b10000110 1$
#11
b10000110 :
b10000111 1$
#12
b10000111 :
#22
b10000110 )$
#23
b10000111 )$
#57
b10001010 1$
#58
b10001010 :
b10000111 1$
#59
b10000111 :
#68
b10000110 )$
#69
b10000111 )$
#70
b10000110 )$
#71
b10000111 )$
#81
b10000110 1$
#82
b10000110 :
b10000111 1$
#83
b10000111 :
b10000110 1$
#84
b10000110 :
b10000111 1$
#85
b10000111 :
b10000110 1$
#86
b10000110 :
#88
b10000111 1$
#89
b10000111 :
b10000110 1$
#90
b10000110 :
b10000111 1$
#91
b10000111 :
#110
b10000110 )$
#111
b10000111 )$
#114
b10000110 )$
#115
b10000111 )$
#127
b10000110 )$
#128
b10000111 )$
#134
b10000110 )$
#135
b10000111 )$
b10000110 1$
#136
b10000110 :
b10000111 1$
#137
b10000111 :
#145
b10000110 )$
#146
b10000111 )$
#147
b10000110 )$
#148
b10000111 )$
#156
b10000110 1$
#157
b10000110 :
b10000111 1$
#158
b10000111 :
#159
b10000110 1$
#160
b10000110 :
b10000111 1$
#161
b10000111 :
b10000110 1$
#162
b10000110 :
b10000111 1$
#163
b10000111 :
#175
b10001001 )$
#176
b10001000 )$
#177
b10000111 )$
#178
b10000010 )$
#179
b10000111 )$
#188
b10000110 )$
#189
b10000111 )$
#190
b10000110 )$
#191
b10000111 )$
#193
b10000110 )$
#194
b10000111 )$
#206
b10000110 )$
#207
b10000111 )$
#209
b10000110 )$
#210
b10000111 )$
#211
b10001010 1$
#212
b10001010 :
b10000110 1$
#213
b10000110 :
#215
b10000110 )$
#216
b10000111 )$
b10000111 1$
#217
b10000111 :
#225
b10000110 )$
#226
b10000111 )$
#227
b10000110 )$
#229
b10000111 )$
#230
b10000110 )$
#231
b10000111 )$
#233
b10000110 )$
#234
b10000111 )$
#235
b10000110 )$
#236
b10000111 )$
#241
b10000110 )$
#242
b10000111 )$
#243
b10000110 )$
#245
b10000111 )$
#249
b10000110 )$
#250
b10000111 )$
#257
b10000110 )$
#258
b10000111 )$
#263
b10000110 )$
#264
b10000111 )$
#281
b10000110 )$
#282
b10000111 )$
#283
b10000110 )$
b10000110 1$
#284
b10000110 :
b10000111 1$
#285
b10000111 :
b10000111 )$
b10000110 1$
#286
b10000110 :
b10000110 )$
b10000111 1$
#287
b10000111 :
b10000111 )$
#292
b10000110 1$
#293
b10000110 :
b10000111 1$
#294
b10000111 :
#326
b10000100 )$
#327
b10000111 )$
#337
b10000110 )$
#338
b10000111 )$
#341
b10000110 )$
#342
b10000111 )$
#343
b10000110 )$
#344
b10000111 )$
#345
b10000110 )$
#346
b10000111 )$
#359
b10000110 )$
#360
b10000111 )$
b10000110 1$
#361
b10000110 :
b10000111 1$
#362
b10000111 :
#379
b10000110 )$
#381
b10000111 )$
#382
b10000110 )$
#383
b10000111 )$
#384
b10000110 )$
#386
b10000111 )$
#387
b10000110 )$
#388
b10000111 )$
#390
b10000110 )$
#391
b10000111 )$
#401
b10000110 )$
#402
b10000111 )$
#404
b10000110 )$
b10000110 1$
#405
b10000110 :
b10000111 )$
b10000111 1$
#406
b10000111 :
b10000110 )$
#407
b10000111 )$
#419
b10001000 1$
#420
b10001000 :
b10001010 )$
b10000111 1$
#421
b10000111 :
b10000111 )$
#427
b10000110 )$
#429
b10000111 )$
#437
b10000110 1$
#438
b10000110 :
b10000111 1$
#439
b10000111 :
b10000110 1$
#440
b10000110 :
b10000111 1$
#441
b10000111 :
#442
b10010011 1$
#443
b10010011 :
b10000111 1$
#444
b10000111 :
b11010011 1$
1z%
#445
b11010011 :
b1 '$
b11010000 1$
#446
b1111 "
b1100 (#
b11111101 1$
#447
b10000 "
b1101 (#
b10110000 1$
0z%
#448
b10001 "
b1110 (#
b10 '$
b10001101 1$
#449
b10010 "
b1111 (#
b10011101 1$
#450
b10011 "
b10000 (#
b10001000 1$
#451
b10100 "
b10001 (#
b10001011 1$
#452
b10101 "
b10010 (#
b10000110 )$
b10000010 1$
#453
b10110 "
b10011 (#
b10000111 1$
#454
b10111 "
b10100 (#
#455
b11000 "
b10101 (#
b10000111 )$
#456
b11001 "
b10110 (#
b10001001 1$
#457
b11010 "
b10111 (#
b10000111 1$
#458
b11011 "
b11000 (#
b10000110 1$
#459
b11100 "
b11001 (#
b10000111 1$
#460
b11101 "
b11010 (#
b10000110 1$
#461
b11110 "
b11011 (#
b10000110 )$
b10000111 1$
#462
b11111 "
b11100 (#
b10000111 )$
b10000110 1$
#463
b100000 "
b11101 (#
b10000111 1$
#464
b100001 "
b11110 (#
b10000110 1$
#465
b100010 "
b11111 (#
b10000111 1$
#466
b100011 "
b100000 (#
#467
b100100 "
b100001 (#
b10000110 )$
b10000110 1$
#468
b100101 "
b100010 (#
b10000111 )$
b10000111 1$
#469
b100110 "
b100011 (#
b0 '$
b10000110 1$
1m%
#470
b10 H
b100011 [
b1 V"
#471
b0 K
b0 Q
b0 {
b0 #"
b10 V"
b1 A$
#472
b11 V"
b10 A$
#473
b10000111 [
b100 V"
b11 A$
#474
b10 K
b101 V"
b100 A$
b10 r$
#475
b10 {
b110 V"
b101 A$
#476
b100 {
b111 V"
b110 A$
#477
b10000110 [
b110 {
b1000 V"
b111 A$
#478
b10000111 [
b111 {
b1001 V"
b1000 A$
b1 r$
#479
b10000110 [
b1001 {
b1010 V"
b1001 A$
b10 r$
#480
b10000111 [
b1010 {
b1011 V"
b1010 A$
b1 r$
#481
b1100 {
b1100 V"
b1011 A$
b10 r$
#482
b10010011 [
b1110 {
b1101 V"
b1100 A$
#483
b11110 K
b11010011 [
b0 {
b1110 V"
b1101 A$
b1110 r$
#484
b101100 K
b1 Q
b11010000 [
b1111 V"
b1110 A$
b1001110 r$
#485
b11111101 [
b1011 {
b1 #"
b10000 V"
b1111 A$
b1001011 r$
#486
b101111 K
b100 Q
b10110000 [
b0 {
b0 #"
b10001 V"
b10000 A$
b1111000 r$
#487
b10001101 [
b101011 {
b10010 V"
b10001 A$
b101011 r$
#488
b10011101 [
b110011 {
b10011 V"
b10010 A$
b1000 r$
#489
b10001000 [
b1011 {
b1 #"
b10100 V"
b10000110 )$
b10011 A$
b11000 r$
#490
b10001011 [
b1110 {
b10101 V"
b10000111 )$
b10100 A$
b11 r$
#491
b10000010 [
b10100 {
b10110 V"
b10000110 )$
b10101 A$
b110 r$
#492
b10000111 [
b10111 {
b10111 V"
b10000111 )$
b10110 A$
b11 r$
#493
b11001 {
b11000 V"
b10111 A$
b10 r$
#494
b11011 {
b11001 V"
b11000 A$
#495
b10001001 [
b11101 {
b11010 V"
b11001 A$
#496
b10000111 [
b100001 {
b11011 V"
b11010 A$
b100 r$
#497
b10000110 [
b100011 {
b11100 V"
b11011 A$
b10 r$
#498
b10000111 [
b100100 {
b11101 V"
b11100 A$
b1 r$
#499
b10000110 [
b100110 {
b11110 V"
b11101 A$
b10 r$
#500
b10000111 [
b100111 {
b11111 V"
b11110 A$
b1 r$
#501
b10000110 [
b101001 {
b100000 V"
b11111 A$
b10 r$
#502
b10000111 [
b101010 {
b100001 V"
b100000 A$
b1 r$
#503
b10000110 [
b101100 {
b100010 V"
b100001 A$
b10 r$
#504
b10000111 [
b101101 {
b100011 V"
b100010 A$
b1 r$
#505
b101111 {
b100100 V"
b10000110 )$
b100011 A$
b10 r$
#506
b10000110 [
b110001 {
b100101 V"
b10000111 )$
b100100 A$
#507
b10000111 [
b110010 {
b100110 V"
b10000110 )$
b100101 A$
b1 r$
#508
b110 H
b110100 {
b100111 V"
b100110 A$
b10 r$
#509
b10000111 )$
b0 A$
#510
b111 H
b0 r$
#511
b1 A$
#512
b101 H
1{%
#513
b0 -"
b0 8#
b0 P#
b0 u#
b0 A$
b0 Q$
b0 z$
b0 E%
b0 Z%
b0 c%
#514
b100 H
b1 A$
#515
b1 u#
b10 A$
b111110110 Z%
#516
b10 u#
b11 A$
#517
b11 u#
b100 A$
b10 r$
b1100100 E%
b1010 c%
#518
b1100100 8#
b100 u#
b101 A$
b10011100010000 z$
#519
b10011100010000 -"
b11001000 8#
b101 u#
b110 A$
b111111111111111111111110000011000 Q$
b111110101 Z%
#520
b100111000100000 -"
b100101100 8#
b111111111111111111111110000011000 P#
b110 u#
b111 A$
b111110110 Z%
#521
b111010100110000 -"
b110010000 8#
b111111111111111111111100000110000 P#
b111 u#
b1000 A$
b1 r$
b1111001 E%
b111110101 Z%
b1011 c%
#522
b1001110001000000 -"
b1000001001 8#
b111111111111111111111010001001000 P#
b1000 u#
b10000110 )$
b1001 A$
b10 r$
b11100100110001 z$
b1100100 E%
b111110110 Z%
b1010 c%
#523
b1101010101110001 -"
b1001101101 8#
b111111111111111111111000001100000 P#
b1001 u#
b10000111 )$
b1010 A$
b111111111111111111111101011001101 Q$
b1 r$
b10011100010000 z$
b1111001 E%
b1011 c%
#524
b1111110010000001 -"
b1011100110 8#
b111111111111111111110101100101101 P#
b1010 u#
b1011 A$
b111111111111111111111110000011000 Q$
b10 r$
b11100100110001 z$
b1100100 E%
b10 Z%
b1010 c%
#525
b10011010110110010 -"
b1101001010 8#
b111111111111111111110011101000101 P#
b1011 u#
b1100 A$
b111111111111111111111101011001101 Q$
b10011100010000 z$
b1000010 Z%
#526
b10101110011000010 -"
b1110101110 8#
b111111111111111111110001000010010 P#
b1100 u#
b10000110 )$
b1101 A$
b111111111111111111111110000011000 Q$
b1110 r$
b100 E%
b111111 Z%
b10 c%
#527
b11000001111010010 -"
b1110110010 8#
b111111111111111111101111000101010 P#
b1101 u#
b10000111 )$
b1110 A$
b1001110 r$
b10000 z$
b1000100000100 E%
b1101100 Z%
b1000010 c%
#528
b11000001111100010 -"
b1010010110110 8#
b111111111111111111101101001000010 P#
b1110 u#
b1111 A$
b1000 Q$
b1001011 r$
b1001000011000100000010000 z$
b111110000001 E%
b11111 Z%
b111111 c%
#529
b1001000110000101111110010 -"
b10010000110111 8#
b111111111111111111101101001001010 P#
b1111 u#
b10000 A$
b1000110001100001000 Q$
b1111000 r$
b111100000101111100000001 z$
b10110110010000 E%
b111111100 Z%
b1101100 c%
#530
b10000100110110101011110011 -"
b101000111000111 8#
b1000011110101010010 P#
b10000 u#
b10001 A$
b111101000010111111 Q$
b101011 r$
b1000000110111111000100000000 z$
b1111000001 E%
b1100 Z%
b11111 c%
#531
b1010001011110101101111110011 -"
b101010110001000 8#
b10000000111000010001 P#
b10001 u#
b10010 A$
b100110011100011000000 Q$
b1000 r$
b11100001011110000001 z$
b10000 E%
b111110111 Z%
b100 c%
#532
b1010001111010111001101110100 -"
b101010110011000 8#
b110110100011011010001 P#
b10010 u#
b10011 A$
b111010001011111 Q$
b11000 r$
b100000000 z$
b10010000 E%
b111111010 Z%
b1100 c%
#533
b1010001111010111010001110100 -"
b101011000101000 8#
b110111011101100110000 P#
b10011 u#
b10100 A$
b111111111111111111111111111000000 Q$
b11 r$
b101000100000000 z$
b1010001 E%
b111110111 Z%
b1001 c%
#534
b1010001111011100010101110100 -"
b101011001111001 8#
b110111011101011110000 P#
b10100 u#
b10101 A$
b11011000000 Q$
b110 r$
b1100110100001 z$
b100100 E%
b111110110 Z%
b110 c%
#535
b1010001111011101111100010101 -"
b101011010011101 8#
b110111100000110110000 P#
b10101 u#
b10110 A$
b111111111111111111111110100100111 Q$
b11 r$
b10100010000 z$
b1010001 E%
b1001 c%
#536
b1010001111011110010000100101 -"
b101011011101110 8#
b110111011111011010111 P#
b10110 u#
b10111 A$
b111111111111111111111111100101000 Q$
b10 r$
b1100110100001 z$
b1100100 E%
b1010 c%
#537
b1010001111011111110111000110 -"
b101011101010010 8#
b110111011110111111111 P#
b10111 u#
b11000 A$
b111111111111111111111110100100111 Q$
b10011100010000 z$
b111111000 Z%
#538
b1010001111100010010011010110 -"
b101011110110110 8#
b110111011101100100110 P#
b11000 u#
b11001 A$
b111111111111111111111110000011000 Q$
b111110110 Z%
#539
b1010001111100100101111100110 -"
b101100000011010 8#
b110111011011100111110 P#
b11001 u#
b11010 A$
b100 r$
b1000000 E%
b111110101 Z%
b1000 c%
#540
b1010001111100111001011110110 -"
b101100001011010 8#
b110111011001101010110 P#
b11010 u#
b11011 A$
b10 r$
b1000000000000 z$
b1100100 E%
b111110110 Z%
b1010 c%
#541
b1010001111101000001011110110 -"
b101100010111110 8#
b110111010111101101110 P#
b11011 u#
b11100 A$
b111111111111111111111111000000000 Q$
b1 r$
b10011100010000 z$
b1111001 E%
b111110101 Z%
b1011 c%
#542
b1010001111101010101000000110 -"
b101100100110111 8#
b110111010110101101110 P#
b11100 u#
b11101 A$
b111111111111111111111110000011000 Q$
b10 r$
b11100100110001 z$
b1100100 E%
b111110110 Z%
b1010 c%
#543
b1010001111101110001100110111 -"
b101100110011011 8#
b110111010100110000110 P#
b11101 u#
b11110 A$
b111111111111111111111101011001101 Q$
b1 r$
b10011100010000 z$
b1111001 E%
b111110101 Z%
b1011 c%
#544
b1010001111110000101001000111 -"
b101101000010100 8#
b110111010010001010011 P#
b11110 u#
b10000110 )$
b11111 A$
b111111111111111111111110000011000 Q$
b10 r$
b11100100110001 z$
b1100100 E%
b111110110 Z%
b1010 c%
#545
b1010001111110100001101111000 -"
b101101001111000 8#
b110111010000001101011 P#
b11111 u#
b10000111 )$
b100000 A$
b111111111111111111111101011001101 Q$
b1 r$
b10011100010000 z$
b1111001 E%
b111110101 Z%
b1011 c%
#546
b1010001111110110101010001000 -"
b101101011110001 8#
b110111001101100111000 P#
b100000 u#
b100001 A$
b111111111111111111111110000011000 Q$
b10 r$
b11100100110001 z$
b1100100 E%
b111110110 Z%
b1010 c%
#547
b1010001111111010001110111001 -"
b101101101010101 8#
b110111001011101010000 P#
b100001 u#
b100010 A$
b111111111111111111111101011001101 Q$
b1 r$
b10011100010000 z$
b1111001 E%
b1011 c%
#548
b1010001111111100101011001001 -"
b101101111001110 8#
b110111001001000011101 P#
b100010 u#
b100011 A$
b111111111111111111111110000011000 Q$
b10 r$
b11100100110001 z$
b1100100 E%
b111110101 Z%
b1010 c%
#549
b1010010000000000001111111010 -"
b101110000110010 8#
b110111000111000110101 P#
b100011 u#
b100100 A$
b111111111111111111111101011001101 Q$
b10011100010000 z$
b111110110 Z%
#550
b1010010000000010101100001010 -"
b101110010010110 8#
b110111000100100000010 P#
b100100 u#
b100101 A$
b111111111111111111111110000011000 Q$
b1 r$
b1111001 E%
b1011 c%
#551
b1010010000000101001000011010 -"
b101110100001111 8#
b110111000010100011010 P#
b100101 u#
b100110 A$
b10 r$
b11100100110001 z$
b1100100 E%
b1010 c%
#552
b1010010000001000101101001011 -"
b101110101110011 8#
b110111000000100110010 P#
b100110 u#
b100111 A$
b111111111111111111111101011001101 Q$
b10011100010000 z$
#553
b1010010000001011001001011011 -"
b110110111101111111111 P#
b100111 u#
b10000110 )$
b101000 A$
b111111111111111111111110000011000 Q$
b1 r$
#554
b110110111100000010111 P#
b101000 u#
b10000111 )$
b101001 A$
b10 r$
#555
b101001 u#
b101010 A$
#556
b101010 u#
b101011 A$
#557
b0 H
b101011 u#
b101100 A$
1n%
#558
b1 H
b110111 f"
b101100 u#
b0 A$
b0 r$
0m%
1o%
0p%
1t%
0u%
#559
b11 H
b0 V"
b111000 f"
0n%
#560
0o%
#572
b10000110 )$
#573
b10000111 )$
#574
b10000110 )$
#575
b10000111 )$
#582
0t%
1u%
#591
b10000110 )$
#592
b10000111 )$
#593
b10000110 )$
#594
b10000111 )$
#595
b10000110 )$
#596
b10000111 )$
#600
b10000110 )$
#601
b10000111 )$
#695
b10000110 )$
#697
b10000111 )$
#719
b10000110 )$
#720
b10000111 )$
#728
b10001111 )$
#729
b10000111 )$
#730
b10000110 )$
#731
b10000111 )$
#733
b10000110 )$
#734
b10000111 )$
#753
b10000110 )$
#754
b10000111 )$
#755
b10000110 )$
#757
b10000111 )$
#761
b10000110 )$
#762
b10000111 )$
#763
b10000110 )$
#764
b10000111 )$
#773
b10001001 )$
#774
b10000111 )$
#775
b10000010 )$
#776
b10000111 )$
#799
b10000110 )$
#800
b10000111 )$
#803
b10001000 )$
#804
b10000111 )$
#806
b10000110 )$
#808
b10000111 )$
#811
b10000110 )$
#813
b10000010 )$
#814
b10000110 )$
#815
b10000111 )$
#837
b10000110 )$
#838
b10000111 )$
#855
b10001000 )$
#856
b10000010 )$
#857
b10000111 )$
#874
b10000110 )$
0r%
#875
b10000111 )$
#876
0s%
#883
b10000110 )$
#884
b10000111 )$
#887
b10000110 )$
#888
b10000111 )$
#905
b10000110 )$
#906
b10000111 )$
#936
b10000110 )$
#937
b10000111 )$
#952
b10000110 )$
#953
b10000111 )$
#975
b10001001 )$
#976
b10000010 )$
#977
b10000111 )$
#1018
b10000110 )$
#1019
b10000111 )$
