WaveWidthPhase2constrain/.Xil/Vivado-153088-DESKTOP-G3B5TCR/hw_ila_data_2/zip_work/waveform.vcd
$date
        2019-Nov-28 16:42:25
$end
$version
        Vivado v2017.4 (64-bit)
$end
$timescale
        1ps
$end
$scope module dut $end
$var reg 32 " example_top/CountRead_tem [31:0] $end
$var reg 32 B example_top/CountWrite_tem [31:0] $end
$var reg 4 b example_top/state [3:0] $end
$var reg 4 f example_top/state1 [3:0] $end
$var reg 8 j example_top/Read_Fifo_wusdw_o [7:0] $end
$var reg 128 r example_top/Write_Fifo_Out [127:0] $end
$var reg 29 6# example_top/app_addr_begin [28:0] $end
$var reg 8 S# example_top/Write_Fifo_datain [7:0] $end
$var reg 8 [# example_top/Write_Fifo_rusdw_o [7:0] $end
$var reg 128 c# example_top/app_wdf_data [127:0] $end
$var reg 11 '% example_top/Read_Fifo_rusdw_o [10:0] $end
$var reg 128 2% example_top/app_rd_data [127:0] $end
$var reg 29 T& example_top/app_addr [28:0] $end
$var reg 128 q& example_top/ddr3_wr_data [127:0] $end
$var reg 1 5( example_top/app_rd_data_valid $end
$var reg 1 6( u_ila_0_app_rdy $end
$var reg 1 7( example_top/ddr3_allwr_flag $end
$var reg 1 8( example_top/ddr3_oneperiod_flag $end
$var reg 1 9( example_top/ddr3_onewr_flag $end
$var reg 1 :( example_top/ddr3read_en $end
$var reg 1 ;( example_top/ddr3write_en $end
$var reg 1 <( example_top/OnePeriod_flag $end
$var reg 1 =( example_top/Period_flag $end
$var reg 1 >( example_top/ProsessIn $end
$var reg 1 ?( example_top/ProsessIn1 $end
$var reg 1 @( example_top/Read_Fifo_empty $end
$var reg 1 A( example_top/Read_Fifo_full $end
$var reg 1 B( example_top/Read_Fifo_in_en1 $end
$var reg 1 C( example_top/Read_Fifo_rden $end
$var reg 1 D( example_top/Read_Fifo_rst $end
$var reg 1 E( example_top/Read_Fifo_wren $end
$var reg 1 F( example_top/Read_Over_flag $end
$var reg 1 G( example_top/StartSample1 $end
$var reg 1 H( example_top/Write_Fifo_empty $end
$var reg 1 I( example_top/Write_Fifo_full $end
$var reg 1 J( example_top/WriteSign $end
$var reg 1 K( _TRIGGER $end
$var reg 1 L( _WINDOW $end
$var reg 1 M( _GAP $end
$upscope $end
$enddefinitions $end
#0
$dumpvars
b0 "
b0 B
b0 b
b0 f
b0 j
b0 r
b0 6#
b1101000 S#
b0 [#
b0 c#
b0 '%
b0 2%
b0 T&
b0 q&
05(
16(
07(
08(
09(
0:(
0;(
0<(
0=(
0>(
0?(
1@(
0A(
0B(
0C(
0D(
0E(
0F(
0G(
1H(
0I(
0J(
0K(
1L(
0M(
$end
#1
b1101001 S#
#2
b1101000 S#
#4
b1101001 S#
#5
06(
#7
16(
#9
b1101000 S#
#10
b1101001 S#
#15
b1101000 S#
#19
b1101001 S#
#20
b1101000 S#
#21
b1101001 S#
#23
b1101000 S#
#24
b1101001 S#
#26
b1101000 S#
#27
b1101001 S#
#29
b1101000 S#
#31
b1101001 S#
#33
b1101000 S#
#34
b1101001 S#
#51
b1101000 S#
#52
b1101001 S#
#54
b1101000 S#
#55
b1101001 S#
#57
b1101000 S#
#58
b1101001 S#
#61
b1101000 S#
#62
b1101001 S#
#63
b1101000 S#
#65
b1101001 S#
#68
b1101000 S#
#69
b1101001 S#
#76
b1101000 S#
#77
b1101001 S#
#78
b1101000 S#
#79
b1101001 S#
#80
b1101000 S#
#83
b1101001 S#
#84
b1101000 S#
#85
b1101001 S#
#86
b1101000 S#
#87
b1101001 S#
#93
b1101000 S#
#94
b1101001 S#
#95
b1101000 S#
#97
b1101001 S#
#98
b1101000 S#
#99
b1101001 S#
#105
b1101000 S#
06(
#106
b1101001 S#
#107
16(
#112
b1101000 S#
#114
b1101001 S#
#119
b1101000 S#
#120
b1101001 S#
#128
b1101000 S#
#129
b1101001 S#
#131
b1101000 S#
#132
b1101001 S#
#135
b1101000 S#
#136
b1101001 S#
#138
b1101000 S#
#139
b1101001 S#
#150
b1101000 S#
#151
b1101001 S#
#156
b1101000 S#
#157
b1101001 S#
#159
b1101000 S#
#161
b1101001 S#
#178
b1101000 S#
#180
b1101001 S#
#184
b1101000 S#
#185
b1101010 S#
#187
b1101001 S#
#193
b1101000 S#
#194
b1101001 S#
#195
b1101000 S#
#197
b1101001 S#
#205
06(
#207
16(
#212
b1101000 S#
#213
b1101001 S#
#222
b1101000 S#
#223
b1101001 S#
#229
b1101010 S#
#230
b1101001 S#
#237
b1101000 S#
#238
b1101001 S#
#243
b1101000 S#
#245
b1101001 S#
#258
b1101000 S#
#259
b1101001 S#
#267
b1101000 S#
#268
b1101001 S#
#270
b1101000 S#
#271
b1101001 S#
#276
b1101010 S#
#277
b1101011 S#
#278
b1101010 S#
#279
b1101001 S#
#280
b1101000 S#
#281
b1101001 S#
#285
b1101000 S#
#286
b1101001 S#
#288
b1101010 S#
#289
b1101001 S#
#290
b1101010 S#
#291
b1101001 S#
#297
b1101011 S#
#299
b1101100 S#
#301
b1101101 S#
#302
b1101110 S#
#303
b1101011 S#
#304
b1101010 S#
#305
b1101001 S#
06(
#306
b1101010 S#
#307
b1101001 S#
16(
#310
b1101000 S#
#311
b1101001 S#
#313
b1101010 S#
#314
b1101011 S#
#315
b1101100 S#
#316
b1101011 S#
#317
b1101010 S#
#321
b1101001 S#
#322
b1101010 S#
#323
b1101001 S#
#325
b1101000 S#
#326
b1101001 S#
#335
b1101000 S#
#336
b1101001 S#
#337
b1101000 S#
#338
b1101001 S#
#340
b1101000 S#
#341
b1101001 S#
#344
b1101000 S#
#345
b1101001 S#
#346
b1101000 S#
#347
b1101001 S#
#358
b1101010 S#
#359
b1101001 S#
#372
b1101000 S#
#373
b1101001 S#
#382
b1101000 S#
#384
b1101001 S#
#392
b1101000 S#
#393
b1101001 S#
#394
b1101000 S#
#395
b1101001 S#
#396
b1101000 S#
#398
b1101001 S#
#405
06(
#407
16(
#415
b1101000 S#
#416
b1101001 S#
#420
b1101000 S#
#421
b1101001 S#
#423
b1101000 S#
#425
b1101001 S#
#426
b1101010 S#
#429
b1101001 S#
#435
b1101000 S#
#437
b1101001 S#
#438
b1101000 S#
#439
b1101001 S#
#441
b1101000 S#
#442
b1101001 S#
#444
b1101010 S#
#445
b1101001 S#
#450
b1101000 S#
#452
b1101001 S#
#454
b1101000 S#
#455
b1101001 S#
#456
b1101000 S#
#457
b1101001 S#
#458
b1101000 S#
#459
b1101001 S#
#468
b1101000 S#
#469
b1101001 S#
#472
b1101000 S#
#473
b1101001 S#
#481
b1101000 S#
#483
b1101001 S#
#485
b1101000 S#
#486
b1101001 S#
#487
b1101000 S#
#488
b1101001 S#
#492
b1101010 S#
#493
b1101001 S#
#496
b1101000 S#
#497
b1101001 S#
#505
b1101010 S#
06(
#506
b1101001 S#
#507
16(
#510
b1101000 S#
#511
b1101001 S#
#512
1K(
#523
b1101000 S#
#524
b1101001 S#
#525
b1101000 S#
#526
b1101001 S#
#527
b1101000 S#
#528
b1101001 S#
#529
b1101000 S#
#532
b1101001 S#
#535
b1101000 S#
#537
b1101001 S#
#538
b1101000 S#
#539
b1101001 S#
#553
b1101000 S#
#554
b1101001 S#
#556
b1101000 S#
#557
b1101001 S#
#560
b1101000 S#
#561
b1101001 S#
#563
b1101000 S#
#565
b1101001 S#
#568
b1101000 S#
#569
b1101001 S#
#572
b1101010 S#
#573
b1101001 S#
#576
b1101010 S#
#578
b1101011 S#
#580
b1101010 S#
#581
b1101001 S#
#584
b1101000 S#
#587
b1101001 S#
#588
b1101000 S#
#589
b1101001 S#
#593
b1101000 S#
#594
b1101001 S#
#599
b1101000 S#
#601
b1101001 S#
#604
b1101000 S#
#605
06(
#607
b1101001 S#
16(
#614
b1101000 S#
#615
b1101001 S#
#616
b1101000 S#
#617
b1101001 S#
#625
b1101000 S#
#626
b1101001 S#
#629
b1101000 S#
#630
b1101001 S#
#633
b1101000 S#
#634
b1101001 S#
#639
b1101000 S#
#640
b1101001 S#
#641
b1101000 S#
#642
b1101001 S#
#648
b1101000 S#
#651
b1101001 S#
#652
b1101000 S#
#654
b1101001 S#
#660
b1101000 S#
#661
b1101001 S#
#668
b1101000 S#
#669
b1101001 S#
#675
b1101010 S#
#676
b1101001 S#
#680
b1101000 S#
#681
b1101001 S#
#683
b1101000 S#
#684
b1101001 S#
#685
b1101000 S#
#686
b1101001 S#
#688
b1101000 S#
#690
b1101001 S#
#692
b1101000 S#
#694
b1101001 S#
#696
b1101000 S#
#698
b1101001 S#
#703
b1101000 S#
#705
06(
#706
b1101001 S#
#707
16(
#708
b1101000 S#
#710
b1101001 S#
#711
b1101000 S#
#713
b1101001 S#
#723
b1101010 S#
#724
b1101001 S#
#728
b1101000 S#
#732
b1101001 S#
#735
b1101010 S#
#736
b1101001 S#
#737
b1101010 S#
#738
b1101001 S#
#739
b1101010 S#
#742
b1101011 S#
#743
b1101110 S#
#745
b1101101 S#
#746
b1101011 S#
#747
b1101001 S#
#749
b1101010 S#
#750
b1101001 S#
#758
b1101000 S#
#759
b1101001 S#
#762
b1101000 S#
#764
b1101001 S#
#765
b1101000 S#
#767
b1101001 S#
#768
b1101000 S#
#770
b1101001 S#
#771
b1101000 S#
#773
b1101001 S#
#782
b1101010 S#
#783
b1101001 S#
#786
b1101010 S#
#788
b1101001 S#
#792
b1101000 S#
#793
b1101001 S#
#795
b1101000 S#
#797
b1101001 S#
#801
b1101000 S#
#802
b1101001 S#
#805
06(
#806
b1101000 S#
#807
b1101001 S#
16(
#808
b1101000 S#
#809
b1101001 S#
#812
b1101010 S#
#813
b1101100 S#
#814
b1101110 S#
#815
b1110010 S#
#817
b1110000 S#
#818
b1101110 S#
#819
b1101011 S#
#820
b1101010 S#
#821
b1101001 S#
#822
b1101000 S#
#823
b1101001 S#
#826
b1101000 S#
#827
b1101001 S#
#829
b1101000 S#
#830
b1101001 S#
#831
b1101000 S#
#832
b1101001 S#
#834
b1101010 S#
#835
b1101001 S#
#845
b1101000 S#
#846
b1101001 S#
#849
b1101010 S#
#851
b1101100 S#
#852
b1101101 S#
#854
b1101100 S#
#855
b1101010 S#
#857
b1101001 S#
#862
b1101000 S#
#864
b1101001 S#
#865
b1101000 S#
#866
b1101001 S#
#869
b1101000 S#
#870
b1101001 S#
#872
b1101000 S#
#873
b1101001 S#
#880
b1101000 S#
#881
b1101001 S#
#885
b1101000 S#
#886
b1101001 S#
#890
b1101000 S#
#891
b1101001 S#
#896
b1101010 S#
#897
b1101011 S#
#898
b1101101 S#
#899
b1110000 S#
#902
b1101110 S#
#903
b1101100 S#
#904
b1101011 S#
#905
06(
#906
b1101010 S#
#907
b1101001 S#
16(
#919
b1101000 S#
#920
b1101001 S#
#921
b1101000 S#
#922
b1101001 S#
#924
b1101000 S#
#925
b1101001 S#
#929
b1101000 S#
#930
b1101001 S#
#935
b1101000 S#
#936
b1101001 S#
#937
b1101000 S#
#938
b1101001 S#
#947
b1101000 S#
#948
b1101001 S#
#950
b1101000 S#
#952
b1101001 S#
#954
b1101000 S#
#957
b1101001 S#
#958
b1101000 S#
#959
b1101001 S#
#964
b1101010 S#
#966
b1101001 S#
#967
b1101010 S#
#969
b1101001 S#
#980
b1101010 S#
#981
b1101001 S#
#994
b1101000 S#
#997
b1101001 S#
#1005
06(
#1007
b1101000 S#
16(
#1008
b1101001 S#
#1018
b1101000 S#
#1019
b1101001 S#
#1020
b1101000 S#
#1021
b1101010 S#
#1022
b1101001 S#
