WaveWidthPhase2constrain/.Xil/Vivado-22772-DESKTOP-G3B5TCR/hw_ila_data_2/zip_work/waveform.vcd
$date
        2019-Nov-07 10:49:53
$end
$version
        Vivado v2017.4 (64-bit)
$end
$timescale
        1ps
$end
$scope module dut $end
$var reg 16 " example_top/MonopulseEx_Arithmetic1/Arithmetic1/test_num [15:0] $end
$var reg 3 2 example_top/AD_Count [2:0] $end
$var reg 2 5 example_top/Arithmetic_State [1:0] $end
$var reg 1 7 Period_condition_1 $end
$var reg 32 8 example_top/CountRead_tem [31:0] $end
$var reg 32 X example_top/CountWrite_tem [31:0] $end
$var reg 6 x example_top/Behind_area [5:0] $end
$var reg 10 ~ Behind_area [15:6] $end
$var reg 16 *" example_top/Count [15:0] $end
$var reg 6 :" example_top/Period_condition [5:0] $end
$var reg 10 @" Period_condition_2 [15:6] $end
$var reg 6 J" example_top/Period_count [5:0] $end
$var reg 6 P" example_top/Front_area [5:0] $end
$var reg 10 V" Front_area [15:6] $end
$var reg 6 `" example_top/MonopulsePosition_1 [5:0] $end
$var reg 10 f" MonopulsePosition [15:6] $end
$var reg 16 p" example_top/MonopulsePosition [31:16] $end
$var reg 16 "# example_top/Read_Fifo_Out_r [15:0] $end
$var reg 41 2# example_top/Fourth_moment [40:0] $end
$var reg 8 [# example_top/Mean_value_remainders [7:0] $end
$var reg 8 c# example_top/Monopulse_data_01 [7:0] $end
$var reg 16 k# example_top/Monopulse_num_reg [15:0] $end
$var reg 8 {# example_top/Mean_value [7:0] $end
$var reg 32 %$ example_top/PeriodPoint_num [31:0] $end
$var reg 16 E$ example_top/Pulse_point_num [15:0] $end
$var reg 32 U$ example_top/ReadPosition [31:0] $end
$var reg 11 u$ example_top/Read_Fifo_rusdw_o [10:0] $end
$var reg 8 "% example_top/Read_Fifo_wusdw_o [7:0] $end
$var reg 24 *% example_top/Second_moment [23:0] $end
$var reg 8 B% example_top/SendToArm_Count [7:0] $end
$var reg 1 J% Period_condition_3 $end
$var reg 1 K% Period_condition_4 $end
$var reg 1 L% Period_condition_5 $end
$var reg 1 M% Period_condition_6 $end
$var reg 1 N% Period_condition_7 $end
$var reg 1 O% Period_condition_8 $end
$var reg 1 P% Period_condition_9 $end
$var reg 1 Q% Period_condition_10 $end
$var reg 1 R% Period_condition_11 $end
$var reg 1 S% Period_condition_12 $end
$var reg 1 T% Period_condition_13 $end
$var reg 1 U% Period_condition_14 $end
$var reg 1 V% Period_condition_15 $end
$var reg 1 W% Period_condition_16 $end
$var reg 1 X% Period_condition_17 $end
$var reg 1 Y% Period_condition $end
$var reg 8 Z% example_top/Monopulse_data_1 [7:0] $end
$var reg 16 b% example_top/Read_Fifo_Out [15:0] $end
$var reg 32 r% example_top/SendToArm_Data [31:0] $end
$var reg 21 4& example_top/Square_data [20:0] $end
$var reg 33 I& example_top/Third_moment [32:0] $end
$var reg 16 j& example_top/Total_area [15:0] $end
$var reg 16 z& example_top/Monopulse_data1 [15:0] $end
$var reg 8 ,' example_top/Monopulse_data_00 [7:0] $end
$var reg 16 4' example_top/Monopulse_num [15:0] $end
$var reg 8 D' example_top/Peak_value [7:0] $end
$var reg 128 L' example_top/Write_Fifo_Out [127:0] $end
$var reg 128 n( example_top/app_wdf_data [127:0] $end
$var reg 16 2* example_top/app_rd_data2 [15:0] $end
$var reg 16 B* example_top/app_rd_data7 [15:0] $end
$var reg 16 R* example_top/app_rd_data3 [15:0] $end
$var reg 128 b* example_top/ddr3_wr_data_r [127:0] $end
$var reg 16 &, example_top/app_rd_data5 [15:0] $end
$var reg 29 6, example_top/app_addr [28:0] $end
$var reg 16 S, example_top/time_cnt_n [15:0] $end
$var reg 16 c, example_top/app_rd_data1 [15:0] $end
$var reg 16 s, example_top/time_cnt [15:0] $end
$var reg 29 %- example_top/app_addr_begin [28:0] $end
$var reg 16 B- example_top/app_rd_data4 [15:0] $end
$var reg 16 R- example_top/app_rd_data6 [15:0] $end
$var reg 8 b- example_top/bit_count [7:0] $end
$var reg 8 j- example_top/Write_Fifo_rusdw_o [7:0] $end
$var reg 16 r- example_top/Total_area_reg [15:0] $end
$var reg 2 $. example_top/WaveState [1:0] $end
$var reg 128 &. example_top/ddr3_wr_data [127:0] $end
$var reg 128 H/ example_top/app_rd_data [127:0] $end
$var reg 16 j0 example_top/ii [15:0] $end
$var reg 4 z0 example_top/state [3:0] $end
$var reg 4 ~0 example_top/state1 [3:0] $end
$var reg 16 $1 example_top/app_rd_data8 [15:0] $end
$var reg 8 41 example_top/Write_Fifo_datain [7:0] $end
$var reg 1 <1 example_top/app_rd_data_valid $end
$var reg 1 =1 u_ila_0_app_rdy $end
$var reg 1 >1 u_ila_0_clk $end
$var reg 1 ?1 example_top/ddr3_allwr_flag $end
$var reg 1 @1 example_top/ddr3_flag $end
$var reg 1 A1 example_top/ddr3_oneperiod_flag $end
$var reg 1 B1 example_top/ddr3_onewr_flag $end
$var reg 1 C1 example_top/ddr3read_en $end
$var reg 1 D1 example_top/ddr3write_en $end
$var reg 1 E1 example_top/Extract_en $end
$var reg 1 F1 example_top/FeatureExtraction_flag $end
$var reg 1 G1 u_ila_0_FeatureExtraction_flag_reg_1 $end
$var reg 1 H1 example_top/FeatureExtraction_flag_reg_r $end
$var reg 1 I1 init_calib_complete_OBUF $end
$var reg 1 J1 example_top/OnePeriod_flag $end
$var reg 1 K1 u_ila_0_FeatureExtraction_flag_reg $end
$var reg 1 L1 example_top/Period_flag $end
$var reg 1 M1 example_top/ProsessIn $end
$var reg 1 N1 example_top/ProsessIn1 $end
$var reg 1 O1 example_top/Read_Fifo_empty $end
$var reg 1 P1 example_top/Read_Fifo_full $end
$var reg 1 Q1 example_top/Read_Fifo_in_en1 $end
$var reg 1 R1 example_top/Read_Fifo_rden $end
$var reg 1 S1 example_top/Read_Fifo_rst $end
$var reg 1 T1 example_top/Read_Fifo_wren $end
$var reg 1 U1 example_top/Read_Over_flag $end
$var reg 1 V1 example_top/S_FeatureExtraction_flag_neg $end
$var reg 1 W1 example_top/S_FeatureExtraction_flag_reg1 $end
$var reg 1 X1 example_top/S_FeatureExtraction_flag_reg2 $end
$var reg 1 Y1 example_top/SendToArm_begin $end
$var reg 1 Z1 example_top/SendToArm_Over $end
$var reg 1 [1 example_top/Write_Fifo_empty $end
$var reg 1 \1 example_top/Write_Fifo_full $end
$var reg 1 ]1 example_top/WriteSign $end
$var reg 1 ^1 _TRIGGER $end
$var reg 1 _1 _WINDOW $end
$var reg 1 `1 _GAP $end
$upscope $end
$enddefinitions $end
#0
$dumpvars
b1110010000010 "
b111 2
b0 5
07
b1000111011010010110010101100011 8
b0 X
b100100 x
b0 ~
b0 *"
b110 :"
b0 @"
b1010 J"
b101010 P"
b1110111 V"
b0 `"
b10010100 f"
b11101101001011 p"
b101010 "#
b100111001101010000001011101000001 2#
b101100 [#
b1001111 c#
b110010 k#
b10011010 {#
b0 %$
b110010 E$
b111011010010110010010100000001 U$
b11000010111 u$
b11000100 "%
b1100010110000001001 *%
b0 B%
0J%
0K%
0L%
0M%
0N%
0O%
0P%
0Q%
0R%
0S%
0T%
0U%
0V%
0W%
0X%
0Y%
b1010000 Z%
b10100010 b%
b0 r%
b0 4&
b111111111011000011000011100001101 I&
b1111000001110 j&
b111 z&
b1001110 ,'
b110010 4'
b11111111 D'
b101000010000000010100010000000001010001100000000101001000000000010100101000000001010011000000000101001110000000010101000 L'
b0 n(
b1001110 2*
b1001001 B*
b1001101 R*
b0 b*
b1001011 &,
b11011010010110010101100010000 6,
b0 S,
b1001111 c,
b0 s,
b11011010010110010101100010000 %-
b1001100 B-
b1001010 R-
b1010011 b-
b0 j-
b1111000001110 r-
b1 $.
b0 &.
b10010000000000001001001000000000100101000000000010010110000000001001100000000000100110100000000010011100000000001001111 H/
b0 j0
b100 z0
b0 ~0
b1001000 $1
b1010011 41
1<1
1=1
0>1
1?1
0@1
0A1
0B1
0C1
0D1
1E1
0F1
0G1
0H1
1I1
0J1
0K1
0L1
1M1
0N1
0O1
0P1
1Q1
1R1
0S1
0T1
0U1
0V1
0W1
0X1
0Y1
1Z1
0[1
1\1
0]1
0^1
1_1
0`1
$end
#1
b1110010000100 "
b0 2
b1 `"
b10000001 "#
b110011 E$
b111011010010110010010100000010 U$
b11000010110 u$
b10000001 b%
b1010100 b-
b1010100 41
1>1
#2
b1110010000111 "
b1 2
b10 `"
b10000000 "#
b110100 E$
b111011010010110010010100000011 U$
b11000010101 u$
b10000010 b%
b1010101 b-
b1010101 41
0>1
#3
b10 2
b11 `"
b10000010 "#
b110101 E$
b111011010010110010010100000100 U$
b11000010100 u$
b10000011 b%
b1010110 b-
b1010110 41
1>1
#4
b1110010000000 "
b100 2
b100 `"
b10000110 "#
b110110 E$
b111011010010110010010100000101 U$
b11000010011 u$
b10000110 b%
b1011000 b-
b1010111 41
0>1
#5
b1110010001011 "
b101 2
b101 `"
b10000101 "#
b110111 E$
b111011010010110010010100000110 U$
b11000010010 u$
b11000011 "%
b10000101 b%
b1011001 b-
b1011001 41
1>1
#6
b1110010000011 "
b110 2
b110 `"
b10000100 "#
b111000 E$
b111011010010110010010100000111 U$
b11000010001 u$
b10000110 b%
b1011010 b-
b1011010 41
0>1
#7
b1110010000100 "
b111 2
b111 `"
b10000110 "#
b111001 E$
b111011010010110010010100001000 U$
b11000010000 u$
b10000111 b%
b1011011 b-
b1011011 41
1>1
#8
b1110010000111 "
b1 2
b1000 `"
b10000010 "#
b111010 E$
b111011010010110010010100001001 U$
b11000001111 u$
b10001010 b%
b1011101 b-
b1011101 41
0>1
#9
b10 2
b1001 `"
b10001001 "#
b111011 E$
b111011010010110010010100001010 U$
b11000001110 u$
b10001001 b%
b1011110 b-
b1011110 41
1>1
#10
b1110010000000 "
b11 2
b1010 `"
b10001000 "#
b111100 E$
b111011010010110010010100001011 U$
b11000001101 u$
b10001010 b%
b1011111 b-
b1011111 41
0>1
#11
b1110010000010 "
b100 2
b1011 `"
b10001010 "#
b111101 E$
b111011010010110010010100001100 U$
b11000001100 u$
b10001011 b%
b1100000 b-
b1100000 41
1>1
#12
b1110010000001 "
b110 2
b1100 `"
b10001110 "#
b111110 E$
b111011010010110010010100001101 U$
b11000001011 u$
b10001110 b%
b1100010 b-
b1100001 41
0>1
#13
b1110010000101 "
b111 2
b1101 `"
b10001101 "#
b111111 E$
b111011010010110010010100001110 U$
b11000001010 u$
b11000010 "%
b10001101 b%
b1100011 b-
b1100011 41
1>1
#14
b1110010000110 "
b0 2
b1110 `"
b10001100 "#
b1000000 E$
b111011010010110010010100001111 U$
b11000001001 u$
b10001110 b%
b1100100 b-
b1100100 41
0>1
#15
b1110010001101 "
b1 2
b1111 `"
b10001110 "#
b1000001 E$
b111011010010110010010100010000 U$
b11000001000 u$
b10001111 b%
b1100101 b-
b1100101 41
1>1
#16
b1110010000001 "
b11 2
b10000 `"
b10011010 "#
b1000010 E$
b111011010010110010010100010001 U$
b11000000111 u$
b10010010 b%
b1100111 b-
b1100111 41
0>1
#17
b1110010000010 "
b100 2
b10001 `"
b10010001 "#
b1000011 E$
b111011010010110010010100010010 U$
b11000000110 u$
b10010001 b%
b1101000 b-
b1101000 41
1>1
#18
b1110010000100 "
b101 2
b10010 `"
b10010000 "#
b1000100 E$
b111011010010110010010100010011 U$
b11000000101 u$
b10010010 b%
b1101001 b-
b1101001 41
0>1
#19
b1110010000101 "
b110 2
b10011 `"
b10010010 "#
b1000101 E$
b111011010010110010010100010100 U$
b11000000100 u$
b10010011 b%
b1101010 b-
b1101010 41
1>1
#20
b1110010000110 "
b0 2
b10100 `"
b10010110 "#
b1000110 E$
b111011010010110010010100010101 U$
b11000000011 u$
b10010110 b%
b1101100 b-
b1101011 41
0>1
#21
b1110010000000 "
b1 2
b10101 `"
b10010101 "#
b1000111 E$
b111011010010110010010100010110 U$
b11000000010 u$
b11000001 "%
b10010101 b%
b1101101 b-
b1101101 41
1>1
#22
b1110010000011 "
b10 2
b10110 `"
b10010100 "#
b1001000 E$
b111011010010110010010100010111 U$
b11000000001 u$
b10010110 b%
b1101110 b-
b1101110 41
0>1
#23
b11 2
b10111 `"
b10010110 "#
b1001001 E$
b111011010010110010010100011000 U$
b11000000000 u$
b10010111 b%
b1101111 b-
b1101111 41
1>1
#24
b1110010000100 "
b101 2
b11000 `"
b10010010 "#
b1001010 E$
b111011010010110010010100011001 U$
b10111111111 u$
b10011010 b%
b1110001 b-
b1110001 41
0>1
#25
b1110010000111 "
b110 2
b11001 `"
b10011001 "#
b1001011 E$
b111011010010110010010100011010 U$
b10111111110 u$
b10011001 b%
b1110010 b-
b1110010 41
1>1
#26
b111 2
b11010 `"
b10011000 "#
b1001100 E$
b111011010010110010010100011011 U$
b10111111101 u$
b10011010 b%
b1110011 b-
b1110011 41
0>1
#27
b1110010000000 "
b0 2
b11011 `"
b10011010 "#
b1001101 E$
b111011010010110010010100011100 U$
b10111111100 u$
b10011011 b%
b1110100 b-
b1110100 41
1>1
#28
b1110010000010 "
b10 2
b11100 `"
b10011110 "#
b1001110 E$
b111011010010110010010100011101 U$
b10111111011 u$
b10011110 b%
b1110110 b-
b1110101 41
0>1
#29
b1110010000001 "
b11 2
b11101 `"
b10011101 "#
b1001111 E$
b111011010010110010010100011110 U$
b10111111010 u$
b11000000 "%
b10011101 b%
b1110111 b-
b1110111 41
1>1
#30
b1110010000100 "
b100 2
b11110 `"
b10011100 "#
b1010000 E$
b111011010010110010010100011111 U$
b10111111001 u$
b10011110 b%
b1111000 b-
b1111000 41
0>1
#31
b1110010000110 "
b101 2
b11111 `"
b10011110 "#
b1010001 E$
b111011010010110010010100100000 U$
b10111111000 u$
b10011111 b%
b1111001 b-
b1111001 41
1>1
#32
b1110010001101 "
b111 2
b100000 `"
b10001010 "#
b1010010 E$
b111011010010110010010100100001 U$
b10111110111 u$
b10100010 b%
b1111011 b-
b1111011 41
0>1
#33
b1110010000001 "
b0 2
b100001 `"
b10100001 "#
b1010011 E$
b111011010010110010010100100010 U$
b10111110110 u$
b10100001 b%
b1111100 b-
b1111100 41
1>1
#34
b1110010000010 "
b1 2
b100010 `"
b10100000 "#
b1010100 E$
b111011010010110010010100100011 U$
b10111110101 u$
b10100010 b%
b1111101 b-
b1111101 41
0>1
#35
b1110010000101 "
b10 2
b100011 `"
b10100010 "#
b1010101 E$
b111011010010110010010100100100 U$
b10111110100 u$
b10100011 b%
b1111110 b-
b1111110 41
1>1
#36
b100 2
b100100 `"
b10100110 "#
b1010110 E$
b111011010010110010010100100101 U$
b10111110011 u$
b10100110 b%
b10000000 b-
b10101111 41
0>1
#37
b1110010000110 "
b101 2
b100101 `"
b10100101 "#
b1010111 E$
b111011010010110010010100100110 U$
b10111110010 u$
b10111111 "%
b10100101 b%
b10000001 b-
b10000001 41
1>1
#38
b1110010001000 "
b110 2
b100110 `"
b10100100 "#
b1011000 E$
b111011010010110010010100100111 U$
b10111110001 u$
b10100110 b%
b10000010 b-
b10000010 41
0>1
#39
b1110010000011 "
b111 2
b100111 `"
b10100110 "#
b1011001 E$
b111011010010110010010100101000 U$
b10111110000 u$
b10100111 b%
b10000011 b-
b10000011 41
1>1
#40
b1 2
b101000 `"
b11100010 "#
b1011010 E$
b111011010010110010010100101001 U$
b10111101111 u$
b11101010 b%
b10000101 b-
b10000101 41
0>1
#41
b1110010000100 "
b10 2
b101001 `"
b11001001 "#
b1011011 E$
b111011010010110010010100101010 U$
b10111101110 u$
b11001001 b%
b10000110 b-
b10000110 41
1>1
#42
b1110010000111 "
b11 2
b101010 `"
b11001000 "#
b1011100 E$
b111011010010110010010100101011 U$
b10111101101 u$
b11001010 b%
b10000111 b-
b10000111 41
0>1
#43
b100 2
b101011 `"
b11001010 "#
b1011101 E$
b111011010010110010010100101100 U$
b10111101100 u$
b11001011 b%
b10001000 b-
b10001000 41
1>1
#44
b1110010000000 "
b110 2
b101100 `"
b11001110 "#
b1011110 E$
b111011010010110010010100101101 U$
b10111101011 u$
b11001110 b%
b10001010 b-
b10001001 41
0>1
#45
b1110010000010 "
b111 2
b101101 `"
b11001101 "#
b1011111 E$
b111011010010110010010100101110 U$
b10111101010 u$
b10111110 "%
b11001101 b%
b10001011 b-
b10001011 41
1>1
#46
b1110010000011 "
b0 2
b101110 `"
b11001100 "#
b1100000 E$
b111011010010110010010100101111 U$
b10111101001 u$
b11001110 b%
b10001100 b-
b10001100 41
0>1
#47
b1110010000100 "
b1 2
b101111 `"
b11001110 "#
b1100001 E$
b111011010010110010010100110000 U$
b10111101000 u$
b11001111 b%
b10001101 b-
b10001101 41
1>1
#48
b1110010000110 "
b11 2
b110000 `"
b11001010 "#
b1100010 E$
b111011010010110010010100110001 U$
b10111100111 u$
b11101010 b%
b10001111 b-
b10001111 41
0>1
#49
b1110010001101 "
b100 2
b110001 `"
b11101001 "#
b1100011 E$
b111011010010110010010100110010 U$
b10111100110 u$
b11101001 b%
b10010000 b-
b10010000 41
1>1
#50
b1110010000001 "
b101 2
b110010 `"
b11101000 "#
b1100100 E$
b111011010010110010010100110011 U$
b10111100101 u$
b11101010 b%
b10010001 b-
b10010001 41
0>1
#51
b1110010000010 "
b110 2
b110011 `"
b11101010 "#
b1100101 E$
b111011010010110010010100110100 U$
b10111100100 u$
b11101011 b%
b10010010 b-
b10010010 41
1>1
#52
b1110010000101 "
b0 2
b110100 `"
b11101110 "#
b1100110 E$
b111011010010110010010100110101 U$
b10111100011 u$
b11101110 b%
b10010100 b-
b10010011 41
0>1
#53
b1 2
b110101 `"
b11101101 "#
b1100111 E$
b111011010010110010010100110110 U$
b10111100010 u$
b10111101 "%
b11101101 b%
b10010101 b-
b10010101 41
1>1
#54
b1110010000110 "
b10 2
b110110 `"
b11101100 "#
b1101000 E$
b111011010010110010010100110111 U$
b10111100001 u$
b11101110 b%
b10010110 b-
b10010110 41
0>1
#55
b1110010000000 "
b11 2
b110111 `"
b11101110 "#
b1101001 E$
b111011010010110010010100111000 U$
b10111100000 u$
b11101111 b%
b10010111 b-
b10010111 41
1>1
#56
b1110010000011 "
b101 2
b111000 `"
b11111010 "#
b1101010 E$
b111011010010110010010100111001 U$
b10111011111 u$
b11110010 b%
b10011001 b-
b10011001 41
0>1
#57
b110 2
b111001 `"
b11110001 "#
b1101011 E$
b111011010010110010010100111010 U$
b10111011110 u$
b11110001 b%
b10011010 b-
b10011010 41
1>1
#58
b1110010000100 "
b111 2
b111010 `"
b11110000 "#
b1101100 E$
b111011010010110010010100111011 U$
b10111011101 u$
b11110010 b%
b10011011 b-
b10011011 41
0>1
#59
b1110010000111 "
b0 2
b111011 `"
b11110010 "#
b1101101 E$
b111011010010110010010100111100 U$
b10111011100 u$
b11110011 b%
b10011100 b-
b10011100 41
1>1
#60
b10 2
b111100 `"
b11110110 "#
b1101110 E$
b111011010010110010010100111101 U$
b10111011011 u$
b11110110 b%
b10011110 b-
b10011101 41
0>1
#61
b1110010000000 "
b11 2
b111101 `"
b11110101 "#
b1101111 E$
b111011010010110010010100111110 U$
b10111011010 u$
b10111100 "%
b11110101 b%
b10011111 b-
b10011111 41
1>1
#62
b1110010000011 "
b100 2
b111110 `"
b11110100 "#
b1110000 E$
b111011010010110010010100111111 U$
b10111011001 u$
b11110110 b%
b10100000 b-
b10100000 41
0>1
#63
b101 2
b111111 `"
b11110110 "#
b1110001 E$
b111011010010110010010101000000 U$
b10111011000 u$
b11110111 b%
b10100001 b-
b10100001 41
1>1
#64
b1110010000100 "
b111 2
b0 `"
b10010101 f"
b11110010 "#
b1110010 E$
b111011010010110010010101000001 U$
b10111010111 u$
b11111010 b%
b10100011 b-
b10100011 41
0>1
#65
b1110010000110 "
b0 2
b1 `"
b11111001 "#
b1110011 E$
b111011010010110010010101000010 U$
b10111010110 u$
b11111001 b%
b10100100 b-
b10100100 41
1>1
#66
b1110010000101 "
b1 2
b10 `"
b11111000 "#
b1110100 E$
b111011010010110010010101000011 U$
b10111010101 u$
b11111010 b%
b10100101 b-
b10100101 41
0>1
#67
b1110010000001 "
b10 2
b11 `"
b11111010 "#
b1110101 E$
b111011010010110010010101000100 U$
b10111010100 u$
b11111011 b%
b10100110 b-
b10100110 41
1>1
#68
b1110010000010 "
b100 2
b100 `"
b11111110 "#
b1110110 E$
b111011010010110010010101000101 U$
b10111010011 u$
b11111110 b%
b10101000 b-
b10100111 41
0>1
#69
b1110010000001 "
b101 2
b101 `"
b11111101 "#
b1110111 E$
b111011010010110010010101000110 U$
b10111010010 u$
b10111011 "%
b11111101 b%
b10101001 b-
b10101001 41
1>1
#70
b1110010000101 "
b110 2
b110 `"
b11111100 "#
b1111000 E$
b111011010010110010010101000111 U$
b10111010001 u$
b11111110 b%
b10101010 b-
b10101010 41
0>1
#71
b1110010000110 "
b111 2
b111 `"
b11111110 "#
b1111001 E$
b111011010010110010010101001000 U$
b10111010000 u$
b11111111 b%
b10101011 b-
b10101011 41
1>1
#72
b1110010001000 "
b1 2
b1000 `"
b10101010 "#
b1111010 E$
b111011010010110010010101001001 U$
b10111001111 u$
b10100010 b%
b10101101 b-
b10101101 41
0>1
#73
b1110010000001 "
b10 2
b1001 `"
b1 "#
b1111011 E$
b111011010010110010010101001010 U$
b10111001110 u$
b1 b%
b10101110 b-
b10101110 41
1>1
#74
b1110010000010 "
b11 2
b1010 `"
b0 "#
b1111100 E$
b111011010010110010010101001011 U$
b10111001101 u$
b10 b%
b10101111 b-
b0 $.
b10101111 41
0>1
#75
b1110010000100 "
b100 2
b10 "#
b1010000 c#
b10 E$
b111011010010110010010101001100 U$
b10111001100 u$
b10 Z%
b11 b%
b1001111 ,'
b10110000 b-
b10110000 41
1>1
#76
b1110010000111 "
b110 2
b110 "#
b10 c#
b111011010010110010010101001101 U$
b10111001011 u$
b11 Z%
b110 b%
b1010000 ,'
b10110010 b-
b10110001 41
0>1
#77
b111 2
b101 "#
b11 c#
b111011010010110010010101001110 U$
b10111001010 u$
b10111010 "%
b100 Z%
b101 b%
b10 ,'
b10110011 b-
b10110011 41
1>1
#78
b1110010001000 "
b0 2
b100 "#
b100 c#
b111011010010110010010101001111 U$
b10111001001 u$
b101 Z%
b110 b%
b11 ,'
b10110100 b-
b10110100 41
0>1
#79
b1110010001011 "
b1 2
b110 "#
b101 c#
b111011010010110010010101010000 U$
b10111001000 u$
b110 Z%
b111 b%
b100 ,'
b10110101 b-
b10110101 41
1>1
#80
b1110010000011 "
b11 2
b10 "#
b110 c#
b111011010010110010010101010001 U$
b10111000111 u$
b111 Z%
b1010 b%
b101 ,'
b10110111 b-
b10110111 41
0>1
#81
b1110010000100 "
b100 2
b1001 "#
b111 c#
b111011010010110010010101010010 U$
b10111000110 u$
b1000 Z%
b1001 b%
b110 ,'
b10111000 b-
b10111000 41
1>1
#82
b1110010000110 "
b101 2
b1000 "#
b1000 c#
b111011010010110010010101010011 U$
b10111000101 u$
b1001 Z%
b1010 b%
b111 ,'
b10111001 b-
b10111001 41
0>1
#83
b1110010000101 "
b110 2
b1010 "#
b1001 c#
b111011010010110010010101010100 U$
b10111000100 u$
b1010 Z%
b1011 b%
b1000 ,'
b10111010 b-
b10111010 41
1>1
#84
b1110010001000 "
b0 2
b1110 "#
b1010 c#
b111011010010110010010101010101 U$
b10111000011 u$
b1011 Z%
b1110 b%
b1001 ,'
b10111100 b-
b10111011 41
0>1
#85
b1110010000010 "
b1 2
b1101 "#
b1011 c#
b111011010010110010010101010110 U$
b10111000010 u$
b10111001 "%
b1100 Z%
b1101 b%
b1010 ,'
b10111101 b-
b10111101 41
1>1
#86
b1110010000001 "
b10 2
b1100 "#
b1100 c#
b111011010010110010010101010111 U$
b10111000001 u$
b1101 Z%
b1110 b%
b1011 ,'
b10111110 b-
b10111110 41
0>1
#87
b1110010000101 "
b11 2
b1110 "#
b1101 c#
b111011010010110010010101011000 U$
b10111000000 u$
b1110 Z%
b1111 b%
b1100 ,'
b10111111 b-
b10111111 41
1>1
#88
b1110010000110 "
b101 2
b11010 "#
b1110 c#
b111011010010110010010101011001 U$
b10110111111 u$
b1111 Z%
b10010 b%
b1101 ,'
b11000001 b-
b11000001 41
0>1
#89
b1110010001001 "
b110 2
b10001 "#
b1111 c#
b111011010010110010010101011010 U$
b10110111110 u$
b10000 Z%
b10001 b%
b1110 ,'
b11000010 b-
b11000010 41
1>1
#90
b111 2
b10000 "#
b10000 c#
b111011010010110010010101011011 U$
b10110111101 u$
b10001 Z%
b10010 b%
b1111 ,'
b11000011 b-
b11000011 41
0>1
#91
b1110010000010 "
b0 2
b10010 "#
b10001 c#
b111011010010110010010101011100 U$
b10110111100 u$
b10010 Z%
b10011 b%
b10000 ,'
b11000100 b-
b11000100 41
1>1
#92
b1110010000100 "
b10 2
b10110 "#
b10010 c#
b111011010010110010010101011101 U$
b10110111011 u$
b10011 Z%
b10110 b%
b10001 ,'
b11000110 b-
b11000101 41
0>1
#93
b1110010000111 "
b11 2
b10101 "#
b10011 c#
b111011010010110010010101011110 U$
b10110111010 u$
b10111000 "%
b10100 Z%
b10101 b%
b10010 ,'
b11000111 b-
b11000111 41
1>1
#94
b100 2
b10100 "#
b10100 c#
b111011010010110010010101011111 U$
b10110111001 u$
b10101 Z%
b10110 b%
b10011 ,'
b11001000 b-
b11001000 41
0>1
#95
b1110010001000 "
b101 2
b10110 "#
b10101 c#
b111011010010110010010101100000 U$
b10110111000 u$
b10110 Z%
b10111 b%
b10100 ,'
b11001001 b-
b11001001 41
1>1
#96
b1110010001011 "
b111 2
b10010 "#
b10110 c#
b111011010010110010010101100001 U$
b10110110111 u$
b10111 Z%
b11010 b%
b10101 ,'
b11001011 b-
b11001011 41
0>1
#97
b1110010000011 "
b0 2
b11001 "#
b10111 c#
b111011010010110010010101100010 U$
b10110110110 u$
b11000 Z%
b11001 b%
b10110 ,'
b11001100 b-
b11001100 41
1>1
#98
b1110010000100 "
b1 2
b11000 "#
b11000 c#
b111011010010110010010101100011 U$
b10110110101 u$
b11001 Z%
b11010 b%
b10111 ,'
b11001101 b-
b11001101 41
0>1
#99
b1110010000110 "
b10 2
b11010 "#
b11001 c#
b111011010010110010010101100100 U$
b10110110100 u$
b11010 Z%
b11011 b%
b11000 ,'
b11001110 b-
b11001110 41
1>1
#100
b1110010000111 "
b100 2
b11110 "#
b11010 c#
b111011010010110010010101100101 U$
b10110110011 u$
b11011 Z%
b11110 b%
b11001 ,'
b11010000 b-
b11011111 41
0>1
#101
b1110010001000 "
b101 2
b11101 "#
b11011 c#
b111011010010110010010101100110 U$
b10110110010 u$
b10110111 "%
b11100 Z%
b11101 b%
b11010 ,'
b11010001 b-
b11010001 41
1>1
#102
b1110010001010 "
b110 2
b11100 "#
b11100 c#
b111011010010110010010101100111 U$
b10110110001 u$
b11101 Z%
b11110 b%
b11011 ,'
b11010010 b-
b11010010 41
0>1
#103
b1110010000001 "
b111 2
b11110 "#
b11101 c#
b111011010010110010010101101000 U$
b10110110000 u$
b11110 Z%
b11111 b%
b11100 ,'
b11010011 b-
b11010011 41
1>1
#104
b1110010000101 "
b1 2
b1010 "#
b11110 c#
b111011010010110010010101101001 U$
b10110101111 u$
b11111 Z%
b100010 b%
b11101 ,'
b11010101 b-
b11010101 41
0>1
#105
b1110010000110 "
b10 2
b100001 "#
b11111 c#
b111011010010110010010101101010 U$
b10110101110 u$
b100000 Z%
b100001 b%
b11110 ,'
b11010110 b-
b11010110 41
1>1
#106
b1110010001101 "
b11 2
b100000 "#
b100000 c#
b111011010010110010010101101011 U$
b10110101101 u$
b100001 Z%
b100010 b%
b11111 ,'
b11010111 b-
b11010111 41
0>1
#107
b1110010001001 "
b100 2
b100010 "#
b100001 c#
b111011010010110010010101101100 U$
b10110101100 u$
b100010 Z%
b100011 b%
b100000 ,'
b11011000 b-
b11011000 41
1>1
#108
b1110010000010 "
b110 2
b100110 "#
b100010 c#
b111011010010110010010101101101 U$
b10110101011 u$
b100011 Z%
b100110 b%
b100001 ,'
b11011010 b-
b11011001 41
0>1
#109
b1110010000100 "
b111 2
b100101 "#
b100011 c#
b111011010010110010010101101110 U$
b10110101010 u$
b10110110 "%
b100100 Z%
b100101 b%
b100010 ,'
b11011011 b-
b11011011 41
1>1
#110
b1110010000111 "
b0 2
b100100 "#
b100100 c#
b111011010010110010010101101111 U$
b10110101001 u$
b100101 Z%
b100110 b%
b100011 ,'
b11011100 b-
b11011100 41
0>1
#111
b1 2
b100110 "#
b100101 c#
b111011010010110010010101110000 U$
b10110101000 u$
b100110 Z%
b100111 b%
b100100 ,'
b11011101 b-
b11011101 41
1>1
#112
b1110010000000 "
b11 2
b100010 "#
b100110 c#
b111011010010110010010101110001 U$
b10110100111 u$
b100111 Z%
b101010 b%
b100101 ,'
b11011111 b-
b11011111 41
0>1
#113
b1110010001011 "
b100 2
b101001 "#
b100111 c#
b111011010010110010010101110010 U$
b10110100110 u$
b101000 Z%
b101001 b%
b100110 ,'
b11100000 b-
b11100000 41
1>1
#114
b1110010000011 "
b101 2
b101000 "#
b101000 c#
b111011010010110010010101110011 U$
b10110100101 u$
b101001 Z%
b101010 b%
b100111 ,'
b11100001 b-
b11100001 41
0>1
#115
b1110010000100 "
b110 2
b101010 "#
b101001 c#
b111011010010110010010101110100 U$
b10110100100 u$
b101010 Z%
b101011 b%
b101000 ,'
b11100010 b-
b11100010 41
1>1
#116
b1110010000111 "
b0 2
b101110 "#
b101010 c#
b111011010010110010010101110101 U$
b10110100011 u$
b101011 Z%
b101110 b%
b101001 ,'
b11100100 b-
b11100011 41
0>1
#117
b1 2
b101101 "#
b101011 c#
b111011010010110010010101110110 U$
b10110100010 u$
b10110101 "%
b101100 Z%
b101101 b%
b101010 ,'
b11100101 b-
b11100101 41
1>1
