WaveWidthPhase2constrain/.Xil/Vivado-2408-DESKTOP-G3B5TCR/hw_ila_data_2/zip_work/waveform.vcd
$date
        2019-Dec-17 22:27:15
$end
$version
        Vivado v2017.4 (64-bit)
$end
$timescale
        1ps
$end
$scope module dut $end
$var reg 33 " example_top/MonopulseEx_Arithmetic1/Arithmetic1/Cube_data [32:0] $end
$var reg 41 C example_top/MonopulseEx_Arithmetic1/Arithmetic1/Biquadrate_data [40:0] $end
$var reg 8 l example_top/MonopulseEx_Arithmetic1/Arithmetic1/Monopulse_data_vi [7:0] $end
$var reg 21 t u_ila_1_Square_data [20:0] $end
$var reg 10 +" example_top/MonopulseEx_Arithmetic1/Arithmetic1/SubtractionMean_data2 [9:0] $end
$var reg 9 5" example_top/MonopulseEx_Arithmetic1/Arithmetic1/SubtractionMean_data_n [8:0] $end
$var reg 16 >" example_top/MonopulseEx_Arithmetic1/Monopulse_extraction_1/send_count [15:0] $end
$var reg 6 N" example_top/Behind_area [5:0] $end
$var reg 10 T" Behind_area [15:6] $end
$var reg 3 ^" u_ila_1_Arithmetic_State [2:0] $end
$var reg 16 a" example_top/Count [15:0] $end
$var reg 33 q" example_top/Third_moment [32:0] $end
$var reg 8 4# example_top/Write_Fifo_datain [7:0] $end
$var reg 24 <# example_top/Second_moment [23:0] $end
$var reg 32 T# example_top/feature_num [31:0] $end
$var reg 6 t# example_top/Front_area [5:0] $end
$var reg 10 z# Front_area [15:6] $end
$var reg 41 &$ example_top/Fourth_moment [40:0] $end
$var reg 8 O$ u_ila_1_Monopulse_data_1 [7:0] $end
$var reg 16 W$ example_top/Read_Fifo_Out_r [15:0] $end
$var reg 16 g$ example_top/Pulse_point_num [15:0] $end
$var reg 2 w$ u_ila_1_WaveState [1:0] $end
$var reg 16 y$ example_top/Monopulse_num [15:0] $end
$var reg 6 +% u_ila_1_Period_count [5:0] $end
$var reg 16 1% example_top/Monopulse_data1 [15:0] $end
$var reg 8 A% example_top/MonopulseExHold [7:0] $end
$var reg 4 I% example_top/state [3:0] $end
$var reg 16 M% example_top/ii [15:0] $end
$var reg 16 ]% example_top/time_cnt [15:0] $end
$var reg 1 m% u_ila_1_FeatureExtraction_flag $end
$var reg 1 n% SendIRQ_OBUF $end
$var reg 1 o% example_top/S_FeatureExtraction_flag_reg1 $end
$var reg 1 p% SendOver $end
$var reg 1 q% SendOver1 $end
$var reg 1 r% SendOver_reg1 $end
$var reg 1 s% SendOver_reg2 $end
$var reg 1 t% example_top/SendToArm_begin $end
$var reg 1 u% example_top/SendToArm_Over $end
$var reg 1 v% StartSample $end
$var reg 1 w% StartSample1 $end
$var reg 1 x% StartSample_reg1 $end
$var reg 1 y% StartSample_reg2 $end
$var reg 1 z% _TRIGGER $end
$var reg 1 {% _WINDOW $end
$var reg 1 |% _GAP $end
$upscope $end
$enddefinitions $end
#0
$dumpvars
b111111111111111111110100100111000 "
b11001101000010000 C
b0 l
b101000100 t
b10010 +"
b111101110 5"
b111 >"
b1010 N"
b110 T"
b11 ^"
b0 a"
b101110110001000001011 q"
b1101011 4#
b110111101111101 <#
b10010 T#
b110011 t#
b10 z#
b111100111110011001101101101 &$
b1101000 O$
b1101000 W$
b100 g$
b0 w$
b11110 y$
b1010 +%
b1101001 1%
b110 A%
b100 I%
b100111 M%
b0 ]%
0m%
0n%
0o%
1p%
0q%
1r%
1s%
0t%
1u%
0v%
0w%
0x%
0y%
0z%
1{%
0|%
$end
#2
b1101010 4#
#4
b1101001 W$
#5
b1101001 O$
#6
b1101000 W$
#7
b1101000 O$
#8
b1101001 W$
#9
b1101001 O$
#10
b1101000 W$
#11
b1101000 O$
#14
b1101011 4#
#17
b1101001 W$
#18
b1101111 4#
b1101001 O$
#19
b1101100 4#
#22
b1101101 4#
#26
b1101000 W$
#27
b1101000 O$
b1101001 W$
#28
b1101001 O$
b1101000 W$
#29
b1101000 O$
#30
b1101001 W$
#31
b1101001 O$
#34
b1101100 4#
#35
b1101011 4#
#36
b1101000 W$
#37
b1101010 4#
b1101000 O$
#40
b1101001 4#
b1101001 W$
#41
b1101001 O$
#46
b1101000 4#
b1101000 W$
#47
b1101000 O$
#48
b1101001 4#
b1101001 W$
#49
b1101001 O$
#50
b1101000 4#
#54
b1101001 4#
#56
b1101000 4#
#59
b1101001 4#
#60
b1101000 W$
#61
b1101000 4#
b1101000 O$
#62
b1101001 4#
#68
b1101001 W$
#69
b1101001 O$
#70
b1101000 4#
b1101000 W$
#71
b1101000 O$
#72
b1101001 4#
b1101001 W$
#73
b1101001 O$
#74
b1101000 4#
#75
b1101001 4#
#76
b1101000 W$
#77
b1101000 O$
#78
b1101000 4#
b1101001 W$
#79
b1101001 O$
#80
b1101001 4#
#84
b1101000 W$
#85
b1101000 O$
#88
b1101001 W$
#89
b1101001 O$
#90
b1101000 W$
#91
b1101000 O$
#92
b1101001 W$
#93
b1101001 O$
#94
b1101000 W$
#95
b1101000 O$
#96
b1101001 W$
#97
b1101001 O$
#98
b1101000 4#
#99
b1101001 4#
#100
b1101000 W$
#101
b1101000 O$
#104
b1101001 W$
#105
b1101001 O$
#116
b1101000 W$
#117
b1101000 4#
b1101000 O$
#118
b1101001 4#
b1101001 W$
#119
b1101001 O$
#120
b1101000 4#
#123
b1101001 4#
#126
b1101000 4#
b1101000 W$
#127
b1101000 O$
#128
b1101001 4#
b1101001 W$
#129
b1101001 O$
#130
b1101000 4#
b1101000 W$
#131
b1101000 O$
#133
b1101001 W$
#134
b1101001 O$
#136
b1101001 4#
#138
b1101000 4#
#141
b1101001 4#
#142
b1101000 4#
#144
b1101001 4#
#147
b1101000 4#
#149
b1101001 4#
#150
b1101000 W$
#151
b1101000 O$
#152
b1101000 4#
b1101001 W$
#153
b1101001 O$
#155
b1101001 4#
#158
b1101000 4#
#160
b1101001 4#
b1101010 W$
#161
b1101010 O$
#162
b1101000 4#
b1101001 W$
#163
b1101001 O$
#164
b1101010 W$
#165
b1101001 4#
b1101010 O$
#168
b1101000 4#
b1101001 W$
#169
b1101001 O$
#170
b1101001 4#
#172
b1101000 W$
#173
b1101000 4#
b1101000 O$
#174
b1101001 4#
b1101001 W$
#175
b1101001 O$
#178
b1101000 4#
#179
b1101001 4#
#182
b1101000 W$
#183
b1101000 O$
b1101001 W$
#184
b1101000 4#
b1101001 O$
b1101000 W$
#185
b1101000 O$
b1101001 W$
#186
b1101001 4#
b1101001 O$
b1101000 W$
#187
b1101000 O$
#188
b1101001 W$
#189
b1101001 O$
#192
b1101000 W$
#193
b1101000 O$
#194
b1101000 4#
#195
b1101001 4#
#198
b1101001 W$
#199
b1101001 O$
#200
b1101000 4#
#202
b1101001 4#
#206
b1101000 4#
#208
b1101001 4#
b1101000 W$
#209
b1101000 O$
#210
b1101000 4#
b1101001 W$
#211
b1101001 4#
b1101001 O$
#212
b1101000 W$
#213
b1101000 4#
b1101000 O$
#214
b1101001 W$
#215
b1101001 O$
#216
b1101001 4#
b1101000 W$
#217
b1101000 O$
#220
b1101001 W$
#221
b1101001 O$
#227
b1101000 4#
#228
b1101000 W$
#229
b1101001 4#
b1101000 O$
#232
b1101000 4#
b1101001 W$
#233
b1101001 O$
#234
b1101001 4#
b1101000 W$
#235
b1101000 O$
#236
b1101001 W$
#237
b1101001 O$
#238
b1101000 4#
#240
b1101001 4#
#242
b1101000 W$
#243
b1101000 O$
b1101001 W$
#244
b1101001 O$
#248
b1101010 4#
b1101000 W$
#249
b1101000 O$
#250
b1101001 4#
b1101001 W$
#251
b1101001 O$
#253
b1101010 4#
#256
b1101010 W$
#257
b1101010 O$
#260
b1101011 W$
#261
b1101001 4#
b1101011 O$
b1101111 W$
#262
b1101111 O$
b1101100 W$
#263
b1101100 O$
#264
b1101101 W$
#265
b1101101 O$
#270
b1101100 W$
#271
b1101100 O$
#272
b1101011 W$
#273
b1101011 O$
#274
b1101010 W$
#275
b1101010 O$
#280
b1101001 W$
#281
b1101001 O$
#286
b1101000 W$
#287
b1101000 O$
#288
b1101001 W$
#289
b1101001 O$
#290
b1101000 W$
#291
b1101000 O$
#292
b1101001 W$
#293
b1101001 O$
#296
b1101000 W$
#297
b1101000 O$
#298
b1101001 W$
#299
b1101000 4#
b1101001 O$
#300
b1101001 4#
#301
b1101000 4#
#302
b1101001 4#
#306
b1101000 4#
#309
b1101001 4#
#310
b1101000 W$
#311
b1101000 O$
#312
b1101001 W$
#313
b1101001 O$
#316
b1101000 W$
#317
b1101000 O$
#318
b1101001 W$
#319
b1101001 O$
#320
b1101000 4#
b1101000 W$
#321
b1101000 O$
#322
b1101001 4#
b1101001 W$
#323
b1101000 4#
b1101001 O$
#325
b1101001 4#
#326
b1101000 4#
#327
b1101001 4#
#330
b1101000 4#
#333
b1101001 4#
#347
b1101000 4#
#349
b1101001 4#
#350
b1101000 4#
#352
b1101001 4#
#360
b1101010 4#
#362
b1101000 W$
#363
b1101000 4#
b1101000 O$
#364
b1101001 4#
b1101001 W$
#365
b1101001 O$
#366
b1101010 4#
#370
b1101000 W$
#371
b1101000 O$
#372
b1101001 W$
#373
b1101001 4#
b1101001 O$
#374
b1101000 W$
#375
b1101000 O$
#376
b1101001 W$
#377
b1101001 O$
#380
b1101000 W$
#381
b1101000 O$
#382
b1101001 W$
#383
b1101001 O$
#384
b1101000 4#
b1101000 W$
#385
b1101000 O$
#386
b1101001 W$
#387
b1101001 O$
#389
b1101001 4#
#392
b1101000 4#
b1101000 W$
#393
b1101000 O$
#394
b1101001 4#
b1101001 W$
#395
b1101001 O$
#397
b1101000 4#
#398
b1101001 4#
b1101000 W$
#399
b1101000 O$
#403
b1101000 4#
#405
b1101001 4#
#406
b1101000 4#
b1101001 W$
#407
b1101001 O$
b1101101 W$
#408
b1101101 O$
b10000101 W$
#409
b10000101 O$
b10010001 W$
#410
b10010001 O$
b11010000 W$
#411
b11010000 O$
b11000000 W$
b1 w$
#412
b1001 >"
b10101111 W$
b110 g$
#413
b1010 >"
b1101001 4#
b10011111 W$
b111 g$
#414
b1011 >"
b10001110 W$
b1000 g$
b10 w$
#415
b1100 >"
b10000010 W$
b1001 g$
#416
b1101 >"
b1111100 W$
b1010 g$
#417
b1110 >"
b1111000 W$
b1011 g$
#418
b1111 >"
b1111001 W$
b1100 g$
#419
b10000 >"
b1110101 W$
b1101 g$
#420
b10001 >"
b1110011 W$
b1110 g$
#421
b10010 >"
b1101000 4#
b1111 g$
#422
b10011 >"
b1101001 4#
b1101101 W$
b10000 g$
#423
b10100 >"
b1101001 W$
b10001 g$
#424
b10101 >"
b1101000 4#
b1101010 W$
b10010 g$
#425
b10110 >"
b10011 g$
#426
b10111 >"
b1101001 4#
b1101001 W$
b10100 g$
#427
b11000 >"
b10101 g$
#428
b11001 >"
b10110 g$
#429
b11010 >"
b1101000 4#
b10111 g$
#430
b11011 >"
b1101000 W$
b11000 g$
#431
b11100 >"
b11001 g$
#432
b11101 >"
b1101001 4#
b1101001 W$
b11010 g$
#433
b11110 >"
b11011 g$
#434
b11111 >"
b1101000 W$
b11100 g$
#435
b100000 >"
b1101000 4#
b11101 g$
b0 w$
1m%
#436
b10 ^"
b1 a"
b11101 1%
#437
b0 N"
b0 T"
b10 a"
b1101001 4#
b0 t#
b0 z#
b11101 y$
b1 ]%
#438
b11 a"
b10 ]%
#439
b100 a"
b1101001 1%
b11 ]%
#440
b1 l
b101 a"
b1 t#
b1101101 1%
b100 ]%
#441
b101 l
b110 a"
b110 t#
b10000101 1%
b101 ]%
#442
b11101 l
b111 a"
b100011 t#
b10010001 1%
b110 ]%
#443
b101001 l
b1000 a"
b1101000 4#
b1100 t#
b1 z#
b11010000 1%
b111 ]%
#444
b1101000 l
b1001 a"
b110100 t#
b10 z#
b11000000 1%
b1000 ]%
#445
b1011000 l
b11000 N"
b1 T"
b1010 a"
b1101001 4#
b10101111 1%
b1001 ]%
#446
b1000111 l
b11111 N"
b10 T"
b1011 a"
b10011111 1%
b1010 ]%
#447
b110111 l
b10110 N"
b11 T"
b1100 a"
b10001110 1%
b1011 ]%
#448
b100110 l
b111100 N"
b1101 a"
b10000010 1%
b1100 ]%
#449
b11010 l
b10110 N"
b100 T"
b1110 a"
b1111100 1%
b1101 ]%
#450
b10100 l
b101010 N"
b1111 a"
b1111000 1%
b1110 ]%
#451
b10000 l
b111010 N"
b10000 a"
b1101000 4#
b1111001 1%
b1111 ]%
#452
b10001 l
b1011 N"
b101 T"
b10001 a"
b1101001 4#
b1110101 1%
b10000 ]%
#453
b1101 l
b11000 N"
b10010 a"
b1110011 1%
b10001 ]%
#454
b1011 l
b100011 N"
b10011 a"
b10010 ]%
#455
b101110 N"
b10100 a"
b1101101 1%
b10011 ]%
#456
b101 l
b110011 N"
b10101 a"
b1101001 1%
b10100 ]%
#457
b1 l
b110100 N"
b10110 a"
b1101010 1%
b10101 ]%
#458
b10 l
b110110 N"
b10111 a"
b1101000 4#
b10110 ]%
#459
b111000 N"
b11000 a"
b1101001 4#
b1101001 1%
b10111 ]%
#460
b1 l
b111001 N"
b11001 a"
b11000 ]%
#461
b111010 N"
b11010 a"
b1101000 4#
b11001 ]%
#462
b111011 N"
b11011 a"
b11010 ]%
#463
b111100 N"
b11100 a"
b1101000 1%
b11011 ]%
#464
b0 l
b11101 a"
b1101001 4#
b11100 ]%
#465
b11110 a"
b1101001 1%
b11101 ]%
#466
b1 l
b111101 N"
b11111 a"
b11110 ]%
#467
b111110 N"
b100000 a"
b1101000 4#
b1101000 1%
b11111 ]%
#468
b0 l
b110 ^"
b100001 a"
b100000 ]%
#469
b1 l
b1101001 4#
b0 ]%
#470
b0 l
b111 ^"
#471
b1 ]%
#472
b101 ^"
#473
b0 "
b0 C
b0 t
b0 +"
b0 5"
b0 q"
b0 <#
b0 &$
b0 M%
b0 ]%
#474
b100 ^"
b1 ]%
#475
b111101110 5"
b1 M%
b10 ]%
#476
b111110010 5"
b10 M%
b11 ]%
#477
b1 l
b101000100 t
b10010 +"
b1010 5"
b1101000 4#
b11 M%
b100 ]%
#478
b11001101000010000 C
b101 l
b11000100 t
b1110 +"
b10110 5"
b101000100 <#
b100 M%
b101 ]%
#479
b111111111111111111110100100111000 "
b1001011000010000 C
b11101 l
b1100100 t
b1010 +"
b1010101 5"
b1000001000 <#
b11001101000010000 &$
b101 M%
b110 ]%
#480
b111111111111111111111010101001000 "
b10011100010000 C
b101001 l
b111100100 t
b10110 +"
b1000101 5"
b111111111111111111110100100111000 q"
b1001101100 <#
b100011000000100000 &$
b110 M%
b111 ]%
#481
b1111101000 "
b111001001100010000 C
b1101000 l
b1110000111001 t
b1010101 +"
b110100 5"
b111111111111111111101111010000000 q"
b10001010000 <#
b100101011100110000 &$
b111 M%
b1000 ]%
#482
b10100110011000 "
b11000111001000010010110001 C
b1011000 l
b1001010011001 t
b1000101 +"
b100100 5"
b111111111111111111110001001101000 q"
b1101001 4#
b10000010001001 <#
b1011110101001000000 &$
b1000 M%
b1001 ]%
#483
b10010101111011101101 "
b1010110011101111101110001 C
b1000111 l
b101010010000 t
b110100 +"
b10011 5"
b110000000000 q"
b1101000 4#
b11001100100010 <#
b11001000100110111011110001 &$
b1001 M%
b1010 ]%
#484
b1010000001100111101 "
b11011111001000100000000 C
b110111 l
b10100010000 t
b100100 +"
b111 5"
b10010110101011101101 q"
b11110110110010 <#
b100011111000100111001100010 &$
b1010 M%
b1011 ]%
#485
b100010010101000000 "
b110011010000100000000 C
b100110 l
b101101001 t
b10011 +"
b1 5"
b11100110111000101010 q"
b1101001 4#
b100001011000010 <#
b100111010111101111101100010 &$
b1011 M%
b1100 ]%
#486
b1011011001000000 "
b11111110100010001 C
b11010 l
b110001 t
b111 +"
b111111101 5"
b100001001001101101010 q"
b1101000 4#
b100010000101011 <#
b101000001011000000001100010 &$
b1100 M%
b1101 ]%
#487
b1101011001011 "
b100101100001 C
b10100 l
b1 t
b1 +"
b111111110 5"
b100010100100110101010 q"
b100010001011100 <#
b101000001110111110101110011 &$
b1101 M%
b1110 ]%
#488
b101010111 "
b1 C
b10000 l
b1001 t
b11 +"
b111111010 5"
b100010110010001110101 q"
b100010001011101 <#
b101000001111000011011010100 &$
b1110 M%
b1111 ]%
#489
b1 "
b1010001 C
b10001 l
b100 t
b10 +"
b111111000 5"
b100010110010111001100 q"
b1101001 4#
b100010001100110 <#
b101000001111000011011010101 &$
b1111 M%
b10000 ]%
#490
b111111111111111111111111111100101 "
b10000 C
b1101 l
b100100 t
b110 +"
b100010110010111001101 q"
b1101000 4#
b100010001101010 <#
b101000001111000011100100110 &$
b10000 M%
b10001 ]%
#491
b111111111111111111111111111111000 "
b10100010000 C
b1011 l
b1000000 t
b1000 +"
b111110010 5"
b100010110010110110010 q"
b1101001 4#
b100010010001110 <#
b101000001111000011100110110 &$
b10001 M%
b10010 ]%
#492
b111111111111111111111111100101000 "
b1000000000000 C
b111101110 5"
b100010110010110101010 q"
b100010011001110 <#
b101000001111000110001000110 &$
b10010 M%
b10011 ]%
#493
b111111111111111111111111000000000 "
b101 l
b11000100 t
b1110 +"
b111101111 5"
b100010110010011010010 q"
b100010100001110 <#
b101000001111001110001000110 &$
b10011 M%
b10100 ]%
#494
b1001011000010000 C
b1 l
b101000100 t
b10010 +"
b100010110001011010010 q"
b100010111010010 <#
b101000001111010110001000110 &$
b10100 M%
b10101 ]%
#495
b111111111111111111111010101001000 "
b11001101000010000 C
b10 l
b100100001 t
b10001 +"
b111101110 5"
b100010110000011010010 q"
b100011100010110 <#
b101000010000100001001010110 &$
b10101 M%
b10110 ]%
#496
b111111111111111111110100100111000 "
b10100011001000001 C
b100010101011000011010 q"
b100100000110111 <#
b101000010011101110001100110 &$
b10110 M%
b10111 ]%
#497
b111111111111111111110110011001111 "
b1 l
b101000100 t
b10010 +"
b100010011111101010010 q"
b100100101011000 <#
b101000010110010001010100111 &$
b10111 M%
b11000 ]%
#498
b11001101000010000 C
b100010010110000100001 q"
b100101010011100 <#
b101000011000110100011101000 &$
b11000 M%
b11001 ]%
#499
b111111111111111111110100100111000 "
b111101101 5"
b100010001100011110000 q"
b100101111100000 <#
b101000011100000001011111000 &$
b11001 M%
b11010 ]%
#500
b100010000001000101000 q"
b100110100100100 <#
b101000011111001110100001000 &$
b11010 M%
b11011 ]%
#501
b0 l
b101101001 t
b10011 +"
b111101110 5"
b100001110101101100000 q"
b100111001101000 <#
b101000100010011011100011000 &$
b11011 M%
b11100 ]%
#502
b11111110100010001 C
b100001101010010011000 q"
b100111111010001 <#
b101000100101101000100101000 &$
b11100 M%
b11101 ]%
#503
b111111111111111111110010100110101 "
b1 l
b101000100 t
b10010 +"
b111101101 5"
b100001011110111010000 q"
b101000100111010 <#
b101000101001100111000111001 &$
b11101 M%
b11110 ]%
#504
b11001101000010000 C
b100001010001100000101 q"
b101001001111110 <#
b101000101101100101101001010 &$
b11110 M%
b11111 ]%
#505
b111111111111111111110100100111000 "
b0 l
b101101001 t
b10011 +"
b100001000100000111010 q"
b101001111000010 <#
b101000110000110010101011010 &$
b11111 M%
b100000 ]%
#506
b11111110100010001 C
b1 l
b100000111000101110010 q"
b101010100101011 <#
b101000110011111111101101010 &$
b100000 M%
b100001 ]%
#507
b111111111111111111110010100110101 "
b100000101101010101010 q"
b101000110111111110001111011 &$
b100001 M%
b100010 ]%
#508
b100000011111111011111 q"
b100010 M%
b100011 ]%
#509
b0 l
b1101000 4#
b100011 M%
b100100 ]%
#510
b1101001 4#
b100100 M%
b100101 ]%
#511
b1 l
b0 ^"
b100101 M%
b100110 ]%
1n%
1t%
0u%
#512
b1 ^"
b10011 T#
b100100 M%
b0 ]%
0m%
1o%
1z%
#513
b0 l
b11 ^"
b0 a"
b10100 T#
b1101001 W$
0n%
0p%
#514
0o%
#517
b1101000 4#
#518
b1101001 4#
#525
b1101000 4#
#529
b1101001 4#
#535
0t%
1u%
#536
b1101000 4#
#538
b1101001 4#
#539
b1101000 4#
#541
b1101001 4#
#547
b1101000 4#
#558
b1101001 4#
#560
b1101000 4#
#562
b1101001 4#
#563
b1101000 4#
#566
b1101001 4#
#576
b1101000 4#
#578
b1101001 4#
#579
b1101000 4#
#581
b1101001 4#
#594
b1101010 4#
#595
b1101000 4#
#596
b1101001 4#
#603
b1101000 4#
#606
b1101001 4#
#610
b1101000 4#
#611
b1101001 4#
#624
b1101010 4#
#626
b1101001 4#
#627
b1101000 4#
#628
b1101001 4#
#640
b1101000 4#
#648
b1101001 4#
#650
b1101000 4#
#651
b1101001 4#
#653
b1101000 4#
#658
b1101001 4#
#659
b1101010 4#
#661
b1101001 4#
#664
b1101010 4#
#666
b1101001 4#
#675
b1101000 4#
#676
b1101001 4#
#678
b1101000 4#
#681
b1101001 4#
#682
b1101000 4#
#683
b1101001 4#
#691
b1101000 4#
#698
b1101001 4#
#699
b1101000 4#
#700
b1101001 4#
#704
b1101000 4#
#705
b1101001 4#
#706
b1101000 4#
#707
b1101001 4#
#710
b1101000 4#
#712
b1101001 4#
#717
b1101000 4#
#718
b1101001 4#
#734
b1101000 4#
#738
b1101001 4#
#739
b1101000 4#
#741
b1101001 4#
#744
b1101000 4#
#746
b1101001 4#
#750
b1101000 4#
#752
b1101001 4#
#757
b1101000 4#
#760
b1101001 4#
#762
b1101000 4#
#763
b1101001 4#
#766
b1101000 4#
#768
b1101001 4#
#771
b1101000 4#
#773
b1101001 4#
#778
b1101000 4#
#779
b1101001 4#
#781
0r%
#783
0s%
#786
b1101000 4#
#789
b1101001 4#
#795
b1101000 4#
#797
b1101001 4#
#810
b1101000 4#
#811
b1101001 4#
#813
b1101000 4#
#814
b1101001 4#
#818
b1101000 4#
#822
b1101001 4#
#826
b1101000 4#
#829
b1101001 4#
#832
b1101000 4#
#833
b1101001 4#
#837
b1101000 4#
#843
b1101001 4#
#853
b1101010 4#
#866
b1101001 4#
#878
b1101000 4#
#880
b1101001 4#
#882
b1101000 4#
#883
b1101001 4#
#888
b1101000 4#
#891
b1101001 4#
#893
b1101000 4#
#894
b1101001 4#
#896
b1101000 4#
#898
b1101001 4#
#899
b1101000 4#
#901
b1101001 4#
#902
b1101000 4#
#903
b1101001 4#
#904
b1101000 4#
#906
b1101001 4#
#907
b1101000 4#
#909
b1101001 4#
#930
b1101000 4#
#933
b1101001 4#
#934
b1101000 4#
#936
b1101001 4#
#942
b1101010 4#
#944
b1101100 4#
#946
b1110010 4#
#948
b1110110 4#
#950
b1110101 4#
#952
b1110011 4#
#954
b1110001 4#
#955
b1110000 4#
#956
b1101100 4#
#957
b1101110 4#
#958
b1101101 4#
#960
b1101100 4#
#961
b1101000 4#
#962
b1101010 4#
#965
b1101001 4#
#976
b1101000 4#
#982
b1101001 4#
#984
b1101000 4#
#986
b1101001 4#
#987
b1101000 4#
#989
b1101001 4#
#995
b1101000 4#
#997
b1101001 4#
#1006
b1101000 4#
#1008
b1101001 4#
#1018
b1101000 4#
#1021
b1101001 4#
