WaveWidthPhase2constrain/.Xil/Vivado-11904-DESKTOP-G3B5TCR/hw_ila_data_1/zip_work/waveform.vcd
$date
        2019-Dec-17 21:21:09
$end
$version
        Vivado v2017.4 (64-bit)
$end
$timescale
        1ps
$end
$scope module dut $end
$var reg 32 " example_top/CountRead_tem [31:0] $end
$var reg 32 B example_top/CountWrite_tem [31:0] $end
$var reg 128 b example_top/Write_Fifo_Out [127:0] $end
$var reg 8 &# example_top/Write_Fifo_rusdw_o [7:0] $end
$var reg 16 .# example_top/Read_Fifo_Out [15:0] $end
$var reg 29 ># example_top/app_addr [28:0] $end
$var reg 128 [# example_top/app_rd_data [127:0] $end
$var reg 25 }$ example_top/ddr3read_en1 [24:0] $end
$var reg 11 8% example_top/Read_Fifo_rusdw_o [10:0] $end
$var reg 8 C% example_top/Read_Fifo_wusdw_o [7:0] $end
$var reg 32 K% example_top/PeriodPoint_num [31:0] $end
$var reg 25 k% example_top/ddr3read_en2 [24:0] $end
$var reg 29 && example_top/app_addr_begin [28:0] $end
$var reg 128 C& example_top/app_wdf_data [127:0] $end
$var reg 4 e' example_top/state1 [3:0] $end
$var reg 1 i' example_top/app_rd_data_valid $end
$var reg 1 j' u_ila_0_app_rdy $end
$var reg 1 k' example_top/app_wdf_rdy $end
$var reg 1 l' example_top/ddr3_oneperiod_flag $end
$var reg 1 m' example_top/ddr3read_en $end
$var reg 1 n' example_top/ddr3write_en $end
$var reg 1 o' example_top/OnePeriod_flag $end
$var reg 1 p' example_top/Period_flag $end
$var reg 1 q' example_top/ProsessIn $end
$var reg 1 r' example_top/ProsessIn1 $end
$var reg 1 s' example_top/Read_Fifo_empty $end
$var reg 1 t' example_top/Read_Fifo_full $end
$var reg 1 u' example_top/Read_Fifo_in_en1 $end
$var reg 1 v' u_ila_0_Read_Fifo_rden $end
$var reg 1 w' example_top/Read_Fifo_rst $end
$var reg 1 x' example_top/Read_Fifo_wren $end
$var reg 1 y' example_top/Write_Fifo_empty $end
$var reg 1 z' example_top/Write_Fifo_full $end
$var reg 1 {' example_top/Write_Fifo_wr_en $end
$var reg 1 |' example_top/WriteSign $end
$var reg 1 }' _TRIGGER $end
$var reg 1 ~' _WINDOW $end
$var reg 1 !( _GAP $end
$upscope $end
$enddefinitions $end
#0
$dumpvars
b0 "
b0 B
b11010010000000001101001000000000110100000000000011010010000000001101001000000000110100100000000011010010000000001101001 b
b0 &#
b0 .#
b0 >#
b11010010000000001101001000000000110100100000000011010010000000001101001000000000110100100000000011010010000000001101001 [#
b1100111111111111111111 }$
b0 8%
b0 C%
b0 K%
b11001111111111111111110 k%
b0 &&
b0 C&
b0 e'
0i'
1j'
1k'
0l'
1m'
0n'
1o'
0p'
1q'
0r'
1s'
0t'
0u'
0v'
0w'
0x'
1y'
1z'
0{'
1|'
0}'
1~'
0!(
$end
#1
b11001111111111111111111 }$
b110011111111111111111110 k%
#2
b110011111111111111111111 }$
b1100111111111111111111110 k%
#3
b1100111111111111111111111 }$
b1001111111111111111111110 k%
#4
b1001111111111111111111111 }$
b11111111111111111111110 k%
#5
b11111111111111111111111 }$
b111111111111111111111110 k%
#6
b111111111111111111111111 }$
b1111111111111111111111110 k%
#7
b1111111111111111111111111 }$
#72
b1111111111111111111111110 }$
b1111111111111111111111100 k%
0j'
0m'
#73
b1111111111111111111111100 }$
b1111111111111111111111000 k%
#74
b1111111111111111111111001 }$
b1111111111111111111110010 k%
1j'
1m'
#75
b1111111111111111111110011 }$
b1111111111111111111100110 k%
#76
b1111111111111111111100110 }$
b1111111111111111111001100 k%
0j'
0m'
#77
b1111111111111111111001100 }$
b1111111111111111110011000 k%
#78
b1111111111111111110011000 }$
b1111111111111111100110000 k%
#79
b1111111111111111100110001 }$
b1111111111111111001100010 k%
1j'
1m'
#80
b1111111111111111001100011 }$
b1111111111111110011000110 k%
#81
b1111111111111110011000110 }$
b1111111111111100110001100 k%
0j'
0m'
#82
b1111111111111100110001100 }$
b1111111111111001100011000 k%
#83
b1111111111111001100011001 }$
b1111111111110011000110010 k%
1j'
1m'
#84
b1111111111110011000110011 }$
b1111111111100110001100110 k%
#85
b1111111111100110001100111 }$
b1111111111001100011001110 k%
#86
b1111111111001100011001111 }$
b1111111110011000110011110 k%
#87
b1111111110011000110011111 }$
b1111111100110001100111110 k%
#88
b1111111100110001100111111 }$
b1111111001100011001111110 k%
#89
b1111111001100011001111111 }$
b1111110011000110011111110 k%
#90
b1111110011000110011111111 }$
b1111100110001100111111110 k%
#91
b1111100110001100111111111 }$
b1111001100011001111111110 k%
#92
b1111001100011001111111111 }$
b1110011000110011111111110 k%
#93
b1110011000110011111111111 }$
b1100110001100111111111110 k%
#94
b1100110001100111111111111 }$
b1001100011001111111111110 k%
#95
b1001100011001111111111111 }$
b11000110011111111111110 k%
#96
b11000110011111111111111 }$
b110001100111111111111110 k%
#97
b110001100111111111111111 }$
b1100011001111111111111110 k%
#98
b1100011001111111111111111 }$
b1000110011111111111111110 k%
#99
b1000110011111111111111111 }$
b1100111111111111111110 k%
#100
b1100111111111111111111 }$
b11001111111111111111110 k%
#101
b11001111111111111111111 }$
b110011111111111111111110 k%
#102
b110011111111111111111111 }$
b1100111111111111111111110 k%
#103
b1100111111111111111111111 }$
b1001111111111111111111110 k%
#104
b1001111111111111111111111 }$
b11111111111111111111110 k%
#105
b11111111111111111111111 }$
b111111111111111111111110 k%
#106
b111111111111111111111111 }$
b1111111111111111111111110 k%
#107
b1111111111111111111111111 }$
#172
b1111111111111111111111110 }$
b1111111111111111111111100 k%
0j'
0m'
#173
b1111111111111111111111100 }$
b1111111111111111111111000 k%
#174
b1111111111111111111111001 }$
b1111111111111111111110010 k%
1j'
1m'
#175
b1111111111111111111110011 }$
b1111111111111111111100110 k%
#176
b1111111111111111111100110 }$
b1111111111111111111001100 k%
0j'
0m'
#177
b1111111111111111111001100 }$
b1111111111111111110011000 k%
#178
b1111111111111111110011000 }$
b1111111111111111100110000 k%
#179
b1111111111111111100110001 }$
b1111111111111111001100010 k%
1j'
1m'
#180
b1111111111111111001100011 }$
b1111111111111110011000110 k%
#181
b1111111111111110011000110 }$
b1111111111111100110001100 k%
0j'
0m'
#182
b1111111111111100110001100 }$
b1111111111111001100011000 k%
#183
b1111111111111001100011001 }$
b1111111111110011000110010 k%
1j'
1m'
#184
b1111111111110011000110011 }$
b1111111111100110001100110 k%
#185
b1111111111100110001100111 }$
b1111111111001100011001110 k%
#186
b1111111111001100011001111 }$
b1111111110011000110011110 k%
#187
b1111111110011000110011111 }$
b1111111100110001100111110 k%
#188
b1111111100110001100111111 }$
b1111111001100011001111110 k%
#189
b1111111001100011001111111 }$
b1111110011000110011111110 k%
#190
b1111110011000110011111111 }$
b1111100110001100111111110 k%
#191
b1111100110001100111111111 }$
b1111001100011001111111110 k%
#192
b1111001100011001111111111 }$
b1110011000110011111111110 k%
#193
b1110011000110011111111111 }$
b1100110001100111111111110 k%
#194
b1100110001100111111111111 }$
b1001100011001111111111110 k%
#195
b1001100011001111111111111 }$
b11000110011111111111110 k%
#196
b11000110011111111111111 }$
b110001100111111111111110 k%
#197
b110001100111111111111111 }$
b1100011001111111111111110 k%
#198
b1100011001111111111111111 }$
b1000110011111111111111110 k%
#199
b1000110011111111111111111 }$
b1100111111111111111110 k%
#200
b1100111111111111111111 }$
b11001111111111111111110 k%
#201
b11001111111111111111111 }$
b110011111111111111111110 k%
#202
b110011111111111111111111 }$
b1100111111111111111111110 k%
#203
b1100111111111111111111111 }$
b1001111111111111111111110 k%
#204
b1001111111111111111111111 }$
b11111111111111111111110 k%
#205
b11111111111111111111111 }$
b111111111111111111111110 k%
#206
b111111111111111111111111 }$
b1111111111111111111111110 k%
#207
b1111111111111111111111111 }$
#272
b1111111111111111111111110 }$
b1111111111111111111111100 k%
0j'
0m'
#273
b1111111111111111111111100 }$
b1111111111111111111111000 k%
#274
b1111111111111111111111001 }$
b1111111111111111111110010 k%
1j'
1m'
#275
b1111111111111111111110011 }$
b1111111111111111111100110 k%
#276
b1111111111111111111100110 }$
b1111111111111111111001100 k%
0j'
0m'
#277
b1111111111111111111001100 }$
b1111111111111111110011000 k%
#278
b1111111111111111110011000 }$
b1111111111111111100110000 k%
#279
b1111111111111111100110001 }$
b1111111111111111001100010 k%
1j'
1m'
#280
b1111111111111111001100011 }$
b1111111111111110011000110 k%
#281
b1111111111111110011000110 }$
b1111111111111100110001100 k%
0j'
0m'
#282
b1111111111111100110001100 }$
b1111111111111001100011000 k%
#283
b1111111111111001100011001 }$
b1111111111110011000110010 k%
1j'
1m'
#284
b1111111111110011000110011 }$
b1111111111100110001100110 k%
#285
b1111111111100110001100111 }$
b1111111111001100011001110 k%
#286
b1111111111001100011001111 }$
b1111111110011000110011110 k%
#287
b1111111110011000110011111 }$
b1111111100110001100111110 k%
#288
b1111111100110001100111111 }$
b1111111001100011001111110 k%
#289
b1111111001100011001111111 }$
b1111110011000110011111110 k%
#290
b1111110011000110011111111 }$
b1111100110001100111111110 k%
#291
b1111100110001100111111111 }$
b1111001100011001111111110 k%
#292
b1111001100011001111111111 }$
b1110011000110011111111110 k%
#293
b1110011000110011111111111 }$
b1100110001100111111111110 k%
#294
b1100110001100111111111111 }$
b1001100011001111111111110 k%
#295
b1001100011001111111111111 }$
b11000110011111111111110 k%
#296
b11000110011111111111111 }$
b110001100111111111111110 k%
#297
b110001100111111111111111 }$
b1100011001111111111111110 k%
#298
b1100011001111111111111111 }$
b1000110011111111111111110 k%
#299
b1000110011111111111111111 }$
b1100111111111111111110 k%
#300
b1100111111111111111111 }$
b11001111111111111111110 k%
#301
b11001111111111111111111 }$
b110011111111111111111110 k%
#302
b110011111111111111111111 }$
b1100111111111111111111110 k%
#303
b1100111111111111111111111 }$
b1001111111111111111111110 k%
#304
b1001111111111111111111111 }$
b11111111111111111111110 k%
#305
b11111111111111111111111 }$
b111111111111111111111110 k%
#306
b111111111111111111111111 }$
b1111111111111111111111110 k%
#307
b1111111111111111111111111 }$
#372
b1111111111111111111111110 }$
b1111111111111111111111100 k%
0j'
0m'
#373
b1111111111111111111111100 }$
b1111111111111111111111000 k%
#374
b1111111111111111111111001 }$
b1111111111111111111110010 k%
1j'
1m'
#375
b1111111111111111111110011 }$
b1111111111111111111100110 k%
#376
b1111111111111111111100110 }$
b1111111111111111111001100 k%
0j'
0m'
#377
b1111111111111111111001100 }$
b1111111111111111110011000 k%
#378
b1111111111111111110011000 }$
b1111111111111111100110000 k%
#379
b1111111111111111100110001 }$
b1111111111111111001100010 k%
1j'
1m'
#380
b1111111111111111001100011 }$
b1111111111111110011000110 k%
#381
b1111111111111110011000110 }$
b1111111111111100110001100 k%
0j'
0m'
#382
b1111111111111100110001100 }$
b1111111111111001100011000 k%
#383
b1111111111111001100011001 }$
b1111111111110011000110010 k%
1j'
1m'
#384
b1111111111110011000110011 }$
b1111111111100110001100110 k%
#385
b1111111111100110001100111 }$
b1111111111001100011001110 k%
#386
b1111111111001100011001111 }$
b1111111110011000110011110 k%
#387
b1111111110011000110011111 }$
b1111111100110001100111110 k%
#388
b1111111100110001100111111 }$
b1111111001100011001111110 k%
#389
b1111111001100011001111111 }$
b1111110011000110011111110 k%
#390
b1111110011000110011111111 }$
b1111100110001100111111110 k%
#391
b1111100110001100111111111 }$
b1111001100011001111111110 k%
#392
b1111001100011001111111111 }$
b1110011000110011111111110 k%
#393
b1110011000110011111111111 }$
b1100110001100111111111110 k%
#394
b1100110001100111111111111 }$
b1001100011001111111111110 k%
#395
b1001100011001111111111111 }$
b11000110011111111111110 k%
#396
b11000110011111111111111 }$
b110001100111111111111110 k%
#397
b110001100111111111111111 }$
b1100011001111111111111110 k%
#398
b1100011001111111111111111 }$
b1000110011111111111111110 k%
#399
b1000110011111111111111111 }$
b1100111111111111111110 k%
#400
b1100111111111111111111 }$
b11001111111111111111110 k%
#401
b11001111111111111111111 }$
b110011111111111111111110 k%
#402
b110011111111111111111111 }$
b1100111111111111111111110 k%
#403
b1100111111111111111111111 }$
b1001111111111111111111110 k%
#404
b1001111111111111111111111 }$
b11111111111111111111110 k%
#405
b11111111111111111111111 }$
b111111111111111111111110 k%
#406
b111111111111111111111111 }$
b1111111111111111111111110 k%
#407
b1111111111111111111111111 }$
#472
b1111111111111111111111110 }$
b1111111111111111111111100 k%
0j'
0m'
#473
b1111111111111111111111100 }$
b1111111111111111111111000 k%
#474
b1111111111111111111111001 }$
b1111111111111111111110010 k%
1j'
1m'
#475
b1111111111111111111110011 }$
b1111111111111111111100110 k%
#476
b1111111111111111111100110 }$
b1111111111111111111001100 k%
0j'
0m'
#477
b1111111111111111111001100 }$
b1111111111111111110011000 k%
#478
b1111111111111111110011000 }$
b1111111111111111100110000 k%
#479
b1111111111111111100110001 }$
b1111111111111111001100010 k%
1j'
1m'
#480
b1111111111111111001100011 }$
b1111111111111110011000110 k%
#481
b1111111111111110011000110 }$
b1111111111111100110001100 k%
0j'
0m'
#482
b1111111111111100110001100 }$
b1111111111111001100011000 k%
#483
b1111111111111001100011001 }$
b1111111111110011000110010 k%
1j'
1m'
#484
b1111111111110011000110011 }$
b1111111111100110001100110 k%
#485
b1111111111100110001100111 }$
b1111111111001100011001110 k%
#486
b1111111111001100011001111 }$
b1111111110011000110011110 k%
#487
b1111111110011000110011111 }$
b1111111100110001100111110 k%
#488
b1111111100110001100111111 }$
b1111111001100011001111110 k%
#489
b1111111001100011001111111 }$
b1111110011000110011111110 k%
#490
b1111110011000110011111111 }$
b1111100110001100111111110 k%
#491
b1111100110001100111111111 }$
b1111001100011001111111110 k%
#492
b1111001100011001111111111 }$
b1110011000110011111111110 k%
#493
b1110011000110011111111111 }$
b1100110001100111111111110 k%
#494
b1100110001100111111111111 }$
b1001100011001111111111110 k%
#495
b1001100011001111111111111 }$
b11000110011111111111110 k%
#496
b11000110011111111111111 }$
b110001100111111111111110 k%
#497
b110001100111111111111111 }$
b1100011001111111111111110 k%
#498
b1100011001111111111111111 }$
b1000110011111111111111110 k%
#499
b1000110011111111111111111 }$
b1100111111111111111110 k%
#500
b1100111111111111111111 }$
b11001111111111111111110 k%
#501
b11001111111111111111111 }$
b110011111111111111111110 k%
#502
b110011111111111111111111 }$
b1100111111111111111111110 k%
#503
b1100111111111111111111111 }$
b1001111111111111111111110 k%
#504
b1001111111111111111111111 }$
b11111111111111111111110 k%
#505
b11111111111111111111111 }$
b111111111111111111111110 k%
#506
b111111111111111111111111 }$
b1111111111111111111111110 k%
#507
b1111111111111111111111111 }$
#512
1}'
#572
b1111111111111111111111110 }$
b1111111111111111111111100 k%
0j'
0m'
#573
b1111111111111111111111100 }$
b1111111111111111111111000 k%
#574
b1111111111111111111111001 }$
b1111111111111111111110010 k%
1j'
1m'
#575
b1111111111111111111110010 }$
b1111111111111111111100100 k%
0j'
0m'
#576
b1111111111111111111100100 }$
b1111111111111111111001000 k%
#577
b1111111111111111111001000 }$
b1111111111111111110010000 k%
#578
b1111111111111111110010000 }$
b1111111111111111100100000 k%
#579
b1111111111111111100100000 }$
b1111111111111111001000000 k%
#580
b1111111111111111001000001 }$
b1111111111111110010000010 k%
1j'
1m'
#581
b1111111111111110010000010 }$
b1111111111111100100000100 k%
0j'
0m'
#582
b1111111111111100100000100 }$
b1111111111111001000001000 k%
#583
b1111111111111001000001000 }$
b1111111111110010000010000 k%
#584
b1111111111110010000010000 }$
b1111111111100100000100000 k%
#585
b1111111111100100000100000 }$
b1111111111001000001000000 k%
#586
b1111111111001000001000000 }$
b1111111110010000010000000 k%
#587
b1111111110010000010000000 }$
b1111111100100000100000000 k%
#588
b1111111100100000100000000 }$
b1111111001000001000000000 k%
#589
b1111111001000001000000000 }$
b1111110010000010000000000 k%
#590
b1111110010000010000000000 }$
b1111100100000100000000000 k%
#591
b1111100100000100000000000 }$
b1111001000001000000000000 k%
#592
b1111001000001000000000000 }$
b1110010000010000000000000 k%
#593
b1110010000010000000000000 }$
b1100100000100000000000000 k%
#594
b1100100000100000000000000 }$
b1001000001000000000000000 k%
#595
b1001000001000000000000000 }$
b10000010000000000000000 k%
#596
b10000010000000000000000 }$
b100000100000000000000000 k%
#597
b100000100000000000000000 }$
b1000001000000000000000000 k%
#598
b1000001000000000000000000 }$
b10000000000000000000 k%
#599
b10000000000000000000 }$
b100000000000000000000 k%
#600
b100000000000000000000 }$
b1000000000000000000000 k%
#601
b1000000000000000000000 }$
b10000000000000000000000 k%
#602
b10000000000000000000000 }$
b100000000000000000000000 k%
#603
b100000000000000000000000 }$
b1000000000000000000000000 k%
#604
b1000000000000000000000000 }$
b0 k%
#605
b0 }$
#610
b1 }$
b10 k%
1j'
1m'
#611
b11 }$
b110 k%
#612
b110 }$
b1100 k%
0j'
0m'
#613
b1100 }$
b11000 k%
#614
b11001 }$
b110010 k%
1j'
1m'
#615
b110011 }$
b1100110 k%
#616
b1100111 }$
b11001110 k%
#617
b11001111 }$
b110011110 k%
#618
b110011111 }$
b1100111110 k%
#619
b1100111111 }$
b11001111110 k%
#620
b11001111111 }$
b110011111110 k%
#621
b110011111111 }$
b1100111111110 k%
#622
b1100111111111 }$
b11001111111110 k%
#623
b11001111111111 }$
b110011111111110 k%
#624
b110011111111111 }$
b1100111111111110 k%
#625
b1100111111111111 }$
b11001111111111110 k%
#626
b11001111111111111 }$
b110011111111111110 k%
#627
b110011111111111111 }$
b1100111111111111110 k%
#628
b1100111111111111111 }$
b11001111111111111110 k%
#629
b11001111111111111111 }$
b110011111111111111110 k%
#630
b110011111111111111111 }$
b1100111111111111111110 k%
#631
b1100111111111111111111 }$
b11001111111111111111110 k%
#632
b11001111111111111111111 }$
b110011111111111111111110 k%
#633
b110011111111111111111111 }$
b1100111111111111111111110 k%
#634
b1100111111111111111111111 }$
b1001111111111111111111110 k%
#635
b1001111111111111111111111 }$
b11111111111111111111110 k%
#636
b11111111111111111111111 }$
b111111111111111111111110 k%
#637
b111111111111111111111111 }$
b1111111111111111111111110 k%
#638
b1111111111111111111111111 }$
#712
b1111111111111111111111110 }$
b1111111111111111111111100 k%
0j'
0m'
#713
b1111111111111111111111100 }$
b1111111111111111111111000 k%
#714
b1111111111111111111111001 }$
b1111111111111111111110010 k%
1j'
1m'
#715
b1111111111111111111110011 }$
b1111111111111111111100110 k%
#716
b1111111111111111111100110 }$
b1111111111111111111001100 k%
0j'
0m'
#717
b1111111111111111111001100 }$
b1111111111111111110011000 k%
#718
b1111111111111111110011000 }$
b1111111111111111100110000 k%
#719
b1111111111111111100110001 }$
b1111111111111111001100010 k%
1j'
1m'
#720
b1111111111111111001100011 }$
b1111111111111110011000110 k%
#721
b1111111111111110011000110 }$
b1111111111111100110001100 k%
0j'
0m'
#722
b1111111111111100110001100 }$
b1111111111111001100011000 k%
#723
b1111111111111001100011001 }$
b1111111111110011000110010 k%
1j'
1m'
#724
b1111111111110011000110011 }$
b1111111111100110001100110 k%
#725
b1111111111100110001100111 }$
b1111111111001100011001110 k%
#726
b1111111111001100011001111 }$
b1111111110011000110011110 k%
#727
b1111111110011000110011111 }$
b1111111100110001100111110 k%
#728
b1111111100110001100111111 }$
b1111111001100011001111110 k%
#729
b1111111001100011001111111 }$
b1111110011000110011111110 k%
#730
b1111110011000110011111111 }$
b1111100110001100111111110 k%
#731
b1111100110001100111111111 }$
b1111001100011001111111110 k%
#732
b1111001100011001111111111 }$
b1110011000110011111111110 k%
#733
b1110011000110011111111111 }$
b1100110001100111111111110 k%
#734
b1100110001100111111111111 }$
b1001100011001111111111110 k%
#735
b1001100011001111111111111 }$
b11000110011111111111110 k%
#736
b11000110011111111111111 }$
b110001100111111111111110 k%
#737
b110001100111111111111111 }$
b1100011001111111111111110 k%
#738
b1100011001111111111111111 }$
b1000110011111111111111110 k%
#739
b1000110011111111111111111 }$
b1100111111111111111110 k%
#740
b1100111111111111111111 }$
b11001111111111111111110 k%
#741
b11001111111111111111111 }$
b110011111111111111111110 k%
#742
b110011111111111111111111 }$
b1100111111111111111111110 k%
#743
b1100111111111111111111111 }$
b1001111111111111111111110 k%
#744
b1001111111111111111111111 }$
b11111111111111111111110 k%
#745
b11111111111111111111111 }$
b111111111111111111111110 k%
#746
b111111111111111111111111 }$
b1111111111111111111111110 k%
#747
b1111111111111111111111111 }$
#812
b1111111111111111111111110 }$
b1111111111111111111111100 k%
0j'
0m'
#813
b1111111111111111111111100 }$
b1111111111111111111111000 k%
#814
b1111111111111111111111001 }$
b1111111111111111111110010 k%
1j'
1m'
#815
b1111111111111111111110011 }$
b1111111111111111111100110 k%
#816
b1111111111111111111100110 }$
b1111111111111111111001100 k%
0j'
0m'
#817
b1111111111111111111001100 }$
b1111111111111111110011000 k%
#818
b1111111111111111110011000 }$
b1111111111111111100110000 k%
#819
b1111111111111111100110001 }$
b1111111111111111001100010 k%
1j'
1m'
#820
b1111111111111111001100011 }$
b1111111111111110011000110 k%
#821
b1111111111111110011000110 }$
b1111111111111100110001100 k%
0j'
0m'
#822
b1111111111111100110001100 }$
b1111111111111001100011000 k%
#823
b1111111111111001100011001 }$
b1111111111110011000110010 k%
1j'
1m'
#824
b1111111111110011000110011 }$
b1111111111100110001100110 k%
#825
b1111111111100110001100111 }$
b1111111111001100011001110 k%
#826
b1111111111001100011001111 }$
b1111111110011000110011110 k%
#827
b1111111110011000110011111 }$
b1111111100110001100111110 k%
#828
b1111111100110001100111111 }$
b1111111001100011001111110 k%
#829
b1111111001100011001111111 }$
b1111110011000110011111110 k%
#830
b1111110011000110011111111 }$
b1111100110001100111111110 k%
#831
b1111100110001100111111111 }$
b1111001100011001111111110 k%
#832
b1111001100011001111111111 }$
b1110011000110011111111110 k%
#833
b1110011000110011111111111 }$
b1100110001100111111111110 k%
#834
b1100110001100111111111111 }$
b1001100011001111111111110 k%
#835
b1001100011001111111111111 }$
b11000110011111111111110 k%
#836
b11000110011111111111111 }$
b110001100111111111111110 k%
#837
b110001100111111111111111 }$
b1100011001111111111111110 k%
#838
b1100011001111111111111111 }$
b1000110011111111111111110 k%
#839
b1000110011111111111111111 }$
b1100111111111111111110 k%
#840
b1100111111111111111111 }$
b11001111111111111111110 k%
#841
b11001111111111111111111 }$
b110011111111111111111110 k%
#842
b110011111111111111111111 }$
b1100111111111111111111110 k%
#843
b1100111111111111111111111 }$
b1001111111111111111111110 k%
#844
b1001111111111111111111111 }$
b11111111111111111111110 k%
#845
b11111111111111111111111 }$
b111111111111111111111110 k%
#846
b111111111111111111111111 }$
b1111111111111111111111110 k%
#847
b1111111111111111111111111 }$
#912
b1111111111111111111111110 }$
b1111111111111111111111100 k%
0j'
0m'
#913
b1111111111111111111111100 }$
b1111111111111111111111000 k%
#914
b1111111111111111111111001 }$
b1111111111111111111110010 k%
1j'
1m'
#915
b1111111111111111111110011 }$
b1111111111111111111100110 k%
#916
b1111111111111111111100110 }$
b1111111111111111111001100 k%
0j'
0m'
#917
b1111111111111111111001100 }$
b1111111111111111110011000 k%
#918
b1111111111111111110011000 }$
b1111111111111111100110000 k%
#919
b1111111111111111100110001 }$
b1111111111111111001100010 k%
1j'
1m'
#920
b1111111111111111001100011 }$
b1111111111111110011000110 k%
#921
b1111111111111110011000110 }$
b1111111111111100110001100 k%
0j'
0m'
#922
b1111111111111100110001100 }$
b1111111111111001100011000 k%
#923
b1111111111111001100011001 }$
b1111111111110011000110010 k%
1j'
1m'
#924
b1111111111110011000110011 }$
b1111111111100110001100110 k%
#925
b1111111111100110001100111 }$
b1111111111001100011001110 k%
#926
b1111111111001100011001111 }$
b1111111110011000110011110 k%
#927
b1111111110011000110011111 }$
b1111111100110001100111110 k%
#928
b1111111100110001100111111 }$
b1111111001100011001111110 k%
#929
b1111111001100011001111111 }$
b1111110011000110011111110 k%
#930
b1111110011000110011111111 }$
b1111100110001100111111110 k%
#931
b1111100110001100111111111 }$
b1111001100011001111111110 k%
#932
b1111001100011001111111111 }$
b1110011000110011111111110 k%
#933
b1110011000110011111111111 }$
b1100110001100111111111110 k%
#934
b1100110001100111111111111 }$
b1001100011001111111111110 k%
#935
b1001100011001111111111111 }$
b11000110011111111111110 k%
#936
b11000110011111111111111 }$
b110001100111111111111110 k%
#937
b110001100111111111111111 }$
b1100011001111111111111110 k%
#938
b1100011001111111111111111 }$
b1000110011111111111111110 k%
#939
b1000110011111111111111111 }$
b1100111111111111111110 k%
#940
b1100111111111111111111 }$
b11001111111111111111110 k%
#941
b11001111111111111111111 }$
b110011111111111111111110 k%
#942
b110011111111111111111111 }$
b1100111111111111111111110 k%
#943
b1100111111111111111111111 }$
b1001111111111111111111110 k%
#944
b1001111111111111111111111 }$
b11111111111111111111110 k%
#945
b11111111111111111111111 }$
b111111111111111111111110 k%
#946
b111111111111111111111111 }$
b1111111111111111111111110 k%
#947
b1111111111111111111111111 }$
#1012
b1111111111111111111111110 }$
b1111111111111111111111100 k%
0j'
0m'
#1013
b1111111111111111111111100 }$
b1111111111111111111111000 k%
#1014
b1111111111111111111111001 }$
b1111111111111111111110010 k%
1j'
1m'
#1015
b1111111111111111111110011 }$
b1111111111111111111100110 k%
#1016
b1111111111111111111100110 }$
b1111111111111111111001100 k%
0j'
0m'
#1017
b1111111111111111111001100 }$
b1111111111111111110011000 k%
#1018
b1111111111111111110011000 }$
b1111111111111111100110000 k%
#1019
b1111111111111111100110001 }$
b1111111111111111001100010 k%
1j'
1m'
#1020
b1111111111111111001100011 }$
b1111111111111110011000110 k%
#1021
b1111111111111110011000110 }$
b1111111111111100110001100 k%
0j'
0m'
#1022
b1111111111111100110001100 }$
b1111111111111001100011000 k%
#1023
b1111111111111001100011001 }$
b1111111111110011000110010 k%
1j'
1m'
