WaveWidth1-Comments/.Xil/Vivado-20316-DESKTOP-G3B5TCR/hw_ila_data_2/zip_work/waveform.vcd
$date
        2019-Nov-26 16:45:58
$end
$version
        Vivado v2017.4 (64-bit)
$end
$timescale
        1ps
$end
$scope module dut $end
$var reg 32 " example_top/CountRead_tem [31:0] $end
$var reg 32 B example_top/CountWrite_tem [31:0] $end
$var reg 128 b example_top/app_wdf_data [127:0] $end
$var reg 128 &# example_top/Write_Fifo_Out [127:0] $end
$var reg 29 H$ example_top/app_addr [28:0] $end
$var reg 29 e$ example_top/app_addr_begin [28:0] $end
$var reg 128 $% example_top/app_rd_data [127:0] $end
$var reg 11 F& example_top/Read_Fifo_rusdw_o [10:0] $end
$var reg 4 Q& example_top/state [3:0] $end
$var reg 8 U& example_top/Write_Fifo_datain [7:0] $end
$var reg 128 ]& example_top/ddr3_wr_data [127:0] $end
$var reg 4 !( example_top/state1 [3:0] $end
$var reg 8 %( example_top/Read_Fifo_wusdw_o [7:0] $end
$var reg 8 -( example_top/Write_Fifo_rusdw_o [7:0] $end
$var reg 1 5( example_top/app_rd_data_valid $end
$var reg 1 6( u_ila_0_app_rdy $end
$var reg 1 7( example_top/ddr3_allwr_flag $end
$var reg 1 8( example_top/ddr3_oneperiod_flag $end
$var reg 1 9( example_top/ddr3_onewr_flag $end
$var reg 1 :( example_top/ddr3read_en $end
$var reg 1 ;( example_top/ddr3write_en $end
$var reg 1 <( example_top/OnePeriod_flag $end
$var reg 1 =( example_top/Period_flag $end
$var reg 1 >( example_top/ProsessIn $end
$var reg 1 ?( example_top/ProsessIn1 $end
$var reg 1 @( example_top/Read_Fifo_empty $end
$var reg 1 A( example_top/Read_Fifo_full $end
$var reg 1 B( example_top/Read_Fifo_in_en1 $end
$var reg 1 C( example_top/Read_Fifo_rden $end
$var reg 1 D( example_top/Read_Fifo_rst $end
$var reg 1 E( example_top/Read_Fifo_wren $end
$var reg 1 F( example_top/Read_Over_flag $end
$var reg 1 G( example_top/StartSample1 $end
$var reg 1 H( example_top/Write_Fifo_empty $end
$var reg 1 I( example_top/Write_Fifo_full $end
$var reg 1 J( example_top/WriteSign $end
$var reg 1 K( _TRIGGER $end
$var reg 1 L( _WINDOW $end
$var reg 1 M( _GAP $end
$upscope $end
$enddefinitions $end
#0
$dumpvars
b0 "
b0 B
b0 b
b11010010000000001101000000000000110100100000000011010000000000001101001000000000110100100000000011010010000000001101001 &#
b0 H$
b0 e$
b11010000000000001101001000000000110100000000000011010000000000001101000000000000110100000000000011010000000000001101001 $%
b0 F&
b0 Q&
b1101000 U&
b0 ]&
b0 !(
b0 %(
b1 -(
05(
16(
07(
08(
09(
1:(
0;(
0<(
0=(
0>(
0?(
1@(
0A(
0B(
0C(
0D(
0E(
0F(
0G(
0H(
0I(
0J(
0K(
1L(
0M(
$end
#4
b1101001 U&
#9
b1101000 U&
#12
b1101001 U&
#13
b1101000 U&
#14
b1101001 U&
#17
b1101000 U&
#20
b1101001 U&
#23
b1101000 U&
#24
06(
0:(
#26
16(
1:(
#27
b1101001 U&
#28
b1101000 U&
#33
b1101001 U&
#37
b1101000 U&
#39
b1101001 U&
#41
b1101000 U&
#43
b1101001 U&
#44
b1101000 U&
#47
b1101001 U&
#49
b1101000 U&
#51
b1101001 U&
#55
b1101000 U&
#56
b1101001 U&
#57
b1101000 U&
#59
b1101001 U&
#62
b1101000 U&
#63
b1101001 U&
#64
b1101000 U&
#67
b1101001 U&
#69
b1101000 U&
#71
b1101001 U&
#72
b1101000 U&
#73
b1101001 U&
#74
b1101000 U&
#75
b1101001 U&
#76
b1101000 U&
#77
b1101001 U&
#79
b1101000 U&
#80
b1101001 U&
#82
b1101000 U&
#84
b1101001 U&
#85
b1101000 U&
#87
b1101001 U&
#88
b1101000 U&
#89
b1101001 U&
#91
b1101000 U&
#92
b1101001 U&
#93
b1101000 U&
#94
b1101001 U&
#95
b1101000 U&
#98
b1101001 U&
#101
b1101000 U&
#107
b1101001 U&
#110
b1101000 U&
#114
b1101001 U&
#115
b1101000 U&
#117
b1101001 U&
#119
b1101000 U&
#121
b1101001 U&
#122
b1101000 U&
#123
b1101001 U&
#124
06(
0:(
#126
16(
1:(
#127
b1101000 U&
#128
b1101001 U&
#130
b1101000 U&
#139
b1101001 U&
#141
b1101000 U&
#144
b1101001 U&
#145
b1101000 U&
#146
b1101001 U&
#148
b1101000 U&
#149
b1101001 U&
#150
b1101000 U&
#155
b1101001 U&
#158
b1101000 U&
#159
b1101001 U&
#163
b1101000 U&
#165
b1101001 U&
#166
b1101000 U&
#167
b1101001 U&
#168
b1101000 U&
#170
b1101001 U&
#173
b1101000 U&
#176
b1101001 U&
#177
b1101000 U&
#179
b1101001 U&
#180
b1101000 U&
#184
b1101001 U&
#185
b1101000 U&
#190
b1101001 U&
#191
b1101000 U&
#193
b1101001 U&
#197
b1101000 U&
#201
b1101001 U&
#203
b1101000 U&
#204
b1101001 U&
#205
b1101000 U&
#207
b1101001 U&
#208
b1101000 U&
#211
b1101001 U&
#212
b1101000 U&
#216
b1101001 U&
#217
b1101000 U&
#218
b1101001 U&
#220
b1101000 U&
#221
b1101001 U&
#224
06(
0:(
#226
16(
1:(
#228
b1101000 U&
#229
b1101001 U&
#235
b1101000 U&
#237
b1101001 U&
#241
b1101000 U&
#243
b1101001 U&
#244
b1101000 U&
#245
b1101001 U&
#246
b1101000 U&
#248
b1101001 U&
#250
b1101000 U&
#251
b1101001 U&
#252
b1101000 U&
#253
b1101001 U&
#254
b1101000 U&
#255
b1101001 U&
#256
b1101000 U&
#257
b1101001 U&
#260
b1101000 U&
#262
b1101001 U&
#263
b1101000 U&
#266
b1101001 U&
#268
b1101000 U&
#271
b1101001 U&
#272
b1101000 U&
#273
b1101001 U&
#277
b1101000 U&
#283
b1101001 U&
#285
b1101000 U&
#286
b1101001 U&
#287
b1101000 U&
#289
b1101001 U&
#290
b1101000 U&
#292
b1101001 U&
#294
b1101000 U&
#295
b1101001 U&
#296
b1101000 U&
#298
b1101001 U&
#300
b1101000 U&
#301
b1101001 U&
#302
b1101000 U&
#306
b1101001 U&
#307
b1101000 U&
#309
b1101001 U&
#310
b1101000 U&
#313
b1101001 U&
#316
b1101000 U&
#319
b1101001 U&
#321
b1101000 U&
#322
b1101001 U&
#324
b1101000 U&
06(
0:(
#325
b1101001 U&
#326
b1101000 U&
16(
1:(
#327
b1101001 U&
#329
b1101000 U&
#332
b1101001 U&
#337
b1101000 U&
#339
b1101001 U&
#340
b1101000 U&
#342
b1101001 U&
#344
b1101000 U&
#346
b1101001 U&
#347
b1101000 U&
#349
b1101001 U&
#350
b1101000 U&
#351
b1101001 U&
#352
b1101000 U&
#354
b1101001 U&
#355
b1101000 U&
#356
b1101001 U&
#357
b1101000 U&
#358
b1101001 U&
#359
b1101000 U&
#361
b1101001 U&
#362
b1101000 U&
#364
b1101001 U&
#367
b1101000 U&
#368
b1101001 U&
#372
b1101000 U&
#373
b1101001 U&
#374
b1101000 U&
#377
b1101001 U&
#378
b1101000 U&
#381
b1101001 U&
#382
b1101000 U&
#386
b1101001 U&
#387
b1101000 U&
#388
b1101001 U&
#389
b1101000 U&
#391
b1101001 U&
#392
b1101000 U&
#393
b1101001 U&
#394
b1101000 U&
#395
b1101001 U&
#396
b1101000 U&
#397
b1101001 U&
#398
b1101000 U&
#406
b1101001 U&
#407
b1101000 U&
#411
b1101001 U&
#413
b1101000 U&
#415
b1101001 U&
#417
b1101000 U&
#418
b1101001 U&
#420
b1101000 U&
#421
b1101001 U&
#423
b1101000 U&
#424
b1101001 U&
06(
0:(
#425
b1101000 U&
#426
16(
1:(
#428
b1101001 U&
#436
b1101000 U&
#438
b1101001 U&
#442
b1101000 U&
#443
b1101001 U&
#444
b1101000 U&
#449
b1101001 U&
#454
b1101000 U&
#455
b1101001 U&
#457
b1101000 U&
#459
b1101001 U&
#460
b1101000 U&
#462
b1101001 U&
#465
b1101000 U&
#466
b1101001 U&
#468
b1101000 U&
#471
b1101001 U&
#473
b1101000 U&
#474
b1101001 U&
#478
b1101000 U&
#482
b1101001 U&
#486
b1101000 U&
#487
b1101001 U&
#488
b1101000 U&
#491
b1101001 U&
#493
b1101000 U&
#494
b1101001 U&
#495
b1101000 U&
#496
b1101001 U&
#501
b1101000 U&
#502
b1101001 U&
#504
b1101000 U&
#506
b1101001 U&
#508
b1101000 U&
#510
b1101001 U&
#512
1K(
#515
b1101000 U&
#517
b1101001 U&
#520
b1101000 U&
#521
b1101001 U&
#523
b1101000 U&
#524
b1101001 U&
06(
0:(
#526
b1101000 U&
16(
1:(
#527
b1101001 U&
#529
b1101000 U&
#532
b1101001 U&
#534
b1101000 U&
#535
b1101001 U&
#536
b1101000 U&
#537
b1101001 U&
#543
b1101000 U&
#544
b1101001 U&
#545
b1101000 U&
#546
b1101001 U&
#547
b1101000 U&
#548
b1101001 U&
#549
b1101000 U&
#552
b1101001 U&
#554
b1101000 U&
#559
b1101001 U&
#560
b1101000 U&
#563
b1101001 U&
#566
b1101000 U&
#567
b1101001 U&
#569
b1101000 U&
#571
b1101001 U&
#574
b1101000 U&
#578
b1101001 U&
#579
b1101000 U&
#580
b1101001 U&
#581
b1101000 U&
#584
b1101001 U&
#587
b1101000 U&
#588
b1101001 U&
#589
b1101000 U&
#590
b1101001 U&
#591
b1101000 U&
#592
b1101001 U&
#593
b1101000 U&
#594
b1101001 U&
#595
b1101000 U&
#603
b1101001 U&
#605
b1101000 U&
#606
b1101001 U&
#607
b1101000 U&
#609
b1101001 U&
#610
b1101000 U&
#611
b1101001 U&
#612
b1101000 U&
#617
b1101001 U&
#618
b1101000 U&
#622
b1101001 U&
#623
b1101000 U&
#624
b1101001 U&
06(
0:(
#625
b1101000 U&
#626
b1101001 U&
16(
1:(
#627
b1101000 U&
#629
b1101001 U&
#630
b1101000 U&
#632
b1101001 U&
#634
b1101000 U&
#636
b1101001 U&
#637
b1101000 U&
#643
b1101001 U&
#644
b1101000 U&
#645
b1101001 U&
#649
b1101000 U&
#650
b1101001 U&
#651
b1101000 U&
#652
b1101001 U&
#653
b1101000 U&
#659
b1101001 U&
#660
b1101000 U&
#661
b1101001 U&
#662
b1101000 U&
#667
b1101001 U&
#668
b1101000 U&
#684
b1101001 U&
#685
b1101000 U&
#686
b1101001 U&
#687
b1101000 U&
#695
b1101001 U&
#696
b1101000 U&
#697
b1101001 U&
#698
b1101000 U&
#699
b1101001 U&
#700
b1101000 U&
#702
b1101001 U&
#703
b1101000 U&
#704
b1101001 U&
#705
b1101000 U&
#706
b1101001 U&
#707
b1101000 U&
#710
b1101001 U&
#711
b1101000 U&
#712
b1101001 U&
#715
b1101000 U&
#717
b1101001 U&
#720
b1101000 U&
#721
b1101001 U&
#722
b1101000 U&
#723
b1101001 U&
#724
b1101000 U&
06(
0:(
#726
16(
1:(
#727
b1101001 U&
#728
b1101000 U&
#734
b1101001 U&
#735
b1101000 U&
#736
b1101001 U&
#740
b1101000 U&
#742
b1101001 U&
#743
b1101000 U&
#744
b1101001 U&
#746
b1101000 U&
#748
b1101001 U&
#749
b1101000 U&
#750
b1101001 U&
#752
b1101000 U&
#766
b1101001 U&
#767
b1101000 U&
#771
b1101001 U&
#774
b1101000 U&
#781
b1101001 U&
#783
b1101000 U&
#784
b1101001 U&
#787
b1101000 U&
#788
b1101001 U&
#789
b1101000 U&
#790
b1101001 U&
#795
b1101000 U&
#797
b1101001 U&
#798
b1101000 U&
#799
b1101001 U&
#801
b1101000 U&
#802
b1101001 U&
#803
b1101000 U&
#807
b1101001 U&
#809
b1101000 U&
#810
b1101001 U&
#811
b1101000 U&
#812
b1101001 U&
#813
b1101000 U&
#814
b1101001 U&
#815
b1101000 U&
#820
b1101001 U&
#822
b1101000 U&
#824
06(
0:(
#825
b1101001 U&
#826
16(
1:(
#827
b1101000 U&
#828
b1101001 U&
#829
b1101000 U&
#830
b1101001 U&
#831
b1101000 U&
#835
b1101001 U&
#836
b1101000 U&
#837
b1101001 U&
#839
b1101000 U&
#842
b1101001 U&
#843
b1101000 U&
#847
b1101001 U&
#848
b1101000 U&
#849
b1101001 U&
#850
b1101000 U&
#851
b1101001 U&
#853
b1101000 U&
#854
b1101001 U&
#855
b1101000 U&
#859
b1101001 U&
#861
b1101000 U&
#863
b1101001 U&
#865
b1101000 U&
#866
b1101001 U&
#867
b1101000 U&
#868
b1101001 U&
#869
b1101000 U&
#871
b1101001 U&
#872
b1101000 U&
#873
b1101001 U&
#875
b1101000 U&
#876
b1101001 U&
#878
b1101000 U&
#879
b1101001 U&
#881
b1101000 U&
#884
b1101001 U&
#885
b1101000 U&
#886
b1101001 U&
#888
b1101000 U&
#889
b1101001 U&
#891
b1101000 U&
#892
b1101001 U&
#893
b1101000 U&
#895
b1101001 U&
#896
b1101000 U&
#897
b1101001 U&
#898
b1101000 U&
#900
b1101001 U&
#901
b1101000 U&
#902
b1101001 U&
#905
b1101000 U&
#908
b1101001 U&
#913
b1101000 U&
#914
b1101001 U&
#917
b1101000 U&
#919
b1101001 U&
#920
b1101000 U&
#923
b1101001 U&
#924
b1101000 U&
06(
0:(
#925
b1101001 U&
#926
16(
1:(
#927
b1101000 U&
#928
b1101001 U&
#929
b1101000 U&
#931
b1101001 U&
#932
b1101000 U&
#934
b1101001 U&
#936
b1101000 U&
#940
b1101001 U&
#943
b1101000 U&
#946
b1101001 U&
#951
b1101000 U&
#959
b1101001 U&
#960
b1101000 U&
#962
b1101001 U&
#963
b1101000 U&
#964
b1101001 U&
#967
b1101000 U&
#968
b1101001 U&
#969
b1101000 U&
#970
b1101001 U&
#972
b1101000 U&
#973
b1101001 U&
#975
b1101000 U&
#982
b1101001 U&
#983
b1101000 U&
#986
b1101001 U&
#987
b1101000 U&
#988
b1101001 U&
#990
b1101000 U&
#991
b1101001 U&
#993
b1101000 U&
#996
b1101001 U&
#997
b1101000 U&
#998
b1101001 U&
#999
b1101000 U&
#1000
b1101001 U&
#1002
b1101000 U&
#1004
b1101001 U&
#1005
b1101000 U&
#1009
b1101001 U&
#1013
b1101000 U&
#1018
b1101001 U&
#1019
b1101000 U&
#1022
b1101001 U&
