WaveWidthPhase2constrain/.Xil/Vivado-44116-DESKTOP-G3B5TCR/hw_ila_data_2/zip_work/waveform.vcd
$date
        2019-Dec-10 20:40:37
$end
$version
        Vivado v2017.4 (64-bit)
$end
$timescale
        1ps
$end
$scope module dut $end
$var reg 16 " example_top/MonopulseEx_Arithmetic1/Monopulse_extraction_1/send_count [15:0] $end
$var reg 8 2 example_top/MonopulseEx_Arithmetic1/Monopulse_extraction_1/Falling_edge_num [7:0] $end
$var reg 41 : example_top/MonopulseEx_Arithmetic1/Arithmetic1/Biquadrate_data [40:0] $end
$var reg 21 c u_ila_0_Square_data [20:0] $end
$var reg 33 x example_top/MonopulseEx_Arithmetic1/Arithmetic1/Cube_data [32:0] $end
$var reg 8 ;" example_top/MonopulseEx_Arithmetic1/Arithmetic1/Monopulse_data_vi [7:0] $end
$var reg 9 C" example_top/MonopulseEx_Arithmetic1/Arithmetic1/SubtractionMean_data1 [8:0] $end
$var reg 9 L" example_top/MonopulseEx_Arithmetic1/Arithmetic1/SubtractionMean_data_n [8:0] $end
$var reg 10 U" example_top/MonopulseEx_Arithmetic1/Arithmetic1/SubtractionMean_data2 [9:0] $end
$var reg 41 _" example_top/Fourth_moment [40:0] $end
$var reg 8 *# u_ila_0_Monopulse_data_1 [7:0] $end
$var reg 3 2# u_ila_0_Arithmetic_State [2:0] $end
$var reg 16 5# Monopulse_num [15:0] $end
$var reg 16 E# u_ila_0_Monopulse_data1 [15:0] $end
$var reg 6 U# example_top/Behind_area [5:0] $end
$var reg 10 [# Behind_area [15:6] $end
$var reg 16 e# example_top/Count [15:0] $end
$var reg 16 u# example_top/Read_Fifo_Out [15:0] $end
$var reg 33 '$ example_top/Third_moment [32:0] $end
$var reg 8 H$ example_top/Write_Fifo_datain [7:0] $end
$var reg 25 P$ example_top/ddr3read_en1 [24:0] $end
$var reg 32 i$ example_top/feature_num [31:0] $end
$var reg 16 +% example_top/ii [15:0] $end
$var reg 16 ;% example_top/Pulse_point_num [15:0] $end
$var reg 11 K% example_top/Read_Fifo_rusdw_o [10:0] $end
$var reg 25 V% example_top/ddr3read_en2 [24:0] $end
$var reg 16 o% example_top/time_cnt [15:0] $end
$var reg 2 !& u_ila_0_WaveState [1:0] $end
$var reg 24 #& example_top/Second_moment [23:0] $end
$var reg 1 ;& u_ila_0_FeatureExtraction_flag $end
$var reg 1 <& SendIRQ_OBUF $end
$var reg 1 =& example_top/Read_Fifo_empty $end
$var reg 1 >& u_ila_0_Read_Fifo_rden $end
$var reg 1 ?& example_top/S_FeatureExtraction_flag_reg1 $end
$var reg 1 @& _TRIGGER $end
$var reg 1 A& _WINDOW $end
$var reg 1 B& _GAP $end
$upscope $end
$enddefinitions $end
#0
$dumpvars
b111 "
b0 2
b0 :
b0 c
b0 x
b0 ;"
b0 C"
b0 L"
b0 U"
b0 _"
b1101001 *#
b11 2#
b0 5#
b0 E#
b0 U#
b0 [#
b0 e#
b1101001 u#
b0 '$
b1101001 H$
b0 P$
b0 i$
b0 +%
b100 ;%
b1000111110 K%
b0 V%
b0 o%
b0 !&
b0 #&
0;&
0<&
0=&
1>&
0?&
0@&
1A&
0B&
$end
#1
b1000111101 K%
#2
b1000111100 K%
#3
b1000111011 K%
#4
b1000111010 K%
#5
b1000111001 K%
#6
b1000111000 K%
#7
b1000110111 K%
#8
b1101000 H$
b1000110110 K%
#9
b1000110101 K%
#10
b1101000 u#
b1000110100 K%
#11
b1101000 *#
b1101001 H$
b1000110011 K%
#12
b1101001 u#
b1000110010 K%
#13
b1101001 *#
b1000110001 K%
#14
b1000110000 K%
#15
b1000101111 K%
#16
b1000101110 K%
#17
b1000101101 K%
#18
b1000101100 K%
#19
b1000101011 K%
#20
b1000101010 K%
#21
b1000101001 K%
#22
b1101000 u#
b1101000 H$
b1000101000 K%
#23
b1101000 *#
b1000100111 K%
#24
b1101001 u#
b1101001 H$
b1000100110 K%
#25
b1101001 *#
b1000100101 K%
#26
b1101000 u#
b1000100100 K%
#27
b1101000 *#
b1000100011 K%
#28
b1000100010 K%
#29
b1000100001 K%
#30
b1101000 H$
b1000100000 K%
#31
b1000011111 K%
#32
b1101001 u#
b1101001 H$
b1000011110 K%
#33
b1101001 *#
b1101000 H$
b1000011101 K%
#34
b1000011100 K%
#35
b1101001 H$
b1000011011 K%
#36
b1000011010 K%
#37
b1000011001 K%
#38
b1000011000 K%
#39
b1000010111 K%
#40
b1101000 H$
b1000010110 K%
#41
b1101001 H$
b1000010101 K%
#42
b1000010100 K%
#43
b1000010011 K%
#44
b1000010010 K%
#45
b1000010001 K%
#46
b1000010000 K%
#47
b1000001111 K%
#48
b1000001110 K%
#49
b1101000 H$
b1000001101 K%
#50
b1000001100 K%
#51
b1101001 H$
b1000001011 K%
#52
b1101000 u#
b1000001010 K%
#53
b1101000 *#
b1000001001 K%
#54
b1000001000 K%
#55
b1101001 u#
b1000000111 K%
#56
b1101001 *#
b1000000110 K%
#57
b1101000 H$
b1000000101 K%
#58
b1000000100 K%
#59
b1101001 H$
b1000000011 K%
#60
b1101000 u#
b1000000010 K%
#61
b1101000 *#
b1000000001 K%
#62
b1000000000 K%
#63
b111111111 K%
#64
b1101001 u#
b111111110 K%
#65
b1101001 *#
b111111101 K%
#66
b111111100 K%
#67
b111111011 K%
#68
b111111010 K%
#69
b111111001 K%
#70
b111111000 K%
#71
b1101000 u#
b111110111 K%
#72
b1101000 *#
b1101001 u#
b111110110 K%
#73
b1101001 *#
b111110101 K%
#74
b111110100 K%
#75
b111110011 K%
#76
b111110010 K%
#77
b111110001 K%
#78
b1101000 H$
b111110000 K%
#79
b111101111 K%
#80
b1101001 H$
b111101110 K%
#81
b1101000 H$
b111101101 K%
#82
b111101100 K%
#83
b111101011 K%
#84
b111101010 K%
#85
b1101001 H$
b111101001 K%
#86
b111101000 K%
#87
b111100111 K%
#88
b111100110 K%
#89
b111100101 K%
#90
b111100100 K%
#91
b111100011 K%
#92
b111100010 K%
#93
b111100001 K%
#94
b111100000 K%
#95
b1101000 u#
b111011111 K%
#96
b1101000 *#
b1101001 u#
b111011110 K%
#97
b1101001 *#
b111011101 K%
#98
b111011100 K%
#99
b111011011 K%
#100
b1101000 u#
b111011010 K%
#101
b1101000 *#
b111011001 K%
#102
b1101001 u#
b111011000 K%
#103
b1101001 *#
b1101000 u#
b111010111 K%
#104
b1101000 *#
b1101001 u#
b111010110 K%
#105
b1101001 *#
b111010101 K%
#106
b111010100 K%
#107
b111010011 K%
#108
b1101000 u#
b111010010 K%
#109
b1101000 *#
b111010001 K%
#110
b1101001 u#
b111010000 K%
#111
b1101001 *#
b111001111 K%
#112
b111001110 K%
#113
b111001101 K%
#114
b111001100 K%
#115
b111001011 K%
#116
b1101000 u#
b111001010 K%
#117
b1101000 *#
b111001001 K%
#118
b1101001 u#
b111001000 K%
#119
b1101001 *#
b111000111 K%
#120
b111000110 K%
#121
b111000101 K%
#122
b111000100 K%
#123
b1101000 H$
b111000011 K%
#124
b1101000 u#
b111000010 K%
#125
b1101000 *#
b1101001 H$
b111000001 K%
#126
b1101001 u#
b1101000 H$
b111000000 K%
#127
b1101001 *#
b110111111 K%
#128
b1101000 u#
b110111110 K%
#129
b1101000 *#
b1101001 H$
b110111101 K%
#130
b1101001 u#
b110111100 K%
#131
b1101001 *#
b110111011 K%
#132
b110111010 K%
#133
b110111001 K%
#134
b110111000 K%
#135
b110110111 K%
#136
b1101000 u#
b1101000 H$
b110110110 K%
#137
b1101000 *#
b1101001 H$
b110110101 K%
#138
b1101001 u#
b110110100 K%
#139
b1101001 *#
b1101000 H$
b110110011 K%
#140
b110110010 K%
#141
b1101001 H$
b110110001 K%
#142
b1101000 H$
b110110000 K%
#143
b110101111 K%
#144
b1101001 H$
b110101110 K%
#145
b1101000 H$
b110101101 K%
#146
b110101100 K%
#147
b1101001 H$
b110101011 K%
#148
b110101010 K%
#149
b110101001 K%
#150
b110101000 K%
#151
b110100111 K%
#152
b110100110 K%
#153
b110100101 K%
#154
b110100100 K%
#155
b110100011 K%
#156
b110100010 K%
#157
b1101000 H$
b110100001 K%
#158
b1101001 H$
b110100000 K%
#159
b110011111 K%
#160
b110011110 K%
#161
b110011101 K%
#162
b110011100 K%
#163
b110011011 K%
#164
b110011010 K%
#165
b110011001 K%
#166
b110011000 K%
#167
b110010111 K%
#168
b110010110 K%
#169
b110010101 K%
#170
b110010100 K%
#171
b1101000 H$
b110010011 K%
#172
b110010010 K%
#173
b1101001 H$
b110010001 K%
#174
b110010000 K%
#175
b1101000 u#
b110001111 K%
#176
b1101000 *#
b1101001 u#
b1101000 H$
b110001110 K%
#177
b1101001 *#
b1101001 H$
b110001101 K%
#178
b1101000 u#
b110001100 K%
#179
b1101000 *#
b1101000 H$
b110001011 K%
#180
b1101001 u#
b110001010 K%
#181
b1101001 *#
b1101001 H$
b110001001 K%
#182
b1101000 H$
b110001000 K%
#183
b1101000 u#
b110000111 K%
#184
b1101000 *#
b1101001 u#
b1101001 H$
b110000110 K%
#185
b1101001 *#
b110000101 K%
#186
b1101000 u#
b110000100 K%
#187
b1101000 *#
b110000011 K%
#188
b1101001 u#
b110000010 K%
#189
b1101001 *#
b110000001 K%
#190
b110000000 K%
#191
b101111111 K%
#192
b101111110 K%
#193
b101111101 K%
#194
b101111100 K%
#195
b1101000 H$
b101111011 K%
#196
b101111010 K%
#197
b1101001 H$
b101111001 K%
#198
b1101000 H$
b101111000 K%
#199
b101110111 K%
#200
b1101001 H$
b101110110 K%
#201
b101110101 K%
#202
b101110100 K%
#203
b101110011 K%
#204
b101110010 K%
#205
b1101000 H$
b101110001 K%
#206
b101110000 K%
#207
b101101111 K%
#208
b1101001 H$
b101101110 K%
#209
b101101101 K%
#210
b1101000 u#
b101101100 K%
#211
b1101000 *#
b101101011 K%
#212
b1101001 u#
b101101010 K%
#213
b1101001 *#
b101101001 K%
#214
b1101000 u#
b101101000 K%
#215
b1101000 *#
b1101001 u#
b101100111 K%
#216
b1101001 *#
b101100110 K%
#217
b101100101 K%
#218
b1101000 u#
b101100100 K%
#219
b1101000 *#
b101100011 K%
#220
b1101001 u#
b101100010 K%
#221
b1101001 *#
b1101000 H$
b101100001 K%
#222
b1101000 u#
b1101001 H$
b101100000 K%
#223
b1101000 *#
b101011111 K%
#224
b1101001 u#
b101011110 K%
#225
b1101001 *#
b1101000 H$
b101011101 K%
#226
b101011100 K%
#227
b1101001 H$
b101011011 K%
#228
b101011010 K%
#229
b1101000 H$
b101011001 K%
#230
b1101000 u#
b1101001 H$
b101011000 K%
#231
b1101000 *#
b101010111 K%
#232
b1101001 u#
b101010110 K%
#233
b1101001 *#
b101010101 K%
#234
b101010100 K%
#235
b101010011 K%
#236
b101010010 K%
#237
b101010001 K%
#238
b1101000 u#
b101010000 K%
#239
b1101000 *#
b1101001 u#
b101001111 K%
#240
b1101001 *#
b1101000 H$
b101001110 K%
#241
b1101001 H$
b101001101 K%
#242
b101001100 K%
#243
b101001011 K%
#244
b101001010 K%
#245
b101001001 K%
#246
b1101000 H$
b101001000 K%
#247
b101000111 K%
#248
b1101001 H$
b101000110 K%
#249
b101000101 K%
#250
b101000100 K%
#251
b1101000 H$
b101000011 K%
#252
b101000010 K%
#253
b1101001 H$
b101000001 K%
#254
b101000000 K%
#255
b100111111 K%
#256
b100111110 K%
#257
b100111101 K%
#258
b100111100 K%
#259
b1101000 H$
b100111011 K%
#260
b1101000 u#
b100111010 K%
#261
b1101000 *#
b100111001 K%
#262
b1101001 H$
b100111000 K%
#263
b1101001 u#
b100110111 K%
#264
b1101001 *#
b100110110 K%
#265
b100110101 K%
#266
b100110100 K%
#267
b1101000 H$
b100110011 K%
#268
b1101000 u#
b100110010 K%
#269
b1101000 *#
b1101001 H$
b100110001 K%
#270
b1101000 H$
b100110000 K%
#271
b100101111 K%
#272
b1101001 u#
b1101001 H$
b100101110 K%
#273
b1101001 *#
b1101000 H$
b100101101 K%
#274
b1101000 u#
b100101100 K%
#275
b1101000 *#
b1101001 H$
b100101011 K%
#276
b1101001 u#
b100101010 K%
#277
b1101001 *#
b100101001 K%
#278
b1101000 u#
b100101000 K%
#279
b1101000 *#
b100100111 K%
#280
b1101001 u#
b100100110 K%
#281
b1101001 *#
b100100101 K%
#282
b100100100 K%
#283
b100100011 K%
#284
b100100010 K%
#285
b100100001 K%
#286
b100100000 K%
#287
b100011111 K%
#288
b1101000 u#
b1101000 H$
b100011110 K%
#289
b1101000 *#
b1101001 H$
b100011101 K%
#290
b1101001 u#
b100011100 K%
#291
b1101001 *#
b100011011 K%
#292
b1101000 u#
b100011010 K%
#293
b1101000 *#
b100011001 K%
#294
b1101001 u#
b100011000 K%
#295
b1101001 *#
b100010111 K%
#296
b1101000 u#
b100010110 K%
#297
b1101000 *#
b100010101 K%
#298
b1101001 u#
b100010100 K%
#299
b1101001 *#
b1101010 H$
b100010011 K%
#300
b1101000 u#
b100010010 K%
#301
b1101000 *#
b1101001 H$
b100010001 K%
#302
b1101001 u#
b100010000 K%
#303
b1101001 *#
b100001111 K%
#304
b1101000 H$
b100001110 K%
#305
b1101001 H$
b100001101 K%
#306
b1101000 u#
b100001100 K%
#307
b1101000 *#
b100001011 K%
#308
b1101001 u#
b100001010 K%
#309
b1101001 *#
b100001001 K%
#310
b100001000 K%
#311
b100000111 K%
#312
b100000110 K%
#313
b100000101 K%
#314
b1101000 u#
b100000100 K%
#315
b1101000 *#
b100000011 K%
#316
b1101001 u#
b100000010 K%
#317
b1101001 *#
b100000001 K%
#318
b100000000 K%
#319
b11111111 K%
#320
b11111110 K%
#321
b11111101 K%
#322
b11111100 K%
#323
b11111011 K%
#324
b1101000 u#
b11111010 K%
#325
b1101000 *#
b11111001 K%
#326
b1101001 u#
b11111000 K%
#327
b1101001 *#
b11110111 K%
#328
b1101000 H$
b11110110 K%
#329
b1101001 H$
b11110101 K%
#330
b11110100 K%
#331
b11110011 K%
#332
b1101000 u#
b11110010 K%
#333
b1101000 *#
b11110001 K%
#334
b1101001 u#
b11110000 K%
#335
b1101001 *#
b1101000 u#
b11101111 K%
#336
b1101000 *#
b1101001 u#
b11101110 K%
#337
b1101001 *#
b11101101 K%
#338
b11101100 K%
#339
b1101000 H$
b11101011 K%
#340
b11101010 K%
#341
b1101001 H$
b11101001 K%
#342
b11101000 K%
#343
b1101000 u#
b11100111 K%
#344
b1101000 *#
b1101001 u#
b1 P$
b11100110 K%
#345
b1101001 *#
b11100101 K%
b10 V%
#346
b11 P$
b11100100 K%
#347
b11100011 K%
b110 V%
#348
b111 P$
b11100010 K%
#349
b11100001 K%
b1110 V%
#350
b1101000 H$
b1111 P$
b11100000 K%
#351
b11011111 K%
b11110 V%
#352
b1101000 u#
b1101001 H$
b11111 P$
b11011110 K%
#353
b1101000 *#
b11011101 K%
b111110 V%
#354
b1101001 u#
b111111 P$
b11011100 K%
#355
b1101001 *#
b11011011 K%
b1111110 V%
#356
b1111111 P$
b11011010 K%
#357
b1101000 H$
b11011001 K%
b11111110 V%
#358
b1101001 H$
b11111111 P$
b11011000 K%
#359
b11010111 K%
b111111110 V%
#360
b1101000 u#
b111111111 P$
b11010110 K%
#361
b1101000 *#
b11010101 K%
b1111111110 V%
#362
b1101001 u#
b1111111111 P$
b11010100 K%
#363
b1101001 *#
b11010011 K%
b11111111110 V%
#364
b11111111111 P$
b11010010 K%
#365
b11010001 K%
b111111111110 V%
#366
b111111111111 P$
b11010000 K%
#367
b11001111 K%
b1111111111110 V%
#368
b1111111111111 P$
b11001110 K%
#369
b11001101 K%
b11111111111110 V%
#370
b1101000 u#
b11111111111111 P$
b11001100 K%
#371
b1101000 *#
b1101000 H$
b11001011 K%
b111111111111110 V%
#372
b1101001 u#
b111111111111111 P$
b11001010 K%
#373
b1101001 *#
b1101001 H$
b11001001 K%
b1111111111111110 V%
#374
b1111111111111111 P$
b11001000 K%
#375
b11000111 K%
b11111111111111110 V%
#376
b11111111111111111 P$
b11000110 K%
#377
b11000101 K%
b111111111111111110 V%
#378
b1101000 u#
b111111111111111111 P$
b11000100 K%
#379
b1101000 *#
b11000011 K%
b1111111111111111110 V%
#380
b1101001 u#
b1111111111111111111 P$
b11000010 K%
#381
b1101001 *#
b1101000 H$
b11000001 K%
b11111111111111111110 V%
#382
b1101001 H$
b11111111111111111111 P$
b11000000 K%
#383
b100000000 u#
b10111111 K%
b111111111111111111110 V%
#384
b0 *#
b1 u#
b111111111111111111111 P$
b10111110 K%
b1 !&
#385
b1001 "
b1001100 u#
b1101000 H$
b110 ;%
b10111101 K%
b1111111111111111111110 V%
#386
b1010 "
b100101100111000 u#
b1111111111111111111111 P$
b111 ;%
b10111100 K%
#387
b1011 "
b0 u#
b1000 ;%
b10111011 K%
b11111111111111111111110 V%
#388
b1100 "
b11111111111111111111111 P$
b1001 ;%
b10111010 K%
b10 !&
#389
b1101 "
b1 2
b1101001 H$
b1010 ;%
b10111001 K%
b111111111111111111111110 V%
#390
b1110 "
b10 2
b111111111111111111111111 P$
b1011 ;%
b10111000 K%
#391
b1111 "
b11 2
b100000000 u#
b1100 ;%
b10110111 K%
b1111111111111111111111110 V%
#392
b10000 "
b100 2
b1 u#
b1111111111111111111111111 P$
b1101 ;%
b10110110 K%
b1 !&
#393
b10001 "
b0 2
b1001100 u#
b1101000 H$
b1110 ;%
b10110101 K%
#394
b10010 "
b100101100111000 u#
b1111 ;%
b10110100 K%
#395
b10011 "
b0 u#
b10000 ;%
b10110011 K%
#396
b10100 "
b10001 ;%
b10110010 K%
b10 !&
#397
b10101 "
b1 2
b1101001 H$
b10010 ;%
b10110001 K%
#398
b10110 "
b10 2
b10011 ;%
b10110000 K%
#399
b10111 "
b11 2
b1101001 u#
b10100 ;%
b10110111 K%
#400
b11000 "
b100 2
b10101 ;%
b10110110 K%
#401
b11001 "
b101 2
b10110 ;%
b10110101 K%
#402
b11010 "
b110 2
b10111 ;%
b10110100 K%
#403
b11011 "
b111 2
b11000 ;%
b10110011 K%
#404
b11100 "
b1000 2
b1101000 u#
b11001 ;%
b10110010 K%
#405
b11101 "
b1001 2
b11010 ;%
b10110001 K%
#406
b11110 "
b1010 2
b11011 ;%
b10110000 K%
#407
b11111 "
b1011 2
b1101001 u#
b11100 ;%
b10101111 K%
#408
b100000 "
b1100 2
b11101 ;%
b10101110 K%
#409
b100001 "
b1101 2
b11110 ;%
b10101101 K%
#410
b100010 "
b1110 2
b11111 ;%
b10101100 K%
#411
b100011 "
b1111 2
b100000 ;%
b10101011 K%
#412
b100100 "
b10000 2
b1101000 u#
b100001 ;%
b10101010 K%
#413
b100101 "
b10001 2
b1101000 H$
b100010 ;%
b10110001 K%
#414
b100110 "
b10010 2
b1101001 H$
b100011 ;%
b10110000 K%
#415
b100111 "
b10011 2
b1101001 u#
b100100 ;%
b10110111 K%
#416
b101000 "
b10100 2
b1101000 u#
b100101 ;%
b10110110 K%
#417
b101001 "
b10101 2
b100110 ;%
b10111101 K%
b0 !&
1;&
0>&
#418
b10 2#
b100110 E#
b1 e#
b1111111111111111111111110 P$
b10111100 K%
#419
b100110 5#
b10 e#
b11000100 K%
b1111111111111111111111100 V%
b1 o%
#420
b11 e#
b1111111111111111111111100 P$
b10 o%
#421
b1101000 E#
b100 e#
b1101000 H$
b11001100 K%
b1111111111111111111111000 V%
b11 o%
#422
b1101000 ;"
b1101001 E#
b101 e#
b1101001 H$
b1111111111111111111111000 P$
b100 o%
#423
b1101001 ;"
b110 e#
b11010100 K%
b1111111111111111111110000 V%
b101 o%
#424
b101001 U#
b1 [#
b111 e#
b1111111111111111111110000 P$
b110 o%
#425
b0 E#
b10010 U#
b11 [#
b1000 e#
b11011100 K%
b1111111111111111111100000 V%
b111 o%
#426
b0 ;"
b1 E#
b1001 e#
b1111111111111111111100000 P$
b1000 o%
#427
b1 ;"
b1001100 E#
b10011 U#
b1010 e#
b11100100 K%
b1111111111111111111000000 V%
b1001 o%
#428
b1001100 ;"
b111000 E#
b11111 U#
b100 [#
b1011 e#
b1111111111111111111000000 P$
b1010 o%
#429
b111000 ;"
b0 E#
b10111 U#
b101 [#
b1100 e#
b11101100 K%
b1111111111111111110000000 V%
b1011 o%
#430
b0 ;"
b1101 e#
b1111111111111111110000000 P$
b1100 o%
#431
b1110 e#
b11110100 K%
b1111111111111111100000000 V%
b1101 o%
#432
b1111 e#
b1101000 H$
b1111111111111111100000000 P$
b1110 o%
#433
b10000 e#
b1101001 H$
b11111100 K%
b1111111111111111000000000 V%
b1111 o%
#434
b1 E#
b10001 e#
b1111111111111111000000000 P$
b10000 o%
#435
b1 ;"
b1001100 E#
b11000 U#
b10010 e#
b100000100 K%
b1111111111111110000000000 V%
b10001 o%
#436
b1001100 ;"
b111000 E#
b100100 U#
b110 [#
b10011 e#
b1111111111111110000000000 P$
b10010 o%
#437
b111000 ;"
b0 E#
b11100 U#
b111 [#
b10100 e#
b1101000 H$
b100001100 K%
b1111111111111100000000000 V%
b10011 o%
#438
b0 ;"
b10101 e#
b1111111111111100000000000 P$
b10100 o%
#439
b10110 e#
b100010100 K%
b1111111111111000000000000 V%
b10101 o%
#440
b10111 e#
b1101001 H$
b1111111111111000000000000 P$
b10110 o%
#441
b1101001 E#
b11000 e#
b100011100 K%
b1111111111110000000000000 V%
b10111 o%
#442
b1101001 ;"
b101 U#
b1001 [#
b11001 e#
b1111111111110000000000000 P$
b11000 o%
#443
b101110 U#
b1010 [#
b11010 e#
b100100100 K%
b1111111111100000000000000 V%
b11001 o%
#444
b10111 U#
b1100 [#
b11011 e#
b1111111111100000000000000 P$
b11010 o%
#445
b0 U#
b1110 [#
b11100 e#
b1101000 H$
b100101100 K%
b1111111111000000000000000 V%
b11011 o%
#446
b1101000 E#
b101001 U#
b1111 [#
b11101 e#
b1101001 H$
b1111111111000000000000000 P$
b11100 o%
#447
b1101000 ;"
b10001 U#
b10001 [#
b11110 e#
b100110100 K%
b1111111110000000000000000 V%
b11101 o%
#448
b111001 U#
b10010 [#
b11111 e#
b1111111110000000000000000 P$
b11110 o%
#449
b1101001 E#
b100001 U#
b10100 [#
b100000 e#
b100111100 K%
b1111111100000000000000000 V%
b11111 o%
#450
b1101001 ;"
b1010 U#
b10110 [#
b100001 e#
b1111111100000000000000000 P$
b100000 o%
#451
b110011 U#
b10111 [#
b100010 e#
b101000100 K%
b1111111000000000000000000 V%
b100001 o%
#452
b11100 U#
b11001 [#
b100011 e#
b1111111000000000000000000 P$
b100010 o%
#453
b101 U#
b11011 [#
b100100 e#
b101001100 K%
b1111110000000000000000000 V%
b100011 o%
#454
b1101000 E#
b101110 U#
b11100 [#
b100101 e#
b1111110000000000000000000 P$
b100100 o%
#455
b1101000 ;"
b10110 U#
b11110 [#
b100110 e#
b101010100 K%
b1111100000000000000000000 V%
b100101 o%
#456
b111110 U#
b11111 [#
b100111 e#
b1101000 H$
b1111100000000000000000000 P$
b100110 o%
#457
b1101001 E#
b100110 U#
b100001 [#
b101000 e#
b1101001 H$
b101011100 K%
b1111000000000000000000000 V%
b100111 o%
#458
b1101001 ;"
b1101000 E#
b1111 U#
b100011 [#
b101001 e#
b1111000000000000000000000 P$
b101000 o%
#459
b1101000 ;"
b110 2#
b0 E#
b110111 U#
b100100 [#
b101010 e#
b101100100 K%
b1110000000000000000000000 V%
b101001 o%
#460
b0 ;"
b1110000000000000000000000 P$
b0 o%
#461
b111 2#
b101101100 K%
b1100000000000000000000000 V%
#462
b1100000000000000000000000 P$
b1 o%
#463
b101 2#
b101110100 K%
b1000000000000000000000000 V%
#464
b1000000000000000000000000 P$
b0 o%
#465
b100 2#
b101111100 K%
b0 V%
b1 o%
#466
b100100 L"
b0 P$
b1 +%
b10 o%
#467
b100100 C"
b100101 L"
b10 +%
b110000100 K%
b11 o%
#468
b10100010000 c
b1101000 ;"
b100101 C"
b100100 U"
b11 +%
b100 o%
#469
b110011010000100000000 :
b10101011001 c
b1101001 ;"
b100101 U"
b100 +%
b110001100 K%
b101 o%
b10100010000 #&
#470
b111001001100011110001 :
b1011011001000000 x
b110111100 L"
b110011010000100000000 _"
b101 +%
b110 o%
b101001101001 #&
#471
b1100010111011101 x
b1000100 C"
b110111101 L"
b1101100011100111110001 _"
b1011011001000000 '$
b110 +%
b110010100 K%
b111 o%
b111111000010 #&
#472
b1001000010000 c
b0 ;"
b1000011 C"
b1000 L"
b1000100 U"
b10100101101001011100010 _"
b10111110000011101 '$
b111 +%
b1000 o%
b1010100011011 #&
#473
b1010001100100000100000000 :
b1000110001001 c
b1 ;"
b1000 C"
b111110100 L"
b1000011 U"
b11011110110101111010011 _"
b100100000111111010 '$
b1000 +%
b1001 o%
b10011100101011 #&
#474
b1001100110111101101010001 :
b1000000 c
b111111111111110110011001111000000 x
b1001100 ;"
b1100 C"
b110111100 L"
b1000 U"
b1101101011010110011010011 _"
b110000011111010111 '$
b1001 +%
b1010 o%
b11100010110100 #&
#475
b1000000000000 :
b10010000 c
b111111111111110110110100100100101 x
b111000 ;"
b1000100 C"
b1100 U"
b10111010010010100000100100 _"
b111111111111111100011101110010111 '$
b1101000 H$
b1010 +%
b1011 o%
b11100011110100 #&
#476
b101000100000000 :
b1001000010000 c
b1000000000 x
b0 ;"
b1000100 U"
b10111010010011100000100100 _"
b111111111111110011010010010111100 '$
b1011 +%
b1100 o%
b11100110000100 #&
#477
b1010001100100000100000000 :
b111111111111111111111100101000000 x
b10111010011000100100100100 _"
b111111111111110011010011010111100 '$
b1101001 H$
b1100 +%
b1101 o%
b100101110010100 #&
#478
b111111111111110110011001111000000 x
b100001011111100101000100100 _"
b111111111111110011001111111111100 '$
b1101 +%
b1110 o%
b101110110100100 #&
#479
b110111101 L"
b101011101100000101100100100 _"
b111111111111101001101001110111100 '$
b1110 +%
b1111 o%
b110111110110100 #&
#480
b1000011 C"
b1000 L"
b110101111000100110000100100 _"
b111111111111100000000011101111100 '$
b1111 +%
b10000 o%
b1000000111000100 #&
#481
b1000110001001 c
b1 ;"
b1000 C"
b111110100 L"
b1000011 U"
b1000000000101000110100100100 _"
b111111111111010110011101100111100 '$
b10000 +%
b10001 o%
b1001001111010100 #&
#482
b1001100110111101101010001 :
b1000000 c
b1001100 ;"
b1100 C"
b110111100 L"
b1000 U"
b1001010010001100111000100100 _"
b111111111111001100110111011111100 '$
b10001 +%
b10010 o%
b1010010101011101 #&
#483
b1000000000000 :
b10010000 c
b111111111111110110110100100100101 x
b111000 ;"
b1000100 C"
b1100 U"
b1010011111000100100101110101 _"
b111111111111000011010001010111100 '$
b1101000 H$
b10010 +%
b10011 o%
b1010010110011101 #&
#484
b101000100000000 :
b1001000010000 c
b1000000000 x
b0 ;"
b1000100 U"
b1010011111000101100101110101 _"
b111111111110111010000101111100001 '$
b10011 +%
b10100 o%
b1010011000101101 #&
#485
b1010001100100000100000000 :
b111111111111111111111100101000000 x
b1010011111001010101001110101 _"
b111111111110111010000110111100001 '$
b1101001 H$
b10100 +%
b10101 o%
b1011100000111101 #&
#486
b111111111111110110011001111000000 x
b100101 L"
b1011110000101110101101110101 _"
b111111111110111010000011100100001 '$
b10101 +%
b10110 o%
b1100101001001101 #&
#487
b100101 C"
b1101000010010010110001110101 _"
b111111111110110000011101011100001 '$
b10110 +%
b10111 o%
b1101110001011101 #&
#488
b10101011001 c
b1101001 ;"
b100101 U"
b1110010011110110110101110101 _"
b111111111110100110110111010100001 '$
b10111 +%
b11000 o%
b1110111001101101 #&
#489
b111001001100011110001 :
b1111100101011010111001110101 _"
b111111111110011101010001001100001 '$
b11000 +%
b11001 o%
b1111001111000110 #&
#490
b1100010111011101 x
b1111101100100100011101100110 _"
b111111111110010011101011000100001 '$
b11001 +%
b11010 o%
b1111100100011111 #&
#491
b100100 L"
b1111110011101110000001010111 _"
b111111111110010101001101111111110 '$
b11010 +%
b11011 o%
b1111111001111000 #&
#492
b100100 C"
b1111111010110111100101001000 _"
b111111111110010110110000111011011 '$
b11011 +%
b11100 o%
b10000001111010001 #&
#493
b10100010000 c
b1101000 ;"
b100100 U"
b10000000010000001001000111001 _"
b111111111110011000010011110111000 '$
b11100 +%
b11101 o%
b10000100100101010 #&
#494
b110011010000100000000 :
b100101 L"
b10000001001001010101100101010 _"
b111111111110011001110110110010101 '$
b11101 +%
b11110 o%
b10000111000111010 #&
#495
b1011011001000000 x
b100101 C"
b10000001111100100110000101010 _"
b111111111110011011011001101110010 '$
b11110 +%
b11111 o%
b10001001101001010 #&
#496
b10101011001 c
b1101001 ;"
b100101 U"
b10000010101111110110100101010 _"
b111111111110011100110100110110010 '$
b11111 +%
b100000 o%
b10001100001011010 #&
#497
b111001001100011110001 :
b10000011100011000111000101010 _"
b111111111110011110001111111110010 '$
b1101000 H$
b100000 +%
b100001 o%
b10001110110110011 #&
#498
b1100010111011101 x
b10000100011100010011100011011 _"
b111111111110011111101011000110010 '$
b100001 +%
b100010 o%
b10010001100001100 #&
#499
b100100 L"
b10000101010101100000000001100 _"
b111111111110100001001110000001111 '$
b100010 +%
b100011 o%
b10010100001100101 #&
#500
b100100 C"
b10000110001110101100011111101 _"
b111111111110100010110000111101100 '$
b100011 +%
b100100 o%
b10010110110111110 #&
#501
b10100010000 c
b1101000 ;"
b100100 U"
b10000111000111111000111101110 _"
b111111111110100100010011111001001 '$
b1101001 H$
b100100 +%
b100101 o%
b10011001100010111 #&
#502
b110011010000100000000 :
b100101 L"
b10001000000001000101011011111 _"
b111111111110100101110110110100110 '$
b1101000 H$
b100101 +%
b100110 o%
b10011100000100111 #&
#503
b1011011001000000 x
b100101 C"
b100100 L"
b10001000110100010101111011111 _"
b111111111110100111011001110000011 '$
b100110 +%
b100111 o%
b10011110100110111 #&
