WaveWidthPhase2constrain/.Xil/Vivado-11904-DESKTOP-G3B5TCR/hw_ila_data_2/zip_work/waveform.vcd
$date
        2019-Dec-17 21:18:52
$end
$version
        Vivado v2017.4 (64-bit)
$end
$timescale
        1ps
$end
$scope module dut $end
$var reg 33 " example_top/MonopulseEx_Arithmetic1/Arithmetic1/Cube_data [32:0] $end
$var reg 41 C example_top/MonopulseEx_Arithmetic1/Arithmetic1/Biquadrate_data [40:0] $end
$var reg 8 l example_top/MonopulseEx_Arithmetic1/Arithmetic1/Monopulse_data_vi [7:0] $end
$var reg 21 t u_ila_1_Square_data [20:0] $end
$var reg 10 +" example_top/MonopulseEx_Arithmetic1/Arithmetic1/SubtractionMean_data2 [9:0] $end
$var reg 9 5" example_top/MonopulseEx_Arithmetic1/Arithmetic1/SubtractionMean_data_n [8:0] $end
$var reg 16 >" example_top/MonopulseEx_Arithmetic1/Monopulse_extraction_1/send_count [15:0] $end
$var reg 6 N" example_top/Behind_area [5:0] $end
$var reg 10 T" Behind_area [15:6] $end
$var reg 3 ^" u_ila_1_Arithmetic_State [2:0] $end
$var reg 16 a" example_top/Count [15:0] $end
$var reg 33 q" example_top/Third_moment [32:0] $end
$var reg 8 4# example_top/Write_Fifo_datain [7:0] $end
$var reg 24 <# example_top/Second_moment [23:0] $end
$var reg 32 T# example_top/feature_num [31:0] $end
$var reg 6 t# example_top/Front_area [5:0] $end
$var reg 10 z# Front_area [15:6] $end
$var reg 41 &$ example_top/Fourth_moment [40:0] $end
$var reg 8 O$ u_ila_1_Monopulse_data_1 [7:0] $end
$var reg 16 W$ example_top/Read_Fifo_Out_r [15:0] $end
$var reg 16 g$ example_top/Pulse_point_num [15:0] $end
$var reg 2 w$ u_ila_1_WaveState [1:0] $end
$var reg 16 y$ example_top/Monopulse_num [15:0] $end
$var reg 6 +% u_ila_1_Period_count [5:0] $end
$var reg 16 1% example_top/Monopulse_data1 [15:0] $end
$var reg 8 A% example_top/MonopulseExHold [7:0] $end
$var reg 4 I% example_top/state [3:0] $end
$var reg 16 M% example_top/ii [15:0] $end
$var reg 16 ]% example_top/time_cnt [15:0] $end
$var reg 1 m% u_ila_1_FeatureExtraction_flag $end
$var reg 1 n% SendIRQ_OBUF $end
$var reg 1 o% example_top/S_FeatureExtraction_flag_reg1 $end
$var reg 1 p% SendOver $end
$var reg 1 q% SendOver1 $end
$var reg 1 r% SendOver_reg1 $end
$var reg 1 s% SendOver_reg2 $end
$var reg 1 t% example_top/SendToArm_begin $end
$var reg 1 u% example_top/SendToArm_Over $end
$var reg 1 v% StartSample $end
$var reg 1 w% StartSample1 $end
$var reg 1 x% StartSample_reg1 $end
$var reg 1 y% StartSample_reg2 $end
$var reg 1 z% _TRIGGER $end
$var reg 1 {% _WINDOW $end
$var reg 1 |% _GAP $end
$upscope $end
$enddefinitions $end
#0
$dumpvars
b111111111111111110111001110011111 "
b100100001100010000001 C
b0 l
b10001000001 t
b100001 +"
b111011111 5"
b111 >"
b111100 N"
b1101 T"
b11 ^"
b0 a"
b10010100110001111011001 q"
b1101001 4#
b10010011010001111 <#
b0 T#
b100001 t#
b10 z#
b100010010101001011111110111111 &$
b0 O$
b0 W$
b100 g$
b0 w$
b100000 y$
b101 +%
b1101001 1%
b110 A%
b10 I%
b101001 M%
b0 ]%
0m%
0n%
0o%
1p%
0q%
1r%
1s%
0t%
1u%
0v%
0w%
0x%
0y%
0z%
1{%
0|%
$end
#2
b1101000 4#
#3
b1101001 4#
#9
b1101000 4#
#10
b1101001 4#
#29
b1101000 4#
#30
b1101001 4#
#45
b1101000 4#
#46
b1101001 4#
#72
b1101000 4#
#73
b1101001 4#
#78
b1101000 4#
#79
b1101001 4#
#104
b1101110 4#
#105
b1101000 4#
#106
b1101111 4#
#107
b1111010 4#
#108
b1110101 4#
#109
b1111010 4#
#110
b1111000 4#
#111
b1110101 4#
#112
b1110011 4#
#113
b1110100 4#
#114
b1101110 4#
#115
b1101001 4#
#116
b1101100 4#
#117
b1101010 4#
#122
b1101001 4#
#132
b1101010 4#
#134
b1101011 4#
#136
b1101111 4#
#137
b1101100 4#
#138
b1101011 4#
#139
b1101100 4#
#141
b1101011 4#
#142
b1101000 4#
#143
b1101011 4#
#145
b1101010 4#
#149
b1101001 4#
#158
b1101000 4#
#159
b1101001 4#
#162
b1101000 4#
#163
b1101001 4#
#167
b1101010 4#
#168
b1101001 4#
#172
b1101000 4#
#173
b1101001 4#
#174
b1101000 4#
#176
b1101001 4#
#185
b1101000 4#
#186
b1101001 4#
#187
b1101000 4#
#188
b1101001 4#
#196
b1101000 4#
#197
b1101001 4#
#206
b1101010 4#
#207
b1101001 4#
#209
b1101010 4#
#210
b1101001 4#
#212
b1101010 4#
#215
b1101001 4#
#216
b1101010 4#
#220
b1101011 4#
#221
b1101010 4#
#224
b1101011 4#
#225
b1101110 4#
#226
b1101011 4#
#227
b1101100 4#
#228
b1101011 4#
#229
b1101100 4#
#232
b1101000 4#
#233
b1101011 4#
#235
b1101010 4#
#239
b1101001 4#
#243
b1101000 4#
#244
b1101001 4#
#245
b1101000 4#
#246
b1101001 4#
#247
b1101000 4#
#248
b1101001 4#
#253
b1101000 4#
#255
b1101001 4#
#263
b1101010 4#
#267
b1101111 4#
#268
b1101100 4#
#269
b1101110 4#
#270
b1101011 4#
#271
b1110000 4#
#272
b1110101 4#
#274
b1110110 4#
#278
b1110001 4#
#279
b1110100 4#
#280
b1110110 4#
#281
b1101111 4#
#282
b1101110 4#
#283
b1101101 4#
#284
b1101100 4#
#285
b1101011 4#
#286
b1101010 4#
#290
b1101001 4#
#297
b1101000 4#
#298
b1101001 4#
#301
b1101000 4#
#302
b1101001 4#
#311
b1101000 4#
#312
b1101001 4#
#316
b1101000 4#
#318
b1101001 4#
#330
b1101010 4#
#333
b1101011 4#
#334
b1101111 4#
#335
b1101100 4#
#337
b1101000 4#
#338
b1101011 4#
#340
b1101010 4#
#341
b1101001 4#
#343
b1101010 4#
#344
b1101001 4#
#348
b1101000 4#
#351
b1101001 4#
#353
b1101000 4#
#354
b1101001 4#
#362
b1101000 4#
#363
b1101001 4#
#386
b1101010 4#
#388
b1101011 4#
#389
b1101001 4#
#390
b1101010 4#
#392
b1101001 4#
#399
b1101000 4#
#400
b1101001 4#
#404
b1101010 4#
#405
b1101001 4#
#409
b1101010 4#
#410
b1101001 4#
#412
b1101010 4#
#413
b1101001 4#
#414
b1101010 4#
#416
b1101111 4#
#417
b1101100 4#
#418
b1101101 4#
#419
b1101111 4#
#420
b1110010 4#
#421
b1111011 4#
#422
b1111000 4#
#423
b1111010 4#
#424
b1111000 4#
#425
b1110101 4#
#426
b1101111 4#
#427
b1101001 4#
#428
b1101100 4#
#429
b1101010 4#
#430
b1101001 4#
#454
b1101000 4#
#455
b1101001 4#
#479
b1101000 4#
#480
b1101001 4#
#490
b1101000 4#
#491
b1101001 4#
#501
b1101010 4#
#502
b1101001 4#
#505
b1101010 4#
#507
b1101110 4#
#508
b1101011 4#
#509
b1101101 4#
#510
b1110000 4#
#511
b1110100 4#
#512
b11111010 4#
1z%
#513
b0 4#
#514
b10000000 4#
#515
b1111111 4#
#516
b1111110 4#
#517
b1111100 4#
#518
b1111110 4#
#519
b1111000 4#
#520
b1110001 4#
#521
b1110101 4#
#522
b1110000 4#
#523
b1101101 4#
#525
b1101100 4#
#526
b1101011 4#
#528
b1101010 4#
#531
b1101001 4#
#532
b1101010 4#
#534
b1101001 4#
#537
b1101000 4#
#538
b1101001 4#
#553
b1101110 4#
#554
b1101100 4#
#555
b1101011 4#
#556
b1110001 4#
#557
b1110100 4#
#559
b1110001 4#
#560
b1101011 4#
#562
b1101010 4#
#566
b1101001 4#
#567
b1101000 4#
#568
b1101001 4#
#570
b1101000 4#
#571
b1101001 4#
#572
b1101000 4#
#573
b1101001 4#
#575
b1101000 4#
#576
b1101001 4#
#581
b1101000 4#
#582
b1101001 4#
#584
b1101000 4#
#585
b1101001 4#
#588
b1101000 4#
#589
b1101001 4#
#590
b1101000 4#
#591
b1101001 4#
#594
b1101010 4#
#595
b1101001 4#
#598
b1101110 4#
#599
b1101010 4#
#600
b1101100 4#
#601
b1110101 4#
#602
b10000001 4#
#603
b10001010 4#
#605
b10001011 4#
#606
b10001100 4#
#608
b10001000 4#
#609
b10001110 4#
#610
b10001000 4#
#611
b100 4#
#612
b10000000 4#
#613
b1111000 4#
#614
b1110100 4#
#615
b1110000 4#
#616
b1101010 4#
#617
b1101011 4#
#618
b1101010 4#
#619
b1101001 4#
#625
b1101000 4#
#626
b1101001 4#
#627
b1101000 4#
#628
b1101001 4#
#662
b1101000 4#
#663
b1101001 4#
#675
b1101000 4#
#676
b1101001 4#
#680
b1101000 4#
#681
b1101001 4#
#695
b1101000 4#
#697
b1101001 4#
#703
b1101010 4#
#704
b1101001 4#
#706
b1101000 4#
#707
b1101001 4#
#715
b1101010 4#
#716
b1101001 4#
#719
b1101010 4#
#720
b1101001 4#
#721
b1101010 4#
#722
b1101001 4#
#732
b1101010 4#
#734
b1101001 4#
#736
b1101010 4#
#737
b1101011 4#
#741
b1101010 4#
#743
b1101001 4#
#744
b1101010 4#
#745
b1101001 4#
#752
b1101010 4#
#753
b1101001 4#
#760
b1101010 4#
#761
b1101110 4#
#762
b1101011 4#
#763
b1101100 4#
#764
b1101101 4#
#766
b1101000 4#
#767
b1101100 4#
#768
b1101011 4#
#769
b1101001 4#
#773
b1101000 4#
#774
b1101001 4#
#783
b1101000 4#
#784
b1101001 4#
#785
b1101000 4#
#786
b1101001 4#
#805
b1101000 4#
#806
b1101001 4#
#816
b1101000 4#
#817
b1101001 4#
#820
b1101000 4#
#821
b1101001 4#
#828
b1101000 4#
#829
b1101001 4#
#834
b1101000 4#
#835
b1101001 4#
#842
b1101010 4#
#845
b1101100 4#
#846
b1101101 4#
#847
b1101110 4#
#849
b1101101 4#
#850
b1101100 4#
#851
b1101000 4#
#852
b1101011 4#
#853
b1101010 4#
#855
b1101001 4#
#863
b1101000 4#
#864
b1101001 4#
#889
b1101010 4#
#890
b1101001 4#
#894
b1101010 4#
#897
b1101111 4#
#898
b1101011 4#
#899
b1101000 4#
#900
b1101100 4#
#901
b1101011 4#
#903
b1101010 4#
#907
b1101001 4#
#909
b1101010 4#
#913
b1101001 4#
#914
b1101010 4#
#922
b1101011 4#
#923
b1101010 4#
#926
b1101011 4#
#928
b1101010 4#
#932
b1101001 4#
#933
b1101010 4#
#934
b1101001 4#
#953
b1101000 4#
#954
b1101001 4#
#957
b1101000 4#
#959
b1101001 4#
#966
b1101000 4#
#967
b1101001 4#
#969
b1101000 4#
#970
b1101001 4#
#980
b1101000 4#
#981
b1101001 4#
#991
b1101000 4#
#993
b1101001 4#
#994
b1101000 4#
#995
b1101001 4#
#998
b1101000 4#
#1000
b1101001 4#
#1003
b1101000 4#
#1004
b1101001 4#
#1017
b1101000 4#
#1018
b1101001 4#
