WaveWidthPhase2constrain/.Xil/Vivado-36664-DESKTOP-G3B5TCR/hw_ila_data_2/zip_work/waveform.vcd
$date
        2019-Nov-21 11:09:53
$end
$version
        Vivado v2017.4 (64-bit)
$end
$timescale
        1ps
$end
$scope module dut $end
$var reg 1 " \example_top/MonopulseEx_Arithmetic1/Arithmetic1/Arithmetic_State_reg[2]_0 $end
$var reg 32 # example_top/CountWrite_tem [31:0] $end
$var reg 16 C example_top/Monopulse_data1 [15:0] $end
$var reg 6 S example_top/Behind_area [5:0] $end
$var reg 10 Y Behind_area [15:6] $end
$var reg 3 c example_top/AD_Count [2:0] $end
$var reg 41 f example_top/Fourth_moment [40:0] $end
$var reg 6 1" example_top/MonopulsePosition_1 [5:0] $end
$var reg 10 7" MonopulsePosition [15:6] $end
$var reg 16 A" example_top/MonopulsePosition [31:16] $end
$var reg 8 Q" example_top/Monopulse_data_00 [7:0] $end
$var reg 8 Y" example_top/Monopulse_data_01 [7:0] $end
$var reg 16 a" example_top/Count [15:0] $end
$var reg 16 q" example_top/Monopulse_num [15:0] $end
$var reg 16 ## example_top/Monopulse_num_reg [15:0] $end
$var reg 8 3# example_top/Peak_value [7:0] $end
$var reg 32 ;# example_top/PeriodPoint_num [31:0] $end
$var reg 6 [# example_top/Period_condition [5:0] $end
$var reg 10 a# Period_condition_1 [15:6] $end
$var reg 8 k# example_top/Mean_value [7:0] $end
$var reg 6 s# example_top/Period_count [5:0] $end
$var reg 6 y# example_top/Front_area [5:0] $end
$var reg 10 !$ Front_area [15:6] $end
$var reg 32 +$ example_top/CountRead_tem [31:0] $end
$var reg 16 K$ example_top/Pulse_point_num [15:0] $end
$var reg 8 [$ example_top/Monopulse_data_1 [7:0] $end
$var reg 32 c$ example_top/ReadPosition [31:0] $end
$var reg 16 %% example_top/Read_Fifo_Out [15:0] $end
$var reg 8 5% example_top/Mean_value_remainders [7:0] $end
$var reg 3 =% example_top/Arithmetic_State [2:0] $end
$var reg 16 @% example_top/Read_Fifo_Out_r [15:0] $end
$var reg 16 P% example_top/app_rd_data6 [15:0] $end
$var reg 16 `% example_top/app_rd_data1 [15:0] $end
$var reg 16 p% example_top/app_rd_data8 [15:0] $end
$var reg 33 "& example_top/Third_moment [32:0] $end
$var reg 8 C& example_top/Write_Fifo_rusdw_o [7:0] $end
$var reg 21 K& example_top/Square_data [20:0] $end
$var reg 16 `& example_top/app_rd_data2 [15:0] $end
$var reg 16 p& example_top/app_rd_data7 [15:0] $end
$var reg 128 "' example_top/ddr3_wr_data_r [127:0] $end
$var reg 32 D( example_top/SendToArm_Data [31:0] $end
$var reg 8 d( example_top/Write_Fifo_datain [7:0] $end
$var reg 16 l( example_top/Total_area_reg [15:0] $end
$var reg 16 |( example_top/ii [15:0] $end
$var reg 16 .) example_top/time_cnt [15:0] $end
$var reg 8 >) example_top/Read_Fifo_wusdw_o [7:0] $end
$var reg 8 F) example_top/SendToArm_Count [7:0] $end
$var reg 128 N) example_top/app_rd_data [127:0] $end
$var reg 24 p* example_top/Second_moment [23:0] $end
$var reg 128 *+ example_top/Write_Fifo_Out [127:0] $end
$var reg 1 L, Period_condition_2 $end
$var reg 1 M, Period_condition_3 $end
$var reg 1 N, Period_condition_4 $end
$var reg 1 O, Period_condition_5 $end
$var reg 1 P, Period_condition_6 $end
$var reg 1 Q, Period_condition_7 $end
$var reg 1 R, Period_condition_8 $end
$var reg 1 S, Period_condition_9 $end
$var reg 1 T, Period_condition_10 $end
$var reg 1 U, Period_condition_11 $end
$var reg 1 V, Period_condition_12 $end
$var reg 1 W, Period_condition_13 $end
$var reg 1 X, Period_condition_14 $end
$var reg 1 Y, Period_condition_15 $end
$var reg 1 Z, Period_condition_16 $end
$var reg 1 [, Period_condition $end
$var reg 16 \, example_top/app_rd_data4 [15:0] $end
$var reg 128 l, example_top/app_wdf_data [127:0] $end
$var reg 8 0. example_top/bit_count [7:0] $end
$var reg 11 8. example_top/Read_Fifo_rusdw_o [10:0] $end
$var reg 29 C. example_top/app_addr_begin [28:0] $end
$var reg 128 `. example_top/ddr3_wr_data [127:0] $end
$var reg 4 $0 example_top/state1 [3:0] $end
$var reg 16 (0 example_top/app_rd_data3 [15:0] $end
$var reg 29 80 example_top/app_addr [28:0] $end
$var reg 16 U0 example_top/app_rd_data5 [15:0] $end
$var reg 4 e0 example_top/state [3:0] $end
$var reg 16 i0 example_top/Total_area [15:0] $end
$var reg 16 y0 example_top/time_cnt_n [15:0] $end
$var reg 2 +1 example_top/WaveState [1:0] $end
$var reg 1 -1 example_top/app_rd_data_valid $end
$var reg 1 .1 u_ila_0_app_rdy $end
$var reg 1 /1 u_ila_0_clk $end
$var reg 1 01 example_top/ddr3_allwr_flag $end
$var reg 1 11 example_top/ddr3_flag $end
$var reg 1 21 example_top/ddr3_oneperiod_flag $end
$var reg 1 31 example_top/ddr3_onewr_flag $end
$var reg 1 41 example_top/ddr3read_en $end
$var reg 1 51 example_top/ddr3write_en $end
$var reg 1 61 example_top/Extract_en $end
$var reg 1 71 example_top/FeatureExtraction_flag $end
$var reg 1 81 SendIRQ_OBUF_1 $end
$var reg 1 91 init_calib_complete_OBUF $end
$var reg 1 :1 example_top/OnePeriod_flag $end
$var reg 1 ;1 SendIRQ_OBUF $end
$var reg 1 <1 example_top/Period_flag $end
$var reg 1 =1 example_top/ProsessIn $end
$var reg 1 >1 example_top/ProsessIn1 $end
$var reg 1 ?1 example_top/Read_Fifo_empty $end
$var reg 1 @1 example_top/Read_Fifo_full $end
$var reg 1 A1 example_top/Read_Fifo_in_en1 $end
$var reg 1 B1 example_top/Read_Fifo_rden $end
$var reg 1 C1 example_top/Read_Fifo_rst $end
$var reg 1 D1 example_top/Read_Fifo_wren $end
$var reg 1 E1 example_top/Read_Over_flag $end
$var reg 1 F1 example_top/S_FeatureExtraction_flag_neg $end
$var reg 1 G1 example_top/S_FeatureExtraction_flag_reg1 $end
$var reg 1 H1 example_top/S_FeatureExtraction_flag_reg2 $end
$var reg 1 I1 example_top/SendToArm_begin $end
$var reg 1 J1 example_top/SendToArm_Over $end
$var reg 1 K1 example_top/Write_Fifo_empty $end
$var reg 1 L1 example_top/Write_Fifo_full $end
$var reg 1 M1 example_top/WriteSign $end
$var reg 1 N1 _TRIGGER $end
$var reg 1 O1 _WINDOW $end
$var reg 1 P1 _GAP $end
$upscope $end
$enddefinitions $end
#0
$dumpvars
0"
b110111100010111001111110 #
b1110100 C
b11100 S
b11010000 Y
b111 c
b11110000000000 f
b101001 1"
b110110111 7"
b0 A"
b1001110 Q"
b1001111 Y"
b10001 a"
b1110100 q"
b1110100 ##
b1110100 3#
b0 ;#
b0 [#
b0 a#
b1111000 k#
b1001 s#
b110100 y#
b1 !$
b111000100100 +$
b1111 K$
b1010000 [$
b110110111011001 c$
b10101 %%
b110000 5%
b101 =%
b10101 @%
b10011000 P%
b10011101 `%
b10010110 p%
b111111111111111111111000101000000 "&
b1 C&
b10000 K&
b10011100 `&
b10010111 p&
b0 "'
b0 D(
b10101000 d(
b11011010010000 l(
b1000000 |(
b101111 .)
b1101001 >)
b0 F)
b100101100000000010010111000000001001100000000000100110010000000010011010000000001001101100000000100111000000000010011101 N)
b1111010000 p*
b11111100000000001111111000000001000000000000000100000010000000010000010000000001000001100000000100001000000000010000101 *+
0L,
0M,
0N,
0O,
0P,
0Q,
0R,
0S,
0T,
0U,
0V,
0W,
0X,
0Y,
0Z,
0[,
b10011010 \,
b0 l,
b10101000 0.
b1101000111 8.
b111000100011000 C.
b0 `.
b0 $0
b10011011 (0
b111000100011000 80
b10011001 U0
b100 e0
b11011010010000 i0
b1000000 y0
b0 +1
1-1
1.1
1/1
101
011
021
131
041
051
061
171
081
191
0:1
0;1
0<1
1=1
0>1
0?1
0@1
0A1
0B1
0C1
0D1
0E1
0F1
0G1
0H1
0I1
1J1
0K1
0L1
0M1
0N1
1O1
0P1
$end
#1
b1 c
b11110100000000 f
b111111111111111111111000100000000 "&
b10101001 d(
b1000001 |(
b1100001 .)
b1111100000 p*
b10101010 0.
b1100001 y0
0/1
#2
b10 c
b11111000000000 f
b111111111111111111111000011000000 "&
b10101011 d(
b1000010 |(
b1111110000 p*
b10101011 0.
b1100010 y0
1/1
#3
b11 c
b11111100000000 f
b111111111111111111111000010000000 "&
b10101100 d(
b1000011 |(
b1100011 .)
b10000000000 p*
b10101100 0.
b1100011 y0
0/1
#4
b100 c
b100000000000000 f
b111111111111111111111000001000000 "&
b10101101 d(
b1000100 |(
b10000010000 p*
b10101101 0.
b1100100 y0
1/1
#5
b110 c
b100000100000000 f
b111111111111111111111000000000000 "&
b10101110 d(
b1000101 |(
b1100101 .)
b10000100000 p*
b10101111 0.
b1100101 y0
0/1
#6
b111 c
b100001000000000 f
b111111111111111111110111111000000 "&
b10110000 d(
b1000110 |(
b10000110000 p*
b10110000 0.
b1100110 y0
1/1
#7
b0 c
b100001100000000 f
b111111111111111111110111110000000 "&
b10110001 d(
b1000111 |(
b1100111 .)
b10001000000 p*
b10110001 0.
b1100111 y0
0/1
#8
b1 c
b100010000000000 f
b111111111111111111110111101000000 "&
b10110010 d(
b1001000 |(
b10001010000 p*
b10110010 0.
b1101000 y0
1/1
#9
b11 c
b100010100000000 f
b111111111111111111110111100000000 "&
b10110011 d(
b1001001 |(
b1101001 .)
b10001100000 p*
b10110100 0.
b1101001 y0
0/1
#10
b100 c
b100011000000000 f
b111111111111111111110111011000000 "&
b10110101 d(
b1001010 |(
b10001110000 p*
b10110101 0.
b1101010 y0
1/1
#11
b101 c
b100011100000000 f
b111111111111111111110111010000000 "&
b10110110 d(
b1001011 |(
b1101011 .)
b10010000000 p*
b10110110 0.
b1101011 y0
0/1
#12
b110 c
b100100000000000 f
b111111111111111111110111001000000 "&
b10110111 d(
b1001100 |(
b10010010000 p*
b10110111 0.
b1101100 y0
1/1
#13
b0 c
b100100100000000 f
b111111111111111111110111000000000 "&
b10111000 d(
b1001101 |(
b1101101 .)
b10010100000 p*
b10111001 0.
b1101101 y0
0/1
#14
b1 c
b100101000000000 f
b111111111111111111110110111000000 "&
b10111010 d(
b1001110 |(
b10010110000 p*
b10111010 0.
b1101110 y0
1/1
#15
b10 c
b100101100000000 f
b111111111111111111110110110000000 "&
b10111011 d(
b1001111 |(
b1101111 .)
b10011000000 p*
b10111011 0.
b1101111 y0
0/1
#16
b11 c
b100110000000000 f
b111111111111111111110110101000000 "&
b10111100 d(
b1010000 |(
b10011010000 p*
b10111100 0.
b1110000 y0
1/1
#17
b101 c
b100110100000000 f
b111111111111111111110110100000000 "&
b10111101 d(
b1010001 |(
b1110001 .)
b10011100000 p*
b10111110 0.
b1110001 y0
0/1
#18
b110 c
b100111000000000 f
b111111111111111111110110011000000 "&
b10111111 d(
b1010010 |(
b1100001 .)
b10011110000 p*
b10111111 0.
b1110010 y0
1/1
#19
b111 c
b100111100000000 f
b111111111111111111110110010000000 "&
b11000000 d(
b1010011 |(
b1110011 .)
b10100000000 p*
b11000000 0.
b1110011 y0
0/1
#20
b0 c
b101000000000000 f
b111111111111111111110110001000000 "&
b11000001 d(
b1010100 |(
b1100011 .)
b10100010000 p*
b11000001 0.
b1110100 y0
1/1
#21
b10 c
b101000100000000 f
b111111111111111111110110000000000 "&
b11000010 d(
b1010101 |(
b1110101 .)
b10100100000 p*
b11000011 0.
b1110101 y0
0/1
#22
b11 c
b101001000000000 f
b111111111111111111110101111000000 "&
b11000100 d(
b1010110 |(
b1100101 .)
b10100110000 p*
b11000100 0.
b1110110 y0
1/1
#23
b100 c
b101001100000000 f
b111111111111111111110101110000000 "&
b11000101 d(
b1010111 |(
b1110111 .)
b10101000000 p*
b11000101 0.
b1110111 y0
0/1
#24
b101 c
b101010000000000 f
b111111111111111111110101101000000 "&
b11000110 d(
b1011000 |(
b1100111 .)
b10101010000 p*
b11000110 0.
b1111000 y0
1/1
#25
b111 c
b101010100000000 f
b111111111111111111110101100000000 "&
b11000111 d(
b1011001 |(
b1111001 .)
b10101100000 p*
b11001000 0.
b1111001 y0
0/1
#26
b0 c
b101011000000000 f
b111111111111111111110101011000000 "&
b11001001 d(
b1011010 |(
b1101001 .)
b10101110000 p*
b11001001 0.
b1111010 y0
1/1
#27
b1 c
b101011100000000 f
b111111111111111111110101010000000 "&
b11001010 d(
b1011011 |(
b1111011 .)
b10110000000 p*
b11001010 0.
b1111011 y0
0/1
#28
b10 c
b101100000000000 f
b111111111111111111110101001000000 "&
b11001011 d(
b1011100 |(
b1101011 .)
b10110010000 p*
b11001011 0.
b1111100 y0
1/1
#29
b100 c
b101100100000000 f
b111111111111111111110101000000000 "&
b11001100 d(
b1011101 |(
b1111101 .)
b10110100000 p*
b11001101 0.
b1111101 y0
0/1
#30
b101 c
b101101000000000 f
b1 =%
b111111111111111111110100111000000 "&
b11001110 d(
b1011110 |(
b1101101 .)
b10110110000 p*
b11001110 0.
b0 y0
1/1
#31
1"
b110 c
b10 =%
b11001111 d(
b1 .)
b11001111 0.
0/1
#32
b111 c
b11 =%
b11010000 d(
b0 l(
b0 .)
b11010000 0.
b1 y0
1/1
#33
b0 S
b0 Y
b1 c
b0 3#
b0 y#
b0 !$
b11010001 d(
b1 .)
b11010010 0.
b0 i0
b10 y0
0/1
#34
b10 c
b11010011 d(
b1110100 l(
b11 .)
b11010011 0.
b11 y0
1/1
#35
b11 c
b1110100 3#
b110100 y#
b1 !$
b11010100 d(
b11101000 l(
b11010100 0.
b1110100 i0
b100 y0
0/1
#36
b110100 S
b1 Y
b100 c
b11010101 d(
b101011100 l(
b101 .)
b11010101 0.
b11101000 i0
b101 y0
1/1
#37
b101000 S
b11 Y
b110 c
b11010110 d(
b111010000 l(
b11010111 0.
b101011100 i0
b110 y0
0/1
#38
b11100 S
b101 Y
b111 c
b11011000 d(
b1001000100 l(
b111 .)
b11011000 0.
b111010000 i0
b111 y0
1/1
#39
b10000 S
b111 Y
b0 c
b11011001 d(
b1010111000 l(
b11011001 0.
b1001000100 i0
b1000 y0
0/1
#40
b100 S
b1001 Y
b1 c
b11011010 d(
b1100101100 l(
b1001 .)
b11011010 0.
b1010111000 i0
b1001 y0
1/1
#41
b111000 S
b1010 Y
b11 c
b11011011 d(
b1110100000 l(
b11011100 0.
b1100101100 i0
b1010 y0
0/1
#42
b101100 S
b1100 Y
b100 c
b11011101 d(
b10000010100 l(
b1011 .)
b11011101 0.
b1110100000 i0
b1011 y0
1/1
#43
b100000 S
b1110 Y
b101 c
b11011110 d(
b10010001000 l(
b11011110 0.
b10000010100 i0
b1100 y0
0/1
#44
b10100 S
b10000 Y
b110 c
b11011111 d(
b10011111100 l(
b1101 .)
b11011111 0.
b10010001000 i0
b1101 y0
1/1
#45
b1000 S
b10010 Y
b0 c
b11100000 d(
b10101110000 l(
b11100001 0.
b10011111100 i0
b1110 y0
0/1
#46
b111100 S
b10011 Y
b1 c
b11100010 d(
b10111100100 l(
b1111 .)
b11100010 0.
b10101110000 i0
b1111 y0
1/1
#47
b110000 S
b10101 Y
b10 c
b11100011 d(
b11001011000 l(
b11100011 0.
b10111100100 i0
b10000 y0
0/1
#48
b100100 S
b10111 Y
b11 c
b11100100 d(
b11011001100 l(
b10001 .)
b11100100 0.
b11001011000 i0
b10001 y0
1/1
#49
b11000 S
b11001 Y
b101 c
b11100101 d(
b1 .)
b11100110 0.
b11011001100 i0
b10010 y0
0/1
#50
b110 c
b11100111 d(
b11101000000 l(
b10011 .)
b11100111 0.
b10011 y0
1/1
#51
b1100 S
b11011 Y
b111 c
b11101000 d(
b11110110100 l(
b11 .)
b11101000 0.
b11101000000 i0
b10100 y0
0/1
#52
b0 S
b11101 Y
b0 c
b11101001 d(
b100000101000 l(
b10101 .)
b11101001 0.
b11110110100 i0
b10101 y0
1/1
#53
b110100 S
b11110 Y
b10 c
b11101010 d(
b100010011100 l(
b101 .)
b11101011 0.
b100000101000 i0
b10110 y0
0/1
#54
b101000 S
b100000 Y
b11 c
b11101100 d(
b100100010000 l(
b10111 .)
b11101100 0.
b100010011100 i0
b10111 y0
1/1
#55
b11100 S
b100010 Y
b100 c
b11101101 d(
b100110000100 l(
b111 .)
b11101101 0.
b100100010000 i0
b11000 y0
0/1
#56
b10000 S
b100100 Y
b101 c
b11101110 d(
b100111111000 l(
b11001 .)
b11101110 0.
b100110000100 i0
b11001 y0
1/1
#57
b100 S
b100110 Y
b111 c
b11101111 d(
b101001101100 l(
b1001 .)
b11110000 0.
b100111111000 i0
b11010 y0
0/1
#58
b111000 S
b100111 Y
b0 c
b11110001 d(
b101011100000 l(
b11011 .)
b11110001 0.
b101001101100 i0
b11011 y0
1/1
#59
b101100 S
b101001 Y
b1 c
b11110010 d(
b101101010100 l(
b1011 .)
b11110010 0.
b101011100000 i0
b11100 y0
0/1
#60
b100000 S
b101011 Y
b10 c
b11110011 d(
b101111001000 l(
b11101 .)
b11110011 0.
b101101010100 i0
b11101 y0
1/1
#61
b10100 S
b101101 Y
b100 c
b11110100 d(
b110000111100 l(
b1101 .)
b11110101 0.
b101111001000 i0
b11110 y0
0/1
#62
b1000 S
b101111 Y
b101 c
b11110110 d(
b110010110000 l(
b11111 .)
b11110110 0.
b110000111100 i0
b11111 y0
1/1
#63
b111100 S
b110000 Y
b110 c
b11110111 d(
b110100100100 l(
b1111 .)
b11110111 0.
b110010110000 i0
b100000 y0
0/1
#64
b110000 S
b110010 Y
b111 c
b11111000 d(
b110110011000 l(
b1 .)
b11111000 0.
b110100100100 i0
b100001 y0
1/1
#65
b100100 S
b110100 Y
b1 c
b11111001 d(
b111000001100 l(
b100001 .)
b11111010 0.
b110110011000 i0
b100010 y0
0/1
#66
b11000 S
b110110 Y
b10 c
b11111011 d(
b111010000000 l(
b100011 .)
b11111011 0.
b111000001100 i0
b100011 y0
1/1
#67
b1100 S
b111000 Y
b11 c
b11111100 d(
b111011110100 l(
b11111100 0.
b111010000000 i0
b100100 y0
0/1
#68
b0 S
b111010 Y
b100 c
b11111101 d(
b111101101000 l(
b100101 .)
b11111101 0.
b111011110100 i0
b100101 y0
1/1
#69
b110100 S
b111011 Y
b110 c
b11111110 d(
b111111011100 l(
b11111111 0.
b111101101000 i0
b100110 y0
0/1
#70
b101000 S
b111101 Y
b111 c
b0 d(
b1000001010000 l(
b100111 .)
b0 0.
b111111011100 i0
b100111 y0
1/1
#71
b11100 S
b111111 Y
b0 c
b1 d(
b1000011000100 l(
b1 0.
b1000001010000 i0
b101000 y0
0/1
#72
b10000 S
b1000001 Y
b1 c
b10 d(
b1000100111000 l(
b101001 .)
b10 0.
b1000011000100 i0
b101001 y0
1/1
#73
b100 S
b1000011 Y
b11 c
b11 d(
b1000110101100 l(
b100 0.
b1000100111000 i0
b101010 y0
0/1
#74
b111000 S
b1000100 Y
b100 c
b101 d(
b1001000100000 l(
b101011 .)
b101 0.
b1000110101100 i0
b101011 y0
1/1
#75
b101100 S
b1000110 Y
b101 c
b110 d(
b1001010010100 l(
b110 0.
b1001000100000 i0
b101100 y0
0/1
#76
b100000 S
b1001000 Y
b110 c
b111 d(
b1001100001000 l(
b101101 .)
b111 0.
b1001010010100 i0
b101101 y0
1/1
#77
b10100 S
b1001010 Y
b0 c
b1000 d(
b1001101111100 l(
b1001 0.
b1001100001000 i0
b101110 y0
0/1
#78
b1000 S
b1001100 Y
b1 c
b1010 d(
b1001111110000 l(
b101111 .)
b1010 0.
b1001101111100 i0
b101111 y0
1/1
#79
b111100 S
b1001101 Y
b10 c
b1011 d(
b1010001100100 l(
b1011 0.
b1001111110000 i0
b110000 y0
0/1
#80
b110000 S
b1001111 Y
b11 c
b1100 d(
b1010011011000 l(
b110001 .)
b1100 0.
b1010001100100 i0
b110001 y0
1/1
#81
b100100 S
b1010001 Y
b101 c
b1101 d(
b1010101001100 l(
b100001 .)
b1110 0.
b1010011011000 i0
b110010 y0
0/1
#82
b11000 S
b1010011 Y
b110 c
b1111 d(
b1010111000000 l(
b110011 .)
b1111 0.
b1010101001100 i0
b110011 y0
1/1
#83
b1100 S
b1010101 Y
b111 c
b10000 d(
b1011000110100 l(
b100011 .)
b10000 0.
b1010111000000 i0
b110100 y0
0/1
#84
b0 S
b1010111 Y
b0 c
b10001 d(
b1011010101000 l(
b110101 .)
b10001 0.
b1011000110100 i0
b110101 y0
1/1
#85
b110100 S
b1011000 Y
b10 c
b10010 d(
b1011100011100 l(
b100101 .)
b10011 0.
b1011010101000 i0
b110110 y0
0/1
#86
b101000 S
b1011010 Y
b11 c
b10100 d(
b1011110010000 l(
b110111 .)
b10100 0.
b1011100011100 i0
b110111 y0
1/1
#87
b11100 S
b1011100 Y
b100 c
b10101 d(
b1100000000100 l(
b100111 .)
b10101 0.
b1011110010000 i0
b111000 y0
0/1
#88
b10000 S
b1011110 Y
b101 c
b10110 d(
b1100001111000 l(
b111001 .)
b10110 0.
b1100000000100 i0
b111001 y0
1/1
#89
b100 S
b1100000 Y
b111 c
b10111 d(
b1100011101100 l(
b101001 .)
b11000 0.
b1100001111000 i0
b111010 y0
0/1
#90
b111000 S
b1100001 Y
b0 c
b11001 d(
b1100101100000 l(
b111011 .)
b11001 0.
b1100011101100 i0
b111011 y0
1/1
#91
b101100 S
b1100011 Y
b1 c
b11010 d(
b1100111010100 l(
b101011 .)
b11010 0.
b1100101100000 i0
b111100 y0
0/1
#92
b100000 S
b1100101 Y
b10 c
b11011 d(
b1101001001000 l(
b111101 .)
b11011 0.
b1100111010100 i0
b111101 y0
1/1
#93
b10100 S
b1100111 Y
b100 c
b11100 d(
b1101010111100 l(
b101101 .)
b11101 0.
b1101001001000 i0
b111110 y0
0/1
#94
b1000 S
b1101001 Y
b101 c
b11110 d(
b1101100110000 l(
b111111 .)
b11110 0.
b1101010111100 i0
b111111 y0
1/1
#95
b111100 S
b1101010 Y
b110 c
b11111 d(
b1101110100100 l(
b101111 .)
b11111 0.
b1101100110000 i0
b1000000 y0
0/1
#96
b110000 S
b1101100 Y
b111 c
b100000 d(
b1100111011000 l(
b1100001 .)
b100000 0.
b1101110100100 i0
b1000001 y0
1/1
#97
b100100 S
b1101110 Y
b1 c
b100001 d(
b1111010001100 l(
b1000001 .)
b100010 0.
b1111000011000 i0
b1000010 y0
0/1
#98
b11000 S
b1110000 Y
b10 c
b100011 d(
b1111100000000 l(
b1000011 .)
b100011 0.
b1111010001100 i0
b1000011 y0
1/1
#99
b1100 S
b1110010 Y
b11 c
b100100 d(
b1111101110100 l(
b100100 0.
b1111100000000 i0
b1000100 y0
0/1
#100
b0 S
b1110100 Y
b100 c
b100101 d(
b1111111101000 l(
b1000101 .)
b100101 0.
b1111101110100 i0
b1000101 y0
1/1
#101
b110100 S
b1110101 Y
b110 c
b100110 d(
b10000001011100 l(
b100111 0.
b1111111101000 i0
b1000110 y0
0/1
#102
b101000 S
b1110111 Y
b111 c
b101000 d(
b10000011010000 l(
b1000111 .)
b101000 0.
b10000001011100 i0
b1000111 y0
1/1
#103
b11100 S
b1111001 Y
b0 c
b101001 d(
b10000101000100 l(
b101001 0.
b10000011010000 i0
b1001000 y0
0/1
#104
b10000 S
b1111011 Y
b1 c
b101010 d(
b10000110111000 l(
b1001001 .)
b101010 0.
b10000101000100 i0
b1001001 y0
1/1
#105
b100 S
b1111101 Y
b11 c
b101011 d(
b10001000101100 l(
b101100 0.
b10000110111000 i0
b1001010 y0
0/1
#106
b111000 S
b1111110 Y
b100 c
b101101 d(
b10001010100000 l(
b1001011 .)
b101101 0.
b10001000101100 i0
b1001011 y0
1/1
#107
b101100 S
b10000000 Y
b101 c
b101110 d(
b10001100010100 l(
b101110 0.
b10001010100000 i0
b1001100 y0
0/1
#108
b100000 S
b10000010 Y
b110 c
b101111 d(
b10001110001000 l(
b1001101 .)
b101111 0.
b10001100010100 i0
b1001101 y0
1/1
#109
b10100 S
b10000100 Y
b0 c
b110000 d(
b10001111111100 l(
b110001 0.
b10001110001000 i0
b1001110 y0
0/1
#110
b1000 S
b10000110 Y
b1 c
b110010 d(
b10010001110000 l(
b1001111 .)
b110010 0.
b10001111111100 i0
b1001111 y0
1/1
#111
b111100 S
b10000111 Y
b10 c
b110011 d(
b10010011100100 l(
b110011 0.
b10010001110000 i0
b1010000 y0
0/1
#112
b110000 S
b10001001 Y
b11 c
b110100 d(
b10010101011000 l(
b1010001 .)
b110100 0.
b10010011100100 i0
b1010001 y0
1/1
#113
b100100 S
b10001011 Y
b101 c
b110101 d(
b10010111001100 l(
b1000001 .)
b110110 0.
b10010101011000 i0
b1010010 y0
0/1
#114
b11000 S
b10001101 Y
b110 c
b110111 d(
b10011001000000 l(
b1010011 .)
b110111 0.
b10010111001100 i0
b1010011 y0
1/1
#115
b1100 S
b10001111 Y
b111 c
b111000 d(
b10011010110100 l(
b1000011 .)
b111000 0.
b10011001000000 i0
b1010100 y0
0/1
#116
b0 S
b10010001 Y
b0 c
b111001 d(
b10011100101000 l(
b1010101 .)
b111001 0.
b10011010110100 i0
b1010101 y0
1/1
#117
b110100 S
b10010010 Y
b10 c
b111010 d(
b10011110011100 l(
b1000101 .)
b111011 0.
b10011100101000 i0
b1010110 y0
0/1
#118
b101000 S
b10010100 Y
b11 c
b111100 d(
b10100000010000 l(
b1010111 .)
b111100 0.
b10011110011100 i0
b1010111 y0
1/1
#119
b11100 S
b10010110 Y
b100 c
b111101 d(
b10100010000100 l(
b1000111 .)
b111101 0.
b10100000010000 i0
b1011000 y0
0/1
#120
b10000 S
b10011000 Y
b101 c
b111110 d(
b10100011111000 l(
b1011001 .)
b111110 0.
b10100010000100 i0
b1011001 y0
1/1
#121
b100 S
b10011010 Y
b111 c
b111111 d(
b10100101101100 l(
b1001001 .)
b1000000 0.
b10100011111000 i0
b1011010 y0
0/1
#122
b111000 S
b10011011 Y
b0 c
b1000001 d(
b10100111100000 l(
b1011011 .)
b1000001 0.
b10100101101100 i0
b1011011 y0
1/1
#123
b101100 S
b10011101 Y
b1 c
b1000010 d(
b10101001010100 l(
b1001011 .)
b1000010 0.
b10100111100000 i0
b1011100 y0
0/1
#124
b100000 S
b10011111 Y
b10 c
b1000011 d(
b10101011001000 l(
b1011101 .)
b1000011 0.
b10101001010100 i0
b1011101 y0
1/1
#125
b10100 S
b10100001 Y
b100 c
b1000100 d(
b10101100111100 l(
b1001101 .)
b1000101 0.
b10101011001000 i0
b1011110 y0
0/1
#126
b1000 S
b10100011 Y
b101 c
b1000110 d(
b10101110110000 l(
b1011111 .)
b1000110 0.
b10101100111100 i0
b1011111 y0
1/1
#127
b111100 S
b10100100 Y
b110 c
b1000111 d(
b10110000100100 l(
b1001111 .)
b1000111 0.
b10101110110000 i0
b1100000 y0
0/1
#128
b110000 S
b10100110 Y
b111 c
b1001000 d(
b10110010011000 l(
b1000001 .)
b1001000 0.
b10110000100100 i0
b1100001 y0
1/1
#129
b100100 S
b10101000 Y
b1 c
b1001001 d(
b10110100001100 l(
b1100001 .)
b1001010 0.
b10110010011000 i0
b1100010 y0
0/1
#130
b11000 S
b10101010 Y
b10 c
b1001011 d(
b10110110000000 l(
b1100011 .)
b1001011 0.
b10110100001100 i0
b1100011 y0
1/1
#131
b1100 S
b10101100 Y
b11 c
b1001100 d(
b10110111110100 l(
b1001100 0.
b10110110000000 i0
b1100100 y0
0/1
#132
b0 S
b10101110 Y
b100 c
b1001101 d(
b10111001101000 l(
b1100101 .)
b1001101 0.
b10110111110100 i0
b1100101 y0
1/1
#133
b110100 S
b10101111 Y
b110 c
b1001110 d(
b10111011011100 l(
b1001111 0.
b10111001101000 i0
b1100110 y0
0/1
#134
b101000 S
b10110001 Y
b111 c
b1010000 d(
b10111101010000 l(
b1100111 .)
b1010000 0.
b10111011011100 i0
b1100111 y0
1/1
#135
b11100 S
b10110011 Y
b0 c
b1010001 d(
b10111111000100 l(
b1010001 0.
b10111101010000 i0
b1101000 y0
0/1
#136
b10000 S
b10110101 Y
b1 c
b1010010 d(
b11000000111000 l(
b1101001 .)
b1010010 0.
b10111111000100 i0
b1101001 y0
1/1
#137
b100 S
b10110111 Y
b11 c
b1010011 d(
b11000010101100 l(
b1010100 0.
b11000000111000 i0
b1101010 y0
0/1
#138
b111000 S
b10111000 Y
b100 c
b1010101 d(
b11000100100000 l(
b1101011 .)
b1010101 0.
b11000010101100 i0
b1101011 y0
1/1
#139
b101100 S
b10111010 Y
b101 c
b1010110 d(
b11000110010100 l(
b1010110 0.
b11000100100000 i0
b1101100 y0
0/1
#140
b100000 S
b10111100 Y
b110 c
b1010111 d(
b11001000001000 l(
b1101101 .)
b1010111 0.
b11000110010100 i0
b1101101 y0
1/1
#141
b10100 S
b10111110 Y
b0 c
b1011000 d(
b11001001111100 l(
b1011001 0.
b11001000001000 i0
b1101110 y0
0/1
#142
b1000 S
b11000000 Y
b1 c
b1011010 d(
b11001011110000 l(
b1101111 .)
b1011010 0.
b11001001111100 i0
b1101111 y0
1/1
#143
b111100 S
b11000001 Y
b10 c
b1011011 d(
b11001101100100 l(
b1011011 0.
b11001011110000 i0
b1110000 y0
0/1
#144
b110000 S
b11000011 Y
b11 c
b1011100 d(
b11001111011000 l(
b1110001 .)
b1011100 0.
b11001101100100 i0
b1110001 y0
1/1
#145
b100100 S
b11000101 Y
b101 c
b1011101 d(
b11010001001100 l(
b1100001 .)
b1011110 0.
b11001111011000 i0
b1110010 y0
0/1
#146
b11000 S
b11000111 Y
b110 c
b1011111 d(
b11010011000000 l(
b1110011 .)
b1011111 0.
b11010001001100 i0
b1110011 y0
1/1
#147
b1100 S
b11001001 Y
b111 c
b1100000 d(
b11010100110100 l(
b1100011 .)
b1100000 0.
b11010011000000 i0
b1110100 y0
0/1
