WaveWidth1-Comments/.Xil/Vivado-4568-DESKTOP-G3B5TCR/hw_ila_data_2/zip_work/waveform.vcd
$date
        2019-Dec-24 09:19:52
$end
$version
        Vivado v2017.4 (64-bit)
$end
$timescale
        1ps
$end
$scope module dut $end
$var reg 41 " example_top/Fourth_moment [40:0] $end
$var reg 16 K example_top/Count [15:0] $end
$var reg 3 [ example_top/Arithmetic_State [2:0] $end
$var reg 6 ^ example_top/Behind_area [5:0] $end
$var reg 10 d Behind_area [15:6] $end
$var reg 8 n u_ila_1_Monopulse_data_1 [7:0] $end
$var reg 32 v example_top/PeriodPoint_num [31:0] $end
$var reg 16 8" Monopulse_num [15:0] $end
$var reg 8 H" example_top/Write_Fifo_datain [7:0] $end
$var reg 16 P" example_top/ii [15:0] $end
$var reg 16 `" example_top/time_cnt [15:0] $end
$var reg 16 p" u_ila_1_Monopulse_data1 [15:0] $end
$var reg 33 "# example_top/Third_moment [32:0] $end
$var reg 2 C# u_ila_1_WaveState [1:0] $end
$var reg 24 E# example_top/Second_moment [23:0] $end
$var reg 16 ]# example_top/Pulse_point_num [15:0] $end
$var reg 21 m# u_ila_1_Square_data [20:0] $end
$var reg 10 $$ example_top/MonopulseEx_Arithmetic1/Arithmetic1/SubtractionMean_data2 [9:0] $end
$var reg 33 .$ example_top/MonopulseEx_Arithmetic1/Arithmetic1/Cube_data [32:0] $end
$var reg 41 O$ example_top/MonopulseEx_Arithmetic1/Arithmetic1/Biquadrate_data [40:0] $end
$var reg 8 x$ example_top/MonopulseEx_Arithmetic1/Arithmetic1/Monopulse_data_vi [7:0] $end
$var reg 9 "% example_top/MonopulseEx_Arithmetic1/Arithmetic1/SubtractionMean_data_n [8:0] $end
$var reg 16 +% example_top/MonopulseEx_Arithmetic1/Monopulse_extraction_1/send_count [15:0] $end
$var reg 1 ;% u_ila_1_FeatureExtraction_flag $end
$var reg 1 <% SendIRQ_OBUF $end
$var reg 1 =% _TRIGGER $end
$var reg 1 >% _WINDOW $end
$var reg 1 ?% _GAP $end
$upscope $end
$enddefinitions $end
#0
$dumpvars
b101010010001100001000011111010 "
b0 K
b11 [
b101 ^
b1000 d
b1101001 n
b0 v
b100010 8"
b1101001 H"
b101011 P"
b0 `"
b1101001 p"
b10101110110100010110100 "#
b0 C#
b1111101001001010 E#
b100 ]#
b111100100 m#
b10110 $$
b111111111111111111101011001101000 .$
b111001001100010000 O$
b0 x$
b111101010 "%
b111 +%
0;%
0<%
0=%
1>%
0?%
$end
#1
b1101000 H"
#2
b1101010 H"
#3
b1101010 n
b1101001 H"
#5
b1101001 n
#6
b1101000 n
b1101010 H"
#7
b1101001 n
#8
b1101001 H"
#10
b1101000 H"
#11
b1101001 H"
#12
b1101000 n
#13
b1101001 n
#18
b1101000 n
b1101010 H"
#19
b1101001 n
#22
b1101001 H"
#26
b1101000 n
#27
b1101001 n
b1101010 H"
#29
b1101001 H"
#31
b1101010 n
#33
b1101001 n
#34
b1101010 H"
#35
b1101001 H"
#38
b1101010 n
#39
b1101001 n
b1101000 H"
#40
b1101001 H"
#46
b1101000 n
#47
b1101001 n
#50
b1101010 n
b1101000 H"
#51
b1101010 H"
#52
b1101000 H"
#53
b1101001 H"
#54
b1101010 H"
#55
b1101001 n
#58
b1101001 H"
#59
b1101010 n
#61
b1101001 n
#62
b1101000 n
#63
b1101010 n
#65
b1101001 n
#72
b1101010 H"
#75
b1101010 n
b1101001 H"
#79
b1101001 n
#81
b1101010 n
#83
b1101001 n
#84
b1101000 H"
#85
b1101001 H"
#87
b1101010 n
#89
b1101001 n
#90
b1101000 n
b1101000 H"
#91
b1101001 n
b1101001 H"
#94
b1101010 H"
#95
b1101010 n
#97
b1101001 n
#100
b1101000 H"
#101
b1101010 n
b1101001 H"
#103
b1101001 n
#105
b1101010 n
#108
b1101000 H"
#109
b1101001 n
b1101001 H"
#110
b1101010 H"
#114
b1101000 H"
#115
b1101001 H"
#116
b1101000 H"
#117
b1101001 H"
#119
b1101010 n
#121
b1101001 n
#122
b1101010 H"
#123
b1101010 n
#125
b1101001 n
b1101001 H"
#128
b1101000 n
#129
b1101001 n
#130
b1101010 H"
#131
b1101001 H"
#132
b1101010 n
b1101000 H"
#133
b1101010 H"
#134
b1101001 H"
#135
b1101000 H"
#136
b1101010 H"
#137
b1101001 n
#138
b1101001 H"
#142
b1101010 H"
#146
b1101001 H"
#148
b1101000 n
#149
b1101001 n
#150
b1101010 H"
#152
b1101000 n
#153
b1101001 n
#154
b1101001 H"
#158
b1101000 n
#159
b1101010 n
#161
b1101001 n
#162
b1101010 H"
#164
b1101000 n
b1101000 H"
#165
b1101001 n
b1101001 H"
#167
b1101000 H"
#168
b1101010 H"
#170
b1101001 H"
#171
b1101010 n
b1101010 H"
#173
b1101001 n
b1101001 H"
#174
b1101010 H"
#176
b1101001 H"
#180
b1101000 n
b1101000 H"
#181
b1101001 n
b1101010 H"
#182
b1101001 H"
#184
b1101010 H"
#186
b1101001 H"
#187
b1101010 H"
#188
b1101010 n
#189
b1101001 H"
#190
b1101010 H"
#191
b1101001 n
#192
b1101001 H"
#193
b1101010 n
#194
b1101010 H"
#195
b1101001 n
#202
b1101001 H"
#203
b1101010 n
#205
b1101001 n
b1101010 H"
#208
b1101000 n
#209
b1101001 n
#210
b1101001 H"
#214
b1101000 n
#215
b1101001 n
#219
b1101010 H"
#221
b1101010 n
b1101001 H"
#222
b1101010 H"
#223
b1101001 n
#224
b1101000 n
b1101001 H"
#225
b1101001 n
#227
b1101010 n
b1101010 H"
#229
b1101001 H"
#231
b1101001 n
#232
b1101000 n
#233
b1101010 n
#234
b1101000 n
#235
b1101001 n
b1101010 H"
#236
b1101010 n
#237
b1101001 n
b1101001 H"
#238
b1101010 H"
#240
b1101000 n
b1101001 H"
#241
b1101001 n
#244
b1101000 n
#245
b1101010 n
b1101010 H"
#248
b1101001 H"
#249
b1101001 n
#250
b1101010 H"
#251
b1101010 n
#253
b1101001 n
b1101001 H"
#255
b1101010 n
#257
b1101001 n
#258
b1101000 n
b1101010 H"
#259
b1101010 n
b1101001 H"
#262
b1101010 H"
#263
b1101001 n
#264
b1101001 H"
#268
b1101010 n
#270
b1101010 H"
#271
b1101001 n
#274
b1101001 H"
#278
b1101000 n
#279
b1101001 n
#281
b1101010 n
#283
b1101001 n
#285
b1101010 n
b1101010 H"
#286
b1101001 H"
#287
b1101001 n
#289
b1101010 n
#291
b1101001 n
b1101010 H"
#292
b1101010 n
#294
b1101000 n
#295
b1101001 n
#296
b1101000 n
b1101001 H"
#297
b1101001 n
#298
b1101010 H"
#301
b1101010 n
b1101001 H"
#303
b1101001 n
#307
b1101010 H"
#310
b1101010 n
b1101001 H"
#311
b1101001 n
#315
b1101010 n
#320
b1101001 n
#322
b1101010 H"
#323
b1101001 H"
#324
b1101000 n
#325
b1101001 n
#329
b1101010 H"
#330
b1101000 n
#331
b1101001 n
b1101001 H"
#333
b1101010 H"
#334
b1101000 n
#335
b1101001 n
#336
b1101001 H"
#338
b1101000 n
#339
b1101001 n
#343
b1101010 n
#345
b1101010 H"
#346
b1101000 H"
#347
b1101001 n
b1101001 H"
#348
b1101000 H"
#349
b1101010 n
b1101001 H"
#350
b1101010 H"
#352
b1101001 H"
#353
b1101001 n
#354
b1101010 H"
#355
b1101001 H"
#356
b1101010 H"
#358
b1101001 H"
#360
b1101010 H"
#362
b1101001 H"
#365
b1101010 n
b1101010 H"
#366
b1101001 H"
#367
b1101001 n
#370
b1101010 H"
#373
b1101010 n
#374
b1101001 H"
#375
b1101010 H"
#377
b1101001 n
b1101000 H"
#379
b1101001 H"
#387
b1101010 H"
#388
b1101000 n
#389
b1101001 n
b1101001 H"
#391
b1101010 H"
#394
b1101001 H"
#398
b1101010 H"
#400
b1101001 H"
#404
b1101010 n
b1101000 H"
#405
b1101001 H"
#406
b1101010 H"
#407
b1101001 n
#408
b1101001 H"
#410
b1101010 H"
#412
b1101000 H"
#413
b1101001 H"
#415
b1101010 n
#417
b1101001 n
#419
b1101010 n
#421
b1101001 n
#423
b1101010 H"
#425
b1101010 n
#426
b1101001 H"
#427
b1101010 H"
#429
b1101001 n
b1101001 H"
#430
b1101010 H"
#432
b1101001 H"
#433
b1101010 n
#435
b1101001 n
b1101010 H"
#439
b1101010 n
b1101001 H"
#441
b10101100 n
b1 C#
#442
b110 ]#
b1001 +%
#443
b111 ]#
b1010 +%
#444
b1101010 H"
b1000 ]#
b1011 +%
#445
b1001 ]#
b1100 +%
#446
b1101001 H"
b1010 ]#
b1101 +%
#447
b1011 ]#
b1110 +%
#448
b1100 ]#
b1111 +%
#449
b10 C#
b1101 ]#
b10000 +%
#450
b1110 ]#
b10001 +%
#451
b1111 ]#
b10010 +%
#452
b10000 ]#
b10011 +%
#453
b10001 ]#
b10100 +%
#454
b10010 ]#
b10101 +%
#455
b10011 ]#
b10110 +%
#456
b10100 ]#
b10111 +%
#457
b10101 ]#
b11000 +%
#458
b10110 ]#
b11001 +%
#459
b10111 ]#
b11010 +%
#460
b1101000 H"
b11000 ]#
b11011 +%
#461
b1101001 H"
b11001 ]#
b11100 +%
#462
b11010 ]#
b11101 +%
#463
b11011 ]#
b11110 +%
#464
b1101010 H"
b11100 ]#
b11111 +%
#465
b11101 ]#
b100000 +%
#466
b1101001 H"
b11110 ]#
b100001 +%
#467
b1101010 H"
b11111 ]#
b100010 +%
#468
b100000 ]#
b100011 +%
#469
b100001 ]#
b100100 +%
#470
b0 C#
b100010 ]#
b100101 +%
1;%
#471
b1 K
b10 [
b100010 p"
#472
b10 K
b0 ^
b0 d
b1 `"
#473
b11 K
b10 `"
#474
b100 K
b11 `"
b1101001 p"
#475
b101 K
b1101001 H"
b100 `"
b1 x$
#476
b110 K
b1 ^
b1101000 H"
b101 `"
b1101010 p"
#477
b111 K
b0 ^
b1101010 H"
b110 `"
b10 x$
#478
b1000 K
b10 ^
b111 `"
b10101100 p"
#479
b1001 K
b0 ^
b1000 `"
b10101101 p"
b1000100 x$
#480
b1010 K
b1101001 H"
b1001 `"
b11000001 p"
b1000101 x$
#481
b1011 K
b1010 `"
b11000011 p"
b1011001 x$
#482
b1100 K
b1011 `"
b10110010 p"
b1011011 x$
#483
b1101 K
b1010 ^
b1 d
b1100 `"
b10110000 p"
b1001010 x$
#484
b1110 K
b10010 ^
b10 d
b1101 `"
b10011011 p"
b1001000 x$
#485
b1111 K
b101 ^
b11 d
b1101010 H"
b1110 `"
b10011001 p"
b110011 x$
#486
b10000 K
b110110 ^
b1111 `"
b1110011 p"
b110001 x$
#487
b10001 K
b1 ^
b100 d
b10000 `"
b1011 x$
#488
b10010 K
b1100 ^
b10001 `"
b1101011 p"
#489
b10011 K
b1111 ^
b1101000 H"
b10010 `"
b11 x$
#490
b10100 K
b10010 ^
b1101010 H"
b10011 `"
b1101010 p"
#491
b10101 K
b10100 ^
b10100 `"
b10 x$
#492
b10110 K
b10110 ^
b10101 `"
b1101001 p"
#493
b10111 K
b10111 ^
b1101001 H"
b10110 `"
b1 x$
#494
b11000 K
b11000 ^
b10111 `"
b1101010 p"
#495
b11001 K
b11010 ^
b11000 `"
b10 x$
#496
b11010 K
b11100 ^
b11001 `"
b1101001 p"
#497
b11011 K
b11101 ^
b1101000 H"
b11010 `"
b1 x$
#498
b11100 K
b11110 ^
b1101001 H"
b11011 `"
#499
b11101 K
b11111 ^
b11100 `"
#500
b11110 K
b100000 ^
b1101000 H"
b11101 `"
#501
b11111 K
b100001 ^
b1101001 H"
b11110 `"
#502
b100000 K
b100010 ^
b11111 `"
#503
b100001 K
b100011 ^
b1101000 H"
b100000 `"
#504
b100010 K
b100100 ^
b1101001 H"
b100001 `"
#505
b100011 K
b100101 ^
b100010 `"
#506
b100100 K
b100110 ^
b1101000 H"
b100011 `"
#507
b100101 K
b100111 ^
b1101001 H"
b100100 `"
#508
b100110 K
b110 [
b101000 ^
b100101 `"
b1101010 p"
#509
b1101010 H"
b0 `"
#510
b111 [
b1101001 H"
b0 x$
#511
b1 `"
#512
b101 [
1=%
#513
b0 "
b0 P"
b0 `"
b0 "#
b0 E#
b0 m#
b0 $$
b0 .$
b0 O$
b0 "%
#514
b100 [
b1 `"
#515
b1 P"
b10 `"
b111101111 "%
#516
b10 P"
b11 `"
#517
b11 P"
b100 `"
b100100001 m#
b10001 $$
b1 x$
b111110000 "%
#518
b1101010 H"
b100 P"
b101 `"
b100100001 E#
b10100011001000001 O$
#519
b10100011001000001 "
b1101001 H"
b101 P"
b110 `"
b1001000010 E#
b100000000 m#
b10000 $$
b111111111111111111110110011001111 .$
b10 x$
b110010 "%
#520
b101000110010000010 "
b110 P"
b111 `"
b111111111111111111110110011001111 "#
b1101000010 E#
b10000000000000000 O$
b110011 "%
#521
b111000110010000010 "
b111 P"
b1000 `"
b111111111111111111101100110011110 "#
b10001000010 E#
b100111000100 m#
b110010 $$
b111111111111111111111000000000000 .$
b1000100 x$
b1000111 "%
#522
b1001000110010000010 "
b1000 P"
b1001 `"
b111111111111111111100100110011110 "#
b111000000110 E#
b101000101001 m#
b110011 $$
b10111110101111000010000 O$
b1000101 x$
b1001001 "%
#523
b11000111110101010010010 "
b1001 P"
b1010 `"
b111111111111111111011100110011110 "#
b1100000101111 E#
b1001110110001 m#
b1000111 $$
b11110100001001000 .$
b11001110011101010010001 O$
b1011001 x$
b111000 "%
#524
b110010110010010100100011 "
b1101010 H"
b1010 P"
b1011 `"
b11010000111100110 "#
b10101111100000 E#
b1010011010001 m#
b1001001 $$
b100000011000101011 .$
b1100000111100000001100001 O$
b1011011 x$
b110110 "%
#525
b10010011101110010110000100 "
b1101001 H"
b1011 P"
b1100 `"
b111010100000010001 "#
b100000010110001 E#
b110001000000 m#
b111000 $$
b1010111011000010111 .$
b1101100010101001010100001 O$
b1001010 x$
b100001 "%
#526
b100000000000011100000100101 "
b1100 P"
b1101 `"
b10010001111000101000 "#
b100110011110001 E#
b101101100100 m#
b110110 $$
b1011110111110011001 .$
b100101100001000000000000 O$
b1001000 x$
b11111 "%
#527
b100100101100100100000100101 "
b1101 P"
b1110 `"
b11110000110111000001 "#
b101100001010101 E#
b10001000001 m#
b100001 $$
b101010111000000000 .$
b100000011011111100010000 O$
b110011 x$
b111111001 "%
#528
b101000110000000011100110101 "
b1101010 H"
b1110 P"
b1111 `"
b100011011101111000001 "#
b101110010010110 E#
b1111000001 m#
b11111 $$
b100110011100011000 .$
b100100001100010000001 O$
b110001 x$
#529
b101001010100001111110110110 "
b1111 P"
b10000 `"
b101000010001011011001 "#
b110000001010111 E#
b110001 m#
b111 $$
b1000110001100001 .$
b11100001011110000001 O$
b1011 x$
b111110001 "%
#530
b101001110000011011100110111 "
b1101001 H"
b10000 P"
b10001 `"
b101001010111100111010 "#
b110000010001000 E#
b111010001011111 .$
b100101100001 O$
#531
b101001110000100000010011000 "
b10001 P"
b10010 `"
b101010010001110011001 "#
b110000010111001 E#
b11100001 m#
b1111 $$
b111111111111111111111111010101001 .$
b11 x$
b111110000 "%
#532
b101001110000100100111111001 "
b1101010 H"
b10010 P"
b10011 `"
b101010010001001000010 "#
b110000110011010 E#
b1100010111000001 O$
#533
b101001110010000111110111010 "
b1101001 H"
b10011 P"
b10100 `"
b101010010000011101011 "#
b110001001111011 E#
b100000000 m#
b10000 $$
b111111111111111111111001011010001 .$
b10 x$
b111101111 "%
#534
b101001110011101010101111011 "
b10100 P"
b10101 `"
b101010001001110111100 "#
b110001101111011 E#
b10000000000000000 O$
#535
b101001110101101010101111011 "
b1101000 H"
b10101 P"
b10110 `"
b101010000011010001101 "#
b110010001111011 E#
b100100001 m#
b10001 $$
b111111111111111111111000000000000 .$
b1 x$
b111110000 "%
#536
b101001110111101010101111011 "
b1101001 H"
b10110 P"
b10111 `"
b101001111011010001101 "#
b110010110011100 E#
b10100011001000001 O$
#537
b101001111010001101110111100 "
b10111 P"
b11000 `"
b101001110011010001101 "#
b110011010111101 E#
b100000000 m#
b10000 $$
b111111111111111111110110011001111 .$
b10 x$
b111101111 "%
#538
b101001111100110000111111101 "
b11000 P"
b11001 `"
b101001101001101011100 "#
b110011110111101 E#
b10000000000000000 O$
#539
b101001111110110000111111101 "
b1101010 H"
b11001 P"
b11010 `"
b101001100000000101011 "#
b110100010111101 E#
b100100001 m#
b10001 $$
b111111111111111111111000000000000 .$
b1 x$
#540
b101010000000110000111111101 "
b11010 P"
b11011 `"
b101001011000000101011 "#
b110100111011110 E#
b10100011001000001 O$
#541
b101010000011010100000111110 "
b11011 P"
b11100 `"
b101001010000000101011 "#
b110101011111111 E#
b111111111111111111110110011001111 .$
#542
b101010000101110111001111111 "
b11100 P"
b11101 `"
b101001000110011111010 "#
b110110000100000 E#
#543
b101010001000011010011000000 "
b1101000 H"
b11101 P"
b11110 `"
b101000111100111001001 "#
b110110101000001 E#
#544
b101010001010111101100000001 "
b1101001 H"
b11110 P"
b11111 `"
b101000110011010011000 "#
b110111001100010 E#
#545
b101010001101100000101000010 "
b11111 P"
b100000 `"
b101000101001101100111 "#
b110111110000011 E#
#546
b101010010000000011110000011 "
b100000 P"
b100001 `"
b101000100000000110110 "#
b111000010100100 E#
#547
b101010010010100110111000100 "
b100001 P"
b100010 `"
b101000010110100000101 "#
b111000111000101 E#
#548
b101010010101001010000000101 "
b100010 P"
b100011 `"
b101000001100111010100 "#
b111001011100110 E#
#549
b101010010111101101001000110 "
b100011 P"
b100100 `"
b101000000011010100011 "#
b111010000000111 E#
#550
b101010011010010000010000111 "
b100100 P"
b100101 `"
b100111111001101110010 "#
b111010100101000 E#
#551
b101010011100110011011001000 "
b100101 P"
b100110 `"
b100111110000001000001 "#
b111011001001001 E#
#552
b101010011111010110100001001 "
b1101010 H"
b100110 P"
b100111 `"
b100111100110100010000 "#
#553
b100111 P"
b101000 `"
b100111011100111011111 "#
#554
b1101001 H"
b101000 P"
b101001 `"
#555
b1101010 H"
b101001 P"
b101010 `"
#556
b0 [
b101010 P"
b101011 `"
1<%
#557
b1 [
b1101001 H"
b101011 P"
b0 `"
0;%
#558
b0 K
b11 [
b0 x$
0<%
#561
b1101000 H"
#562
b1101001 H"
#565
b1101010 H"
#566
b1101001 H"
#568
b1101010 H"
#570
b1101001 H"
#575
b1101010 H"
#577
b1101000 H"
#578
b1101001 H"
#579
b1101010 H"
#581
b1101001 H"
#582
b1101010 H"
#586
b1101001 H"
#592
b1101010 H"
#595
b1101001 H"
#599
b1101010 H"
#601
b1101000 H"
#602
b1101001 H"
#605
b1101010 H"
#606
b1101001 H"
#610
b1101010 H"
#611
b1101001 H"
#619
b1101010 H"
#621
b1101001 H"
#624
b1101010 H"
#626
b1101001 H"
#628
b1101000 H"
#629
b1101001 H"
#630
b1101010 H"
#632
b1101001 H"
#635
b1101010 H"
#637
b1101001 H"
#642
b1101010 H"
#645
b1101001 H"
#650
b1101010 H"
#653
b1101001 H"
#654
b1101010 H"
#656
b1101001 H"
#659
b1101010 H"
#667
b1101001 H"
#671
b1101000 H"
#672
b1101001 H"
#673
b1101010 H"
#675
b1101001 H"
#679
b1101010 H"
#681
b1101000 H"
#683
b1101001 H"
#685
b1101010 H"
#688
b1101001 H"
#689
b1101000 H"
#690
b1101001 H"
#700
b1101010 H"
#702
b1101001 H"
#706
b1101010 H"
#709
b1101001 H"
#710
b1101010 H"
#714
b1101001 H"
#715
b1101010 H"
#717
b1101001 H"
#718
b1101010 H"
#720
b1101001 H"
#734
b1101010 H"
#736
b1101001 H"
#739
b1101010 H"
#741
b1101001 H"
#742
b1101010 H"
#744
b1101001 H"
#746
b1101000 H"
#747
b1101001 H"
#749
b1101010 H"
#750
b1101001 H"
#751
b1101000 H"
#752
b1101010 H"
#753
b1101000 H"
#754
b1101001 H"
#755
b1101010 H"
#757
b1101001 H"
#762
b1101010 H"
#763
b1101001 H"
#768
b1101010 H"
#770
b1101001 H"
#775
b1101000 H"
#776
b1101001 H"
#780
b1101000 H"
#781
b1101001 H"
#782
b1101010 H"
#784
b1101001 H"
#789
b1101010 H"
#790
b1101001 H"
#794
b1101010 H"
#795
b1101001 H"
#798
b1101010 H"
#802
b1101001 H"
#807
b1101000 H"
#808
b1101010 H"
#813
b1101001 H"
#814
b1101010 H"
#816
b1101001 H"
#825
b1101000 H"
#826
b1101010 H"
#832
b1101001 H"
#839
b1101000 H"
#840
b1101010 H"
#842
b1101001 H"
#846
b1101010 H"
#848
b1101001 H"
#850
b1101000 H"
#851
b1101001 H"
#854
b1101010 H"
#858
b1101001 H"
#860
b1101000 H"
#861
b1101001 H"
#863
b1101000 H"
#864
b1101001 H"
#874
b1101010 H"
#878
b1101001 H"
#880
b1101010 H"
#882
b1101001 H"
#885
b1101010 H"
#891
b1101001 H"
#896
b1101010 H"
#898
b1101001 H"
#906
b1101010 H"
#910
b1101001 H"
#913
b1101000 H"
#914
b1101010 H"
#917
b1101001 H"
#922
b1101000 H"
#923
b1101001 H"
#936
b1101010 H"
#938
b1101000 H"
#939
b1101001 H"
#942
b1101010 H"
#947
b1101001 H"
#951
b1101000 H"
#952
b1101001 H"
#953
b1101000 H"
#954
b1101010 H"
#962
b1101001 H"
#970
b1101010 H"
#971
b1101001 H"
#972
b1101000 H"
#973
b1101010 H"
#974
b1101001 H"
#980
b1101000 H"
#981
b1101001 H"
#986
b1101010 H"
#987
b1101001 H"
#989
b1101010 H"
#994
b1101001 H"
#995
b1101010 H"
#997
b1101001 H"
#999
b1101000 H"
#1000
b1101001 H"
#1002
b1101010 H"
#1003
b1101001 H"
#1007
b1101000 H"
#1008
b1101001 H"
#1010
b1101010 H"
#1011
b1101001 H"
#1015
b1101000 H"
#1016
b1101001 H"
